dirac i1 20 r1   nan   nan nan   0.9000
dirac i1 20 r2   nan   nan nan   0.9000
dirac i1 20 r3   nan   nan nan   0.9000
dirac i1 20 r4   nan   nan nan   0.9000
dirac i1 20 r5   nan   nan nan   0.9000
dirac i1 20 r6   nan   nan nan   0.9000
dirac i1 20 r7   nan   nan nan   0.9000
dirac i1 20 r8   nan   nan nan   0.9000
dirac i1 20 r9   nan   nan nan   0.9000
dirac i1 20 r10   nan   nan nan   0.9000
dirac i2 20 r1   nan   nan nan   0.9000
dirac i2 20 r2   nan   nan nan   0.9000
dirac i2 20 r3   nan   nan nan   0.9000
dirac i2 20 r4   nan   nan nan   0.9000
dirac i2 20 r5   nan   nan nan   0.9000
dirac i2 20 r6   nan   nan nan   0.9000
dirac i2 20 r7   nan   nan nan   0.9000
dirac i2 20 r8   nan   nan nan   0.9000
dirac i2 20 r9   nan   nan nan   0.9000
dirac i2 20 r10   nan   nan nan   0.9000
dirac i3 20 r1   nan   nan nan   0.9000
dirac i3 20 r2   nan   nan nan   0.9000
dirac i3 20 r3   nan   nan nan   0.9000
dirac i3 20 r4   nan   nan nan   0.9000
dirac i3 20 r5   nan   nan nan   0.9000
dirac i3 20 r6   nan   nan nan   0.9000
dirac i3 20 r7   nan   nan nan   0.9000
dirac i3 20 r8   nan   nan nan   0.9000
dirac i3 20 r9   nan   nan nan   0.9000
dirac i3 20 r10   nan   nan nan   0.9000
dirac i4 20 r1   nan   nan nan   0.9000
dirac i4 20 r2   nan   nan nan   0.9000
dirac i4 20 r3   nan   nan nan   0.9000
dirac i4 20 r4   nan   nan nan   0.9000
dirac i4 20 r5   nan   nan nan   0.9000
dirac i4 20 r6   nan   nan nan   0.9000
dirac i4 20 r7   nan   nan nan   0.9000
dirac i4 20 r8   nan   nan nan   0.9000
dirac i4 20 r9   nan   nan nan   0.9000
dirac i4 20 r10   nan   nan nan   0.9000
dirac i5 20 r1   nan   nan nan   0.9000
dirac i5 20 r2   nan   nan nan   0.9000
dirac i5 20 r3   nan   nan nan   0.9000
dirac i5 20 r4   nan   nan nan   0.9000
dirac i5 20 r5   nan   nan nan   0.9000
dirac i5 20 r6   nan   nan nan   0.9000
dirac i5 20 r7   nan   nan nan   0.9000
dirac i5 20 r8   nan   nan nan   0.9000
dirac i5 20 r9   nan   nan nan   0.9000
dirac i5 20 r10   nan   nan nan   0.9000
dirac i6 20 r1   nan   nan nan   0.9000
dirac i6 20 r2   nan   nan nan   0.9000
dirac i6 20 r3   nan   nan nan   0.9000
dirac i6 20 r4   nan   nan nan   0.9000
dirac i6 20 r5   nan   nan nan   0.9000
dirac i6 20 r6   nan   nan nan   0.9000
dirac i6 20 r7   nan   nan nan   0.9000
dirac i6 20 r8   nan   nan nan   0.9000
dirac i6 20 r9   nan   nan nan   0.9000
dirac i6 20 r10   nan   nan nan   0.9000
dirac i7 20 r1   nan   nan nan   0.9000
dirac i7 20 r2   nan   nan nan   0.9000
dirac i7 20 r3   nan   nan nan   0.9000
dirac i7 20 r4   nan   nan nan   0.9000
dirac i7 20 r5   nan   nan nan   0.9000
dirac i7 20 r6   nan   nan nan   0.9000
dirac i7 20 r7   nan   nan nan   0.9000
dirac i7 20 r8   nan   nan nan   0.9000
dirac i7 20 r9   nan   nan nan   0.9000
dirac i7 20 r10   nan   nan nan   0.9000
dirac i8 20 r1   nan   nan nan   0.9000
dirac i8 20 r2   nan   nan nan   0.9000
dirac i8 20 r3   nan   nan nan   0.9000
dirac i8 20 r4   nan   nan nan   0.9000
dirac i8 20 r5   nan   nan nan   0.9000
dirac i8 20 r6   nan   nan nan   0.9000
dirac i8 20 r7   nan   nan nan   0.9000
dirac i8 20 r8   nan   nan nan   0.9000
dirac i8 20 r9   nan   nan nan   0.9000
dirac i8 20 r10   nan   nan nan   0.9000
dirac i9 20 r1   nan   nan nan   0.9000
dirac i9 20 r2   nan   nan nan   0.9000
dirac i9 20 r3   nan   nan nan   0.9000
dirac i9 20 r4   nan   nan nan   0.9000
dirac i9 20 r5   nan   nan nan   0.9000
dirac i9 20 r6   nan   nan nan   0.9000
dirac i9 20 r7   nan   nan nan   0.9000
dirac i9 20 r8   nan   nan nan   0.9000
dirac i9 20 r9   nan   nan nan   0.9000
dirac i9 20 r10   nan   nan nan   0.9000
dirac i10 20 r1   nan   nan nan   0.9000
dirac i10 20 r2   nan   nan nan   0.9000
dirac i10 20 r3   nan   nan nan   0.9000
dirac i10 20 r4   nan   nan nan   0.9000
dirac i10 20 r5   nan   nan nan   0.9000
dirac i10 20 r6   nan   nan nan   0.9000
dirac i10 20 r7   nan   nan nan   0.9000
dirac i10 20 r8   nan   nan nan   0.9000
dirac i10 20 r9   nan   nan nan   0.9000
dirac i10 20 r10   nan   nan nan   0.9000
dirac i11 20 r1   nan   nan nan   0.9000
dirac i11 20 r2   nan   nan nan   0.9000
dirac i11 20 r3   nan   nan nan   0.9000
dirac i11 20 r4   nan   nan nan   0.9000
dirac i11 20 r5   nan   nan nan   0.9000
dirac i11 20 r6   nan   nan nan   0.9000
dirac i11 20 r7   nan   nan nan   0.9000
dirac i11 20 r8   nan   nan nan   0.9000
dirac i11 20 r9   nan   nan nan   0.9000
dirac i11 20 r10   nan   nan nan   0.9000
dirac i12 20 r1   nan   nan nan   0.9000
dirac i12 20 r2   nan   nan nan   0.9000
dirac i12 20 r3   nan   nan nan   0.9000
dirac i12 20 r4   nan   nan nan   0.9000
dirac i12 20 r5   nan   nan nan   0.9000
dirac i12 20 r6   nan   nan nan   0.9000
dirac i12 20 r7   nan   nan nan   0.9000
dirac i12 20 r8   nan   nan nan   0.9000
dirac i12 20 r9   nan   nan nan   0.9000
dirac i12 20 r10   nan   nan nan   0.9000
dirac i13 20 r1   nan   nan nan   0.9000
dirac i13 20 r2   nan   nan nan   0.9000
dirac i13 20 r3   nan   nan nan   0.9000
dirac i13 20 r4   nan   nan nan   0.9000
dirac i13 20 r5   nan   nan nan   0.9000
dirac i13 20 r6   nan   nan nan   0.9000
dirac i13 20 r7   nan   nan nan   0.9000
dirac i13 20 r8   nan   nan nan   0.9000
dirac i13 20 r9   nan   nan nan   0.9000
dirac i13 20 r10   nan   nan nan   0.9000
dirac i14 20 r1   nan   nan nan   0.9000
dirac i14 20 r2   nan   nan nan   0.9000
dirac i14 20 r3   nan   nan nan   0.9000
dirac i14 20 r4   nan   nan nan   0.9000
dirac i14 20 r5   nan   nan nan   0.9000
dirac i14 20 r6   nan   nan nan   0.9000
dirac i14 20 r7   nan   nan nan   0.9000
dirac i14 20 r8   nan   nan nan   0.9000
dirac i14 20 r9   nan   nan nan   0.9000
dirac i14 20 r10   nan   nan nan   0.9000
dirac i15 20 r1   nan   nan nan   0.9000
dirac i15 20 r2   nan   nan nan   0.9000
dirac i15 20 r3   nan   nan nan   0.9000
dirac i15 20 r4   nan   nan nan   0.9000
dirac i15 20 r5   nan   nan nan   0.9000
dirac i15 20 r6   nan   nan nan   0.9000
dirac i15 20 r7   nan   nan nan   0.9000
dirac i15 20 r8   nan   nan nan   0.9000
dirac i15 20 r9   nan   nan nan   0.9000
dirac i15 20 r10   nan   nan nan   0.9000
dirac i16 20 r1   nan   nan nan   0.9000
dirac i16 20 r2   nan   nan nan   0.9000
dirac i16 20 r3   nan   nan nan   0.9000
dirac i16 20 r4   nan   nan nan   0.9000
dirac i16 20 r5   nan   nan nan   0.9000
dirac i16 20 r6   nan   nan nan   0.9000
dirac i16 20 r7   nan   nan nan   0.9000
dirac i16 20 r8   nan   nan nan   0.9000
dirac i16 20 r9   nan   nan nan   0.9000
dirac i16 20 r10   nan   nan nan   0.9000
dirac i17 20 r1   nan   nan nan   0.9000
dirac i17 20 r2   nan   nan nan   0.9000
dirac i17 20 r3   nan   nan nan   0.9000
dirac i17 20 r4   nan   nan nan   0.9000
dirac i17 20 r5   nan   nan nan   0.9000
dirac i17 20 r6   nan   nan nan   0.9000
dirac i17 20 r7   nan   nan nan   0.9000
dirac i17 20 r8   nan   nan nan   0.9000
dirac i17 20 r9   nan   nan nan   0.9000
dirac i17 20 r10   nan   nan nan   0.9000
dirac i18 20 r1   nan   nan nan   0.9000
dirac i18 20 r2   nan   nan nan   0.9000
dirac i18 20 r3   nan   nan nan   0.9000
dirac i18 20 r4   nan   nan nan   0.9000
dirac i18 20 r5   nan   nan nan   0.9000
dirac i18 20 r6   nan   nan nan   0.9000
dirac i18 20 r7   nan   nan nan   0.9000
dirac i18 20 r8   nan   nan nan   0.9000
dirac i18 20 r9   nan   nan nan   0.9000
dirac i18 20 r10   nan   nan nan   0.9000
dirac i19 20 r1   nan   nan nan   0.9000
dirac i19 20 r2   nan   nan nan   0.9000
dirac i19 20 r3   nan   nan nan   0.9000
dirac i19 20 r4   nan   nan nan   0.9000
dirac i19 20 r5   nan   nan nan   0.9000
dirac i19 20 r6   nan   nan nan   0.9000
dirac i19 20 r7   nan   nan nan   0.9000
dirac i19 20 r8   nan   nan nan   0.9000
dirac i19 20 r9   nan   nan nan   0.9000
dirac i19 20 r10   nan   nan nan   0.9000
dirac i20 20 r1   nan   nan nan   0.9000
dirac i20 20 r2   nan   nan nan   0.9000
dirac i20 20 r3   nan   nan nan   0.9000
dirac i20 20 r4   nan   nan nan   0.9000
dirac i20 20 r5   nan   nan nan   0.9000
dirac i20 20 r6   nan   nan nan   0.9000
dirac i20 20 r7   nan   nan nan   0.9000
dirac i20 20 r8   nan   nan nan   0.9000
dirac i20 20 r9   nan   nan nan   0.9000
dirac i20 20 r10   nan   nan nan   0.9000
dirac i21 20 r1   nan   nan nan   0.9000
dirac i21 20 r2   nan   nan nan   0.9000
dirac i21 20 r3   nan   nan nan   0.9000
dirac i21 20 r4   nan   nan nan   0.9000
dirac i21 20 r5   nan   nan nan   0.9000
dirac i21 20 r6   nan   nan nan   0.9000
dirac i21 20 r7   nan   nan nan   0.9000
dirac i21 20 r8   nan   nan nan   0.9000
dirac i21 20 r9   nan   nan nan   0.9000
dirac i21 20 r10   nan   nan nan   0.9000
dirac i22 20 r1   nan   nan nan   0.9000
dirac i22 20 r2   nan   nan nan   0.9000
dirac i22 20 r3   nan   nan nan   0.9000
dirac i22 20 r4   nan   nan nan   0.9000
dirac i22 20 r5   nan   nan nan   0.9000
dirac i22 20 r6   nan   nan nan   0.9000
dirac i22 20 r7   nan   nan nan   0.9000
dirac i22 20 r8   nan   nan nan   0.9000
dirac i22 20 r9   nan   nan nan   0.9000
dirac i22 20 r10   nan   nan nan   0.9000
dirac i23 20 r1   nan   nan nan   0.9000
dirac i23 20 r2   nan   nan nan   0.9000
dirac i23 20 r3   nan   nan nan   0.9000
dirac i23 20 r4   nan   nan nan   0.9000
dirac i23 20 r5   nan   nan nan   0.9000
dirac i23 20 r6   nan   nan nan   0.9000
dirac i23 20 r7   nan   nan nan   0.9000
dirac i23 20 r8   nan   nan nan   0.9000
dirac i23 20 r9   nan   nan nan   0.9000
dirac i23 20 r10   nan   nan nan   0.9000
dirac i24 20 r1   nan   nan nan   0.9000
dirac i24 20 r2   nan   nan nan   0.9000
dirac i24 20 r3   nan   nan nan   0.9000
dirac i24 20 r4   nan   nan nan   0.9000
dirac i24 20 r5   nan   nan nan   0.9000
dirac i24 20 r6   nan   nan nan   0.9000
dirac i24 20 r7   nan   nan nan   0.9000
dirac i24 20 r8   nan   nan nan   0.9000
dirac i24 20 r9   nan   nan nan   0.9000
dirac i24 20 r10   nan   nan nan   0.9000
dirac i25 20 r1   nan   nan nan   0.9000
dirac i25 20 r2   nan   nan nan   0.9000
dirac i25 20 r3   nan   nan nan   0.9000
dirac i25 20 r4   nan   nan nan   0.9000
dirac i25 20 r5   nan   nan nan   0.9000
dirac i25 20 r6   nan   nan nan   0.9000
dirac i25 20 r7   nan   nan nan   0.9000
dirac i25 20 r8   nan   nan nan   0.9000
dirac i25 20 r9   nan   nan nan   0.9000
dirac i25 20 r10   nan   nan nan   0.9000
dirac i26 20 r1   nan   nan nan   0.9000
dirac i26 20 r2   nan   nan nan   0.9000
dirac i26 20 r3   nan   nan nan   0.9000
dirac i26 20 r4   nan   nan nan   0.9000
dirac i26 20 r5   nan   nan nan   0.9000
dirac i26 20 r6   nan   nan nan   0.9000
dirac i26 20 r7   nan   nan nan   0.9000
dirac i26 20 r8   nan   nan nan   0.9000
dirac i26 20 r9   nan   nan nan   0.9000
dirac i26 20 r10   nan   nan nan   0.9000
dirac i27 20 r1   nan   nan nan   0.9000
dirac i27 20 r2   nan   nan nan   0.9000
dirac i27 20 r3   nan   nan nan   0.9000
dirac i27 20 r4   nan   nan nan   0.9000
dirac i27 20 r5   nan   nan nan   0.9000
dirac i27 20 r6   nan   nan nan   0.9000
dirac i27 20 r7   nan   nan nan   0.9000
dirac i27 20 r8   nan   nan nan   0.9000
dirac i27 20 r9   nan   nan nan   0.9000
dirac i27 20 r10   nan   nan nan   0.9000
dirac i28 20 r1   nan   nan nan   0.9000
dirac i28 20 r2   nan   nan nan   0.9000
dirac i28 20 r3   nan   nan nan   0.9000
dirac i28 20 r4   nan   nan nan   0.9000
dirac i28 20 r5   nan   nan nan   0.9000
dirac i28 20 r6   nan   nan nan   0.9000
dirac i28 20 r7   nan   nan nan   0.9000
dirac i28 20 r8   nan   nan nan   0.9000
dirac i28 20 r9   nan   nan nan   0.9000
dirac i28 20 r10   nan   nan nan   0.9000
dirac i29 20 r1   nan   nan nan   0.9000
dirac i29 20 r2   nan   nan nan   0.9000
dirac i29 20 r3   nan   nan nan   0.9000
dirac i29 20 r4   nan   nan nan   0.9000
dirac i29 20 r5   nan   nan nan   0.9000
dirac i29 20 r6   nan   nan nan   0.9000
dirac i29 20 r7   nan   nan nan   0.9000
dirac i29 20 r8   nan   nan nan   0.9000
dirac i29 20 r9   nan   nan nan   0.9000
dirac i29 20 r10   nan   nan nan   0.9000
dirac i30 20 r1   nan   nan nan   0.9000
dirac i30 20 r2   nan   nan nan   0.9000
dirac i30 20 r3   nan   nan nan   0.9000
dirac i30 20 r4   nan   nan nan   0.9000
dirac i30 20 r5   nan   nan nan   0.9000
dirac i30 20 r6   nan   nan nan   0.9000
dirac i30 20 r7   nan   nan nan   0.9000
dirac i30 20 r8   nan   nan nan   0.9000
dirac i30 20 r9   nan   nan nan   0.9000
dirac i30 20 r10   nan   nan nan   0.9000
dirac i31 20 r1   nan   nan nan   0.9000
dirac i31 20 r2   nan   nan nan   0.9000
dirac i31 20 r3   nan   nan nan   0.9000
dirac i31 20 r4   nan   nan nan   0.9000
dirac i31 20 r5   nan   nan nan   0.9000
dirac i31 20 r6   nan   nan nan   0.9000
dirac i31 20 r7   nan   nan nan   0.9000
dirac i31 20 r8   nan   nan nan   0.9000
dirac i31 20 r9   nan   nan nan   0.9000
dirac i31 20 r10   nan   nan nan   0.9000
dirac i32 20 r1   nan   nan nan   0.9000
dirac i32 20 r2   nan   nan nan   0.9000
dirac i32 20 r3   nan   nan nan   0.9000
dirac i32 20 r4   nan   nan nan   0.9000
dirac i32 20 r5   nan   nan nan   0.9000
dirac i32 20 r6   nan   nan nan   0.9000
dirac i32 20 r7   nan   nan nan   0.9000
dirac i32 20 r8   nan   nan nan   0.9000
dirac i32 20 r9   nan   nan nan   0.9000
dirac i32 20 r10   nan   nan nan   0.9000
dirac i33 20 r1   nan   nan nan   0.9000
dirac i33 20 r2   nan   nan nan   0.9000
dirac i33 20 r3   nan   nan nan   0.9000
dirac i33 20 r4   nan   nan nan   0.9000
dirac i33 20 r5   nan   nan nan   0.9000
dirac i33 20 r6   nan   nan nan   0.9000
dirac i33 20 r7   nan   nan nan   0.9000
dirac i33 20 r8   nan   nan nan   0.9000
dirac i33 20 r9   nan   nan nan   0.9000
dirac i33 20 r10   nan   nan nan   0.9000
dirac i34 20 r1   nan   nan nan   0.9000
dirac i34 20 r2   nan   nan nan   0.9000
dirac i34 20 r3   nan   nan nan   0.9000
dirac i34 20 r4   nan   nan nan   0.9000
dirac i34 20 r5   nan   nan nan   0.9000
dirac i34 20 r6   nan   nan nan   0.9000
dirac i34 20 r7   nan   nan nan   0.9000
dirac i34 20 r8   nan   nan nan   0.9000
dirac i34 20 r9   nan   nan nan   0.9000
dirac i34 20 r10   nan   nan nan   0.9000
dirac i35 20 r1   nan   nan nan   0.9000
dirac i35 20 r2   nan   nan nan   0.9000
dirac i35 20 r3   nan   nan nan   0.9000
dirac i35 20 r4   nan   nan nan   0.9000
dirac i35 20 r5   nan   nan nan   0.9000
dirac i35 20 r6   nan   nan nan   0.9000
dirac i35 20 r7   nan   nan nan   0.9000
dirac i35 20 r8   nan   nan nan   0.9000
dirac i35 20 r9   nan   nan nan   0.9000
dirac i35 20 r10   nan   nan nan   0.9000
dirac i36 20 r1   nan   nan nan   0.9000
dirac i36 20 r2   nan   nan nan   0.9000
dirac i36 20 r3   nan   nan nan   0.9000
dirac i36 20 r4   nan   nan nan   0.9000
dirac i36 20 r5   nan   nan nan   0.9000
dirac i36 20 r6   nan   nan nan   0.9000
dirac i36 20 r7   nan   nan nan   0.9000
dirac i36 20 r8   nan   nan nan   0.9000
dirac i36 20 r9   nan   nan nan   0.9000
dirac i36 20 r10   nan   nan nan   0.9000
dirac i37 20 r1   nan   nan nan   0.9000
dirac i37 20 r2   nan   nan nan   0.9000
dirac i37 20 r3   nan   nan nan   0.9000
dirac i37 20 r4   nan   nan nan   0.9000
dirac i37 20 r5   nan   nan nan   0.9000
dirac i37 20 r6   nan   nan nan   0.9000
dirac i37 20 r7   nan   nan nan   0.9000
dirac i37 20 r8   nan   nan nan   0.9000
dirac i37 20 r9   nan   nan nan   0.9000
dirac i37 20 r10   nan   nan nan   0.9000
dirac i38 20 r1   nan   nan nan   0.9000
dirac i38 20 r2   nan   nan nan   0.9000
dirac i38 20 r3   nan   nan nan   0.9000
dirac i38 20 r4   nan   nan nan   0.9000
dirac i38 20 r5   nan   nan nan   0.9000
dirac i38 20 r6   nan   nan nan   0.9000
dirac i38 20 r7   nan   nan nan   0.9000
dirac i38 20 r8   nan   nan nan   0.9000
dirac i38 20 r9   nan   nan nan   0.9000
dirac i38 20 r10   nan   nan nan   0.9000
dirac i39 20 r1   nan   nan nan   0.9000
dirac i39 20 r2   nan   nan nan   0.9000
dirac i39 20 r3   nan   nan nan   0.9000
dirac i39 20 r4   nan   nan nan   0.9000
dirac i39 20 r5   nan   nan nan   0.9000
dirac i39 20 r6   nan   nan nan   0.9000
dirac i39 20 r7   nan   nan nan   0.9000
dirac i39 20 r8   nan   nan nan   0.9000
dirac i39 20 r9   nan   nan nan   0.9000
dirac i39 20 r10   nan   nan nan   0.9000
dirac i40 20 r1   nan   nan nan   0.9000
dirac i40 20 r2   nan   nan nan   0.9000
dirac i40 20 r3   nan   nan nan   0.9000
dirac i40 20 r4   nan   nan nan   0.9000
dirac i40 20 r5   nan   nan nan   0.9000
dirac i40 20 r6   nan   nan nan   0.9000
dirac i40 20 r7   nan   nan nan   0.9000
dirac i40 20 r8   nan   nan nan   0.9000
dirac i40 20 r9   nan   nan nan   0.9000
dirac i40 20 r10   nan   nan nan   0.9000
dirac i41 20 r1   nan   nan nan   0.9000
dirac i41 20 r2   nan   nan nan   0.9000
dirac i41 20 r3   nan   nan nan   0.9000
dirac i41 20 r4   nan   nan nan   0.9000
dirac i41 20 r5   nan   nan nan   0.9000
dirac i41 20 r6   nan   nan nan   0.9000
dirac i41 20 r7   nan   nan nan   0.9000
dirac i41 20 r8   nan   nan nan   0.9000
dirac i41 20 r9   nan   nan nan   0.9000
dirac i41 20 r10   nan   nan nan   0.9000
dirac i42 20 r1   nan   nan nan   0.9000
dirac i42 20 r2   nan   nan nan   0.9000
dirac i42 20 r3   nan   nan nan   0.9000
dirac i42 20 r4   nan   nan nan   0.9000
dirac i42 20 r5   nan   nan nan   0.9000
dirac i42 20 r6   nan   nan nan   0.9000
dirac i42 20 r7   nan   nan nan   0.9000
dirac i42 20 r8   nan   nan nan   0.9000
dirac i42 20 r9   nan   nan nan   0.9000
dirac i42 20 r10   nan   nan nan   0.9000
dirac i43 20 r1   nan   nan nan   0.9000
dirac i43 20 r2   nan   nan nan   0.9000
dirac i43 20 r3   nan   nan nan   0.9000
dirac i43 20 r4   nan   nan nan   0.9000
dirac i43 20 r5   nan   nan nan   0.9000
dirac i43 20 r6   nan   nan nan   0.9000
dirac i43 20 r7   nan   nan nan   0.9000
dirac i43 20 r8   nan   nan nan   0.9000
dirac i43 20 r9   nan   nan nan   0.9000
dirac i43 20 r10   nan   nan nan   0.9000
dirac i44 20 r1   nan   nan nan   0.9000
dirac i44 20 r2   nan   nan nan   0.9000
dirac i44 20 r3   nan   nan nan   0.9000
dirac i44 20 r4   nan   nan nan   0.9000
dirac i44 20 r5   nan   nan nan   0.9000
dirac i44 20 r6   nan   nan nan   0.9000
dirac i44 20 r7   nan   nan nan   0.9000
dirac i44 20 r8   nan   nan nan   0.9000
dirac i44 20 r9   nan   nan nan   0.9000
dirac i44 20 r10   nan   nan nan   0.9000
dirac i45 20 r1   nan   nan nan   0.9000
dirac i45 20 r2   nan   nan nan   0.9000
dirac i45 20 r3   nan   nan nan   0.9000
dirac i45 20 r4   nan   nan nan   0.9000
dirac i45 20 r5   nan   nan nan   0.9000
dirac i45 20 r6   nan   nan nan   0.9000
dirac i45 20 r7   nan   nan nan   0.9000
dirac i45 20 r8   nan   nan nan   0.9000
dirac i45 20 r9   nan   nan nan   0.9000
dirac i45 20 r10   nan   nan nan   0.9000
dirac i46 20 r1   nan   nan nan   0.9000
dirac i46 20 r2   nan   nan nan   0.9000
dirac i46 20 r3   nan   nan nan   0.9000
dirac i46 20 r4   nan   nan nan   0.9000
dirac i46 20 r5   nan   nan nan   0.9000
dirac i46 20 r6   nan   nan nan   0.9000
dirac i46 20 r7   nan   nan nan   0.9000
dirac i46 20 r8   nan   nan nan   0.9000
dirac i46 20 r9   nan   nan nan   0.9000
dirac i46 20 r10   nan   nan nan   0.9000
dirac i47 20 r1   nan   nan nan   0.9000
dirac i47 20 r2   nan   nan nan   0.9000
dirac i47 20 r3   nan   nan nan   0.9000
dirac i47 20 r4   nan   nan nan   0.9000
dirac i47 20 r5   nan   nan nan   0.9000
dirac i47 20 r6   nan   nan nan   0.9000
dirac i47 20 r7   nan   nan nan   0.9000
dirac i47 20 r8   nan   nan nan   0.9000
dirac i47 20 r9   nan   nan nan   0.9000
dirac i47 20 r10   nan   nan nan   0.9000
dirac i48 20 r1   nan   nan nan   0.9000
dirac i48 20 r2   nan   nan nan   0.9000
dirac i48 20 r3   nan   nan nan   0.9000
dirac i48 20 r4   nan   nan nan   0.9000
dirac i48 20 r5   nan   nan nan   0.9000
dirac i48 20 r6   nan   nan nan   0.9000
dirac i48 20 r7   nan   nan nan   0.9000
dirac i48 20 r8   nan   nan nan   0.9000
dirac i48 20 r9   nan   nan nan   0.9000
dirac i48 20 r10   nan   nan nan   0.9000
dirac i49 20 r1   nan   nan nan   0.9000
dirac i49 20 r2   nan   nan nan   0.9000
dirac i49 20 r3   nan   nan nan   0.9000
dirac i49 20 r4   nan   nan nan   0.9000
dirac i49 20 r5   nan   nan nan   0.9000
dirac i49 20 r6   nan   nan nan   0.9000
dirac i49 20 r7   nan   nan nan   0.9000
dirac i49 20 r8   nan   nan nan   0.9000
dirac i49 20 r9   nan   nan nan   0.9000
dirac i49 20 r10   nan   nan nan   0.9000
dirac i50 20 r1   nan   nan nan   0.9000
dirac i50 20 r2   nan   nan nan   0.9000
dirac i50 20 r3   nan   nan nan   0.9000
dirac i50 20 r4   nan   nan nan   0.9000
dirac i50 20 r5   nan   nan nan   0.9000
dirac i50 20 r6   nan   nan nan   0.9000
dirac i50 20 r7   nan   nan nan   0.9000
dirac i50 20 r8   nan   nan nan   0.9000
dirac i50 20 r9   nan   nan nan   0.9000
dirac i50 20 r10   nan   nan nan   0.9000
