dirac i1 1 r1   0.8984   0.7837 0.9008   0.9000
dirac i1 1 r2   0.9014   0.8005 0.9033   0.9000
dirac i1 1 r3   0.9007   0.7940 0.9027   0.9000
dirac i1 1 r4   0.8569   0.7363 0.9016   0.9000
dirac i1 1 r5   0.8331   0.7197 0.9027   0.9000
dirac i1 1 r6   0.8968   0.6937 0.9017   0.9000
dirac i1 1 r7   0.8975   0.7854 0.8999   0.9000
dirac i1 1 r8   0.9007   0.7756 0.9040   0.9000
dirac i1 1 r9   0.8251   0.7125 0.9017   0.9000
dirac i1 1 r10   0.8018   0.7661 0.9013   0.9000
dirac i2 1 r1   0.8995   0.8589 0.8996   0.9000
dirac i2 1 r2   0.9011   0.7910 0.9032   0.9000
dirac i2 1 r3   0.9014   0.8390 0.9028   0.9000
dirac i2 1 r4   0.8071   0.6969 0.9011   0.9000
dirac i2 1 r5   0.8999   0.8594 0.9000   0.9000
dirac i2 1 r6   0.9004   0.8764 0.9006   0.9000
dirac i2 1 r7   0.8991   0.7494 0.9023   0.9000
dirac i2 1 r8   0.8327   0.7153 0.8997   0.9000
dirac i2 1 r9   0.8420   0.7261 0.9023   0.9000
dirac i2 1 r10   0.9002   0.7767 0.9024   0.9000
dirac i3 1 r1   0.8956   0.7253 0.9051   0.9000
dirac i3 1 r2   0.8988   0.8023 0.9008   0.9000
dirac i3 1 r3   0.8871   0.8479 0.9033   0.9000
dirac i3 1 r4   0.8625   0.7434 0.9035   0.9000
dirac i3 1 r5   0.8810   0.8425 0.9013   0.9000
dirac i3 1 r6   0.8527   0.8138 0.9026   0.9000
dirac i3 1 r7   0.8811   0.8428 0.9006   0.9000
dirac i3 1 r8   0.9007   0.8659 0.9009   0.9000
dirac i3 1 r9   0.8725   0.7496 0.9020   0.9000
dirac i3 1 r10   0.8978   0.7582 0.9008   0.9000
dirac i4 1 r1   0.9003   0.8461 0.9017   0.9000
dirac i4 1 r2   0.9036   0.8596 0.9040   0.9000
dirac i4 1 r3   0.9003   0.7934 0.9023   0.9000
dirac i4 1 r4   0.9002   0.7867 0.9023   0.9000
dirac i4 1 r5   0.9007   0.7591 0.9035   0.9000
dirac i4 1 r6   0.8726   0.8340 0.9022   0.9000
dirac i4 1 r7   0.9024   0.8619 0.9025   0.9000
dirac i4 1 r8   0.8999   0.8677 0.9003   0.9000
dirac i4 1 r9   0.8998   0.7959 0.9018   0.9000
dirac i4 1 r10   0.8833   0.7594 0.9025   0.9000
dirac i5 1 r1   0.9007   0.8280 0.9022   0.9000
dirac i5 1 r2   0.9001   0.7945 0.9020   0.9000
dirac i5 1 r3   0.8982   0.7850 0.9006   0.9000
dirac i5 1 r4   0.9005   0.7915 0.9025   0.9000
dirac i5 1 r5   0.9021   0.7855 0.9042   0.9000
dirac i5 1 r6   0.7830   0.6777 0.9010   0.9000
dirac i5 1 r7   0.9007   0.8275 0.9021   0.9000
dirac i5 1 r8   0.8965   0.6979 0.9034   0.9000
dirac i5 1 r9   0.8552   0.7354 0.9018   0.9000
dirac i5 1 r10   0.8319   0.7183 0.9022   0.9000
dirac i6 1 r1   0.8989   0.7662 0.9016   0.9000
dirac i6 1 r2   0.8984   0.7825 0.9008   0.9000
dirac i6 1 r3   0.9001   0.7719 0.9025   0.9000
dirac i6 1 r4   0.8991   0.8426 0.9007   0.9000
dirac i6 1 r5   0.8978   0.7184 0.9023   0.9000
dirac i6 1 r6   0.9013   0.8379 0.9027   0.9000
dirac i6 1 r7   0.8288   0.7915 0.9021   0.9000
dirac i6 1 r8   0.9003   0.8163 0.9018   0.9000
dirac i6 1 r9   0.8975   0.8016 0.8996   0.9000
dirac i6 1 r10   0.9008   0.8244 0.9022   0.9000
dirac i7 1 r1   0.9006   0.8164 0.9022   0.9000
dirac i7 1 r2   0.9005   0.7767 0.9028   0.9000
dirac i7 1 r3   0.9002   0.7862 0.9023   0.9000
dirac i7 1 r4   0.8972   0.7977 0.8994   0.9000
dirac i7 1 r5   0.9001   0.8525 0.9010   0.9000
dirac i7 1 r6   0.9029   0.8614 0.9030   0.9000
dirac i7 1 r7   0.8977   0.7715 0.9015   0.9000
dirac i7 1 r8   0.8986   0.8103 0.9005   0.9000
dirac i7 1 r9   0.8860   0.7522 0.9028   0.9000
dirac i7 1 r10   0.7809   0.6734 0.8987   0.9000
dirac i8 1 r1   0.9007   0.8178 0.9022   0.9000
dirac i8 1 r2   0.9008   0.8439 0.9022   0.9000
dirac i8 1 r3   0.8997   0.7524 0.9028   0.9000
dirac i8 1 r4   0.8806   0.6872 0.9014   0.9000
dirac i8 1 r5   0.8988   0.7531 0.9019   0.9000
dirac i8 1 r6   0.9024   0.8287 0.9039   0.9000
dirac i8 1 r7   0.8996   0.7928 0.9016   0.9000
dirac i8 1 r8   0.9028   0.8586 0.9032   0.9000
dirac i8 1 r9   0.8415   0.7246 0.9016   0.9000
dirac i8 1 r10   0.9005   0.8096 0.9021   0.9000
dirac i9 1 r1   0.8998   0.7865 0.9020   0.9000
dirac i9 1 r2   0.8742   0.7530 0.9037   0.9000
dirac i9 1 r3   0.8983   0.8002 0.9003   0.9000
dirac i9 1 r4   0.9008   0.8439 0.9022   0.9000
dirac i9 1 r5   0.8769   0.7537 0.9026   0.9000
dirac i9 1 r6   0.8901   0.7552 0.9010   0.9000
dirac i9 1 r7   0.9024   0.8347 0.9039   0.9000
dirac i9 1 r8   0.8938   0.7115 0.9003   0.9000
dirac i9 1 r9   0.8858   0.8471 0.9016   0.9000
dirac i9 1 r10   0.9002   0.8652 0.9005   0.9000
dirac i10 1 r1   0.9006   0.7787 0.9029   0.9000
dirac i10 1 r2   0.9003   0.8625 0.9004   0.9000
dirac i10 1 r3   0.8969   0.7034 0.9025   0.9000
dirac i10 1 r4   0.8987   0.7723 0.9012   0.9000
dirac i10 1 r5   0.9015   0.8518 0.9022   0.9000
dirac i10 1 r6   0.8922   0.7089 0.9027   0.9000
dirac i10 1 r7   0.9010   0.7883 0.9030   0.9000
dirac i10 1 r8   0.8990   0.8261 0.9006   0.9000
dirac i10 1 r9   0.8583   0.7377 0.9016   0.9000
dirac i10 1 r10   0.9016   0.8170 0.9032   0.9000
dirac i11 1 r1   0.9006   0.8077 0.9024   0.9000
dirac i11 1 r2   0.8979   0.7813 0.9004   0.9000
dirac i11 1 r3   0.8994   0.8586 0.9003   0.9000
dirac i11 1 r4   0.8976   0.7730 0.9003   0.9000
dirac i11 1 r5   0.9006   0.8126 0.9023   0.9000
dirac i11 1 r6   0.9010   0.8649 0.9013   0.9000
dirac i11 1 r7   0.9009   0.7540 0.9041   0.9000
dirac i11 1 r8   0.8862   0.7611 0.9006   0.9000
dirac i11 1 r9   0.9008   0.7857 0.9029   0.9000
dirac i11 1 r10   0.8627   0.7432 0.9032   0.9000
dirac i12 1 r1   0.8978   0.7289 0.9016   0.9000
dirac i12 1 r2   0.9012   0.7963 0.9031   0.9000
dirac i12 1 r3   0.8980   0.8135 0.8999   0.9000
dirac i12 1 r4   0.7842   0.7482 0.9012   0.9000
dirac i12 1 r5   0.8986   0.7846 0.9009   0.9000
dirac i12 1 r6   0.8765   0.7532 0.9022   0.9000
dirac i12 1 r7   0.9025   0.8781 0.9028   0.9000
dirac i12 1 r8   0.9003   0.8620 0.9005   0.9000
dirac i12 1 r9   0.8978   0.7666 0.9006   0.9000
dirac i12 1 r10   0.8683   0.7462 0.9021   0.9000
dirac i13 1 r1   0.8876   0.8492 0.9005   0.9000
dirac i13 1 r2   0.9022   0.8293 0.9036   0.9000
dirac i13 1 r3   0.8075   0.6985 0.9017   0.9000
dirac i13 1 r4   0.8946   0.6907 0.8994   0.9000
dirac i13 1 r5   0.8784   0.8400 0.9010   0.9000
dirac i13 1 r6   0.8994   0.7713 0.9018   0.9000
dirac i13 1 r7   0.7314   0.6362 0.9002   0.9000
dirac i13 1 r8   0.9014   0.8606 0.9015   0.9000
dirac i13 1 r9   0.8997   0.8139 0.9014   0.9000
dirac i13 1 r10   0.8996   0.8070 0.9014   0.9000
dirac i14 1 r1   0.9012   0.8623 0.9015   0.9000
dirac i14 1 r2   0.8835   0.7610 0.9042   0.9000
dirac i14 1 r3   0.8610   0.7422 0.9034   0.9000
dirac i14 1 r4   0.8264   0.7130 0.9015   0.9000
dirac i14 1 r5   0.9002   0.8015 0.9021   0.9000
dirac i14 1 r6   0.9005   0.8708 0.9007   0.9000
dirac i14 1 r7   0.8990   0.7412 0.9031   0.9000
dirac i14 1 r8   0.9014   0.8428 0.9028   0.9000
dirac i14 1 r9   0.8997   0.7993 0.9016   0.9000
dirac i14 1 r10   0.8976   0.8588 0.9014   0.9000
dirac i15 1 r1   0.9007   0.8209 0.9023   0.9000
dirac i15 1 r2   0.8740   0.7509 0.9021   0.9000
dirac i15 1 r3   0.8999   0.7920 0.9019   0.9000
dirac i15 1 r4   0.9014   0.8041 0.9032   0.9000
dirac i15 1 r5   0.7533   0.6538 0.9001   0.9000
dirac i15 1 r6   0.8990   0.8373 0.9006   0.9000
dirac i15 1 r7   0.9001   0.8439 0.9015   0.9000
dirac i15 1 r8   0.8335   0.7976 0.9034   0.9000
dirac i15 1 r9   0.9016   0.8531 0.9025   0.9000
dirac i15 1 r10   0.7813   0.7459 0.8991   0.9000
dirac i16 1 r1   0.8800   0.7572 0.9034   0.9000
dirac i16 1 r2   0.8967   0.7700 0.9011   0.9000
dirac i16 1 r3   0.8821   0.7583 0.9021   0.9000
dirac i16 1 r4   0.8236   0.7113 0.9016   0.9000
dirac i16 1 r5   0.9009   0.8214 0.9024   0.9000
dirac i16 1 r6   0.8417   0.8048 0.9040   0.9000
dirac i16 1 r7   0.8997   0.8398 0.9011   0.9000
dirac i16 1 r8   0.8998   0.8598 0.8999   0.9000
dirac i16 1 r9   0.8082   0.7101 0.9031   0.9000
dirac i16 1 r10   0.7657   0.6650 0.9015   0.9000
dirac i17 1 r1   0.8988   0.8127 0.9006   0.9000
dirac i17 1 r2   0.9011   0.8321 0.9025   0.9000
dirac i17 1 r3   0.9014   0.7854 0.9035   0.9000
dirac i17 1 r4   0.8959   0.7416 0.8996   0.9000
dirac i17 1 r5   0.8995   0.7414 0.9037   0.9000
dirac i17 1 r6   0.8999   0.8062 0.9016   0.9000
dirac i17 1 r7   0.8996   0.8647 0.9003   0.9000
dirac i17 1 r8   0.8065   0.6976 0.9016   0.9000
dirac i17 1 r9   0.9003   0.7979 0.9022   0.9000
dirac i17 1 r10   0.8392   0.7235 0.9021   0.9000
dirac i18 1 r1   0.9028   0.8624 0.9029   0.9000
dirac i18 1 r2   0.9014   0.7859 0.9036   0.9000
dirac i18 1 r3   0.8996   0.8025 0.9014   0.9000
dirac i18 1 r4   0.8985   0.7891 0.9008   0.9000
dirac i18 1 r5   0.8961   0.7564 0.8997   0.9000
dirac i18 1 r6   0.9015   0.8161 0.9032   0.9000
dirac i18 1 r7   0.7941   0.6947 0.9014   0.9000
dirac i18 1 r8   0.9018   0.7867 0.9039   0.9000
dirac i18 1 r9   0.8920   0.6781 0.9027   0.9000
dirac i18 1 r10   0.8995   0.8119 0.9013   0.9000
dirac i19 1 r1   0.8971   0.7673 0.9000   0.9000
dirac i19 1 r2   0.8989   0.7702 0.9021   0.9000
dirac i19 1 r3   0.8107   0.7046 0.9025   0.9000
dirac i19 1 r4   0.8814   0.8425 0.9024   0.9000
dirac i19 1 r5   0.9004   0.8607 0.9005   0.9000
dirac i19 1 r6   0.8398   0.7250 0.9028   0.9000
dirac i19 1 r7   0.8440   0.7254 0.9008   0.9000
dirac i19 1 r8   0.9009   0.7967 0.9028   0.9000
dirac i19 1 r9   0.8995   0.7646 0.9021   0.9000
dirac i19 1 r10   0.8990   0.8052 0.9009   0.9000
dirac i20 1 r1   0.9000   0.7428 0.9044   0.9000
dirac i20 1 r2   0.8837   0.7597 0.9016   0.9000
dirac i20 1 r3   0.9020   0.8605 0.9021   0.9000
dirac i20 1 r4   0.9016   0.7934 0.9036   0.9000
dirac i20 1 r5   0.8954   0.7191 0.9015   0.9000
dirac i20 1 r6   0.8802   0.7590 0.9047   0.9000
dirac i20 1 r7   0.8995   0.8061 0.9013   0.9000
dirac i20 1 r8   0.8916   0.7021 0.9007   0.9000
dirac i20 1 r9   0.8956   0.7682 0.8984   0.9000
dirac i20 1 r10   0.8994   0.7760 0.9017   0.9000
dirac i21 1 r1   0.9010   0.7932 0.9030   0.9000
dirac i21 1 r2   0.9000   0.7746 0.9023   0.9000
dirac i21 1 r3   0.8997   0.7478 0.9029   0.9000
dirac i21 1 r4   0.8601   0.7434 0.9047   0.9000
dirac i21 1 r5   0.9004   0.8353 0.9018   0.9000
dirac i21 1 r6   0.9003   0.7935 0.9023   0.9000
dirac i21 1 r7   0.8722   0.7491 0.9020   0.9000
dirac i21 1 r8   0.8996   0.8658 0.9003   0.9000
dirac i21 1 r9   0.8779   0.6910 0.9022   0.9000
dirac i21 1 r10   0.9000   0.8722 0.9003   0.9000
dirac i22 1 r1   0.9013   0.8127 0.9030   0.9000
dirac i22 1 r2   0.8562   0.7358 0.9015   0.9000
dirac i22 1 r3   0.8993   0.7800 0.9016   0.9000
dirac i22 1 r4   0.8993   0.8542 0.9003   0.9000
dirac i22 1 r5   0.8913   0.7642 0.9001   0.9000
dirac i22 1 r6   0.7708   0.7354 0.9010   0.9000
dirac i22 1 r7   0.9016   0.8337 0.9031   0.9000
dirac i22 1 r8   0.8976   0.7377 0.9016   0.9000
dirac i22 1 r9   0.8610   0.7423 0.9034   0.9000
dirac i22 1 r10   0.8983   0.7767 0.9008   0.9000
dirac i23 1 r1   0.9019   0.7876 0.9040   0.9000
dirac i23 1 r2   0.8990   0.8045 0.9009   0.9000
dirac i23 1 r3   0.8961   0.6985 0.9007   0.9000
dirac i23 1 r4   0.8582   0.7384 0.9023   0.9000
dirac i23 1 r5   0.8985   0.7331 0.9046   0.9000
dirac i23 1 r6   0.8986   0.7805 0.9010   0.9000
dirac i23 1 r7   0.7965   0.7608 0.9008   0.9000
dirac i23 1 r8   0.8989   0.7579 0.9018   0.9000
dirac i23 1 r9   0.8938   0.7691 0.9033   0.9000
dirac i23 1 r10   0.8969   0.7696 0.9007   0.9000
dirac i24 1 r1   0.9007   0.7752 0.9030   0.9000
dirac i24 1 r2   0.9017   0.7953 0.9037   0.9000
dirac i24 1 r3   0.8996   0.8073 0.9014   0.9000
dirac i24 1 r4   0.9005   0.7807 0.9026   0.9000
dirac i24 1 r5   0.8995   0.8587 0.8997   0.9000
dirac i24 1 r6   0.8582   0.7384 0.9023   0.9000
dirac i24 1 r7   0.9009   0.8064 0.9027   0.9000
dirac i24 1 r8   0.8683   0.8294 0.9031   0.9000
dirac i24 1 r9   0.9003   0.8617 0.9006   0.9000
dirac i24 1 r10   0.8994   0.8565 0.9003   0.9000
dirac i25 1 r1   0.9004   0.8624 0.9006   0.9000
dirac i25 1 r2   0.8988   0.7681 0.9017   0.9000
dirac i25 1 r3   0.9020   0.8133 0.9037   0.9000
dirac i25 1 r4   0.8994   0.7681 0.9020   0.9000
dirac i25 1 r5   0.8978   0.7945 0.9000   0.9000
dirac i25 1 r6   0.9002   0.8616 0.9004   0.9000
dirac i25 1 r7   0.9019   0.8268 0.9034   0.9000
dirac i25 1 r8   0.8603   0.7389 0.9014   0.9000
dirac i25 1 r9   0.9013   0.7981 0.9032   0.9000
dirac i25 1 r10   0.7370   0.6408 0.9004   0.9000
dirac i26 1 r1   0.9015   0.8290 0.9030   0.9000
dirac i26 1 r2   0.8649   0.7436 0.9023   0.9000
dirac i26 1 r3   0.8998   0.7340 0.9035   0.9000
dirac i26 1 r4   0.8995   0.8232 0.9011   0.9000
dirac i26 1 r5   0.8999   0.7735 0.9023   0.9000
dirac i26 1 r6   0.8985   0.7365 0.9031   0.9000
dirac i26 1 r7   0.8046   0.7690 0.9009   0.9000
dirac i26 1 r8   0.8998   0.8609 0.9003   0.9000
dirac i26 1 r9   0.8973   0.7301 0.9023   0.9000
dirac i26 1 r10   0.9015   0.8356 0.9029   0.9000
dirac i27 1 r1   0.9009   0.8013 0.9027   0.9000
dirac i27 1 r2   0.9009   0.7323 0.9048   0.9000
dirac i27 1 r3   0.8912   0.6729 0.9010   0.9000
dirac i27 1 r4   0.8989   0.7614 0.9017   0.9000
dirac i27 1 r5   0.8866   0.7624 0.9020   0.9000
dirac i27 1 r6   0.8990   0.7955 0.9011   0.9000
dirac i27 1 r7   0.9005   0.8764 0.9007   0.9000
dirac i27 1 r8   0.8966   0.7240 0.9033   0.9000
dirac i27 1 r9   0.9013   0.7982 0.9032   0.9000
dirac i27 1 r10   0.8996   0.7621 0.9023   0.9000
dirac i28 1 r1   0.9013   0.8611 0.9014   0.9000
dirac i28 1 r2   0.8724   0.7501 0.9027   0.9000
dirac i28 1 r3   0.8165   0.7057 0.9027   0.9000
dirac i28 1 r4   0.7600   0.6791 0.8995   0.9000
dirac i28 1 r5   0.9014   0.8097 0.9031   0.9000
dirac i28 1 r6   0.8993   0.8539 0.9003   0.9000
dirac i28 1 r7   0.8337   0.7950 0.9012   0.9000
dirac i28 1 r8   0.9003   0.8426 0.9017   0.9000
dirac i28 1 r9   0.8679   0.7454 0.9018   0.9000
dirac i28 1 r10   0.8989   0.8500 0.9003   0.9000
dirac i29 1 r1   0.8993   0.8437 0.9008   0.9000
dirac i29 1 r2   0.8717   0.7509 0.9036   0.9000
dirac i29 1 r3   0.8994   0.7380 0.9029   0.9000
dirac i29 1 r4   0.8978   0.7754 0.9004   0.9000
dirac i29 1 r5   0.9022   0.8263 0.9036   0.9000
dirac i29 1 r6   0.8989   0.7937 0.9010   0.9000
dirac i29 1 r7   0.8993   0.7843 0.9015   0.9000
dirac i29 1 r8   0.9025   0.8622 0.9026   0.9000
dirac i29 1 r9   0.8939   0.7113 0.9014   0.9000
dirac i29 1 r10   0.8423   0.7257 0.9019   0.9000
dirac i30 1 r1   0.9001   0.8196 0.9016   0.9000
dirac i30 1 r2   0.7942   0.7581 0.9021   0.9000
dirac i30 1 r3   0.8994   0.8633 0.9003   0.9000
dirac i30 1 r4   0.8999   0.7769 0.9021   0.9000
dirac i30 1 r5   0.9032   0.8616 0.9033   0.9000
dirac i30 1 r6   0.9014   0.8549 0.9021   0.9000
dirac i30 1 r7   0.9000   0.8674 0.9001   0.9000
dirac i30 1 r8   0.8983   0.8266 0.9000   0.9000
dirac i30 1 r9   0.9009   0.7875 0.9030   0.9000
dirac i30 1 r10   0.8999   0.8593 0.9000   0.9000
dirac i31 1 r1   0.8891   0.6967 0.9011   0.9000
dirac i31 1 r2   0.9000   0.8718 0.9001   0.9000
dirac i31 1 r3   0.8980   0.7325 0.9031   0.9000
dirac i31 1 r4   0.9018   0.7771 0.9041   0.9000
dirac i31 1 r5   0.8662   0.7443 0.9020   0.9000
dirac i31 1 r6   0.8968   0.7984 0.8990   0.9000
dirac i31 1 r7   0.8979   0.7651 0.9015   0.9000
dirac i31 1 r8   0.8984   0.8134 0.9003   0.9000
dirac i31 1 r9   0.8257   0.7124 0.9014   0.9000
dirac i31 1 r10   0.8572   0.8177 0.9045   0.9000
dirac i32 1 r1   0.8988   0.7777 0.9012   0.9000
dirac i32 1 r2   0.8792   0.7560 0.9030   0.9000
dirac i32 1 r3   0.8950   0.7164 0.9024   0.9000
dirac i32 1 r4   0.7841   0.6875 0.9005   0.9000
dirac i32 1 r5   0.9032   0.8076 0.9050   0.9000
dirac i32 1 r6   0.8206   0.7083 0.9012   0.9000
dirac i32 1 r7   0.8961   0.7878 0.8984   0.9000
dirac i32 1 r8   0.8756   0.7523 0.9018   0.9000
dirac i32 1 r9   0.9000   0.8704 0.9003   0.9000
dirac i32 1 r10   0.8985   0.7938 0.9007   0.9000
dirac i33 1 r1   0.9035   0.7888 0.9057   0.9000
dirac i33 1 r2   0.8987   0.7641 0.9015   0.9000
dirac i33 1 r3   0.9014   0.8309 0.9028   0.9000
dirac i33 1 r4   0.8154   0.7082 0.9029   0.9000
dirac i33 1 r5   0.7715   0.7355 0.9007   0.9000
dirac i33 1 r6   0.8997   0.8090 0.9015   0.9000
dirac i33 1 r7   0.8976   0.8086 0.8996   0.9000
dirac i33 1 r8   0.8985   0.7739 0.9010   0.9000
dirac i33 1 r9   0.8791   0.7567 0.9036   0.9000
dirac i33 1 r10   0.8998   0.8144 0.9014   0.9000
dirac i34 1 r1   0.8991   0.7307 0.9029   0.9000
dirac i34 1 r2   0.8492   0.7321 0.9027   0.9000
dirac i34 1 r3   0.9021   0.8109 0.9039   0.9000
dirac i34 1 r4   0.9011   0.8237 0.9025   0.9000
dirac i34 1 r5   0.8988   0.7929 0.9010   0.9000
dirac i34 1 r6   0.8964   0.6880 0.9018   0.9000
dirac i34 1 r7   0.8643   0.7449 0.9036   0.9000
dirac i34 1 r8   0.8875   0.7633 0.9034   0.9000
dirac i34 1 r9   0.8979   0.7863 0.9003   0.9000
dirac i34 1 r10   0.8990   0.7359 0.9045   0.9000
dirac i35 1 r1   0.8988   0.8394 0.9004   0.9000
dirac i35 1 r2   0.9008   0.7962 0.9028   0.9000
dirac i35 1 r3   0.9013   0.7598 0.9041   0.9000
dirac i35 1 r4   0.9014   0.8766 0.9016   0.9000
dirac i35 1 r5   0.9013   0.8083 0.9031   0.9000
dirac i35 1 r6   0.9018   0.8616 0.9019   0.9000
dirac i35 1 r7   0.8988   0.8571 0.8989   0.9000
dirac i35 1 r8   0.9002   0.8693 0.9005   0.9000
dirac i35 1 r9   0.8973   0.7147 0.9020   0.9000
dirac i35 1 r10   0.8995   0.8118 0.9013   0.9000
dirac i36 1 r1   0.8983   0.8465 0.9003   0.9000
dirac i36 1 r2   0.8900   0.7657 0.9035   0.9000
dirac i36 1 r3   0.8900   0.7657 0.9035   0.9000
dirac i36 1 r4   0.8983   0.7514 0.9015   0.9000
dirac i36 1 r5   0.8838   0.7598 0.9019   0.9000
dirac i36 1 r6   0.8990   0.7906 0.9012   0.9000
dirac i36 1 r7   0.8328   0.7208 0.9036   0.9000
dirac i36 1 r8   0.8995   0.8222 0.9010   0.9000
dirac i36 1 r9   0.8895   0.7646 0.9011   0.9000
dirac i36 1 r10   0.8993   0.7988 0.9013   0.9000
dirac i37 1 r1   0.9001   0.7907 0.9022   0.9000
dirac i37 1 r2   0.9004   0.7850 0.9025   0.9000
dirac i37 1 r3   0.8829   0.7590 0.9015   0.9000
dirac i37 1 r4   0.8383   0.7237 0.9027   0.9000
dirac i37 1 r5   0.8992   0.8068 0.9010   0.9000
dirac i37 1 r6   0.7841   0.7479 0.9018   0.9000
dirac i37 1 r7   0.9000   0.7831 0.9021   0.9000
dirac i37 1 r8   0.8830   0.7593 0.9028   0.9000
dirac i37 1 r9   0.8438   0.7274 0.9024   0.9000
dirac i37 1 r10   0.9035   0.8302 0.9049   0.9000
dirac i38 1 r1   0.8981   0.8205 0.8998   0.9000
dirac i38 1 r2   0.9018   0.7874 0.9040   0.9000
dirac i38 1 r3   0.8753   0.7540 0.9038   0.9000
dirac i38 1 r4   0.9039   0.8397 0.9053   0.9000
dirac i38 1 r5   0.9008   0.7867 0.9029   0.9000
dirac i38 1 r6   0.9012   0.8770 0.9014   0.9000
dirac i38 1 r7   0.9011   0.8705 0.9013   0.9000
dirac i38 1 r8   0.9017   0.8581 0.9021   0.9000
dirac i38 1 r9   0.8998   0.8589 0.8999   0.9000
dirac i38 1 r10   0.9007   0.7673 0.9033   0.9000
dirac i39 1 r1   0.9023   0.8782 0.9025   0.9000
dirac i39 1 r2   0.8825   0.6792 0.8996   0.9000
dirac i39 1 r3   0.9000   0.8234 0.9014   0.9000
dirac i39 1 r4   0.9026   0.8143 0.9044   0.9000
dirac i39 1 r5   0.8790   0.7554 0.9013   0.9000
dirac i39 1 r6   0.9015   0.8160 0.9031   0.9000
dirac i39 1 r7   0.8988   0.7780 0.9012   0.9000
dirac i39 1 r8   0.9001   0.8038 0.9019   0.9000
dirac i39 1 r9   0.8985   0.7362 0.9022   0.9000
dirac i39 1 r10   0.8996   0.8078 0.9014   0.9000
dirac i40 1 r1   0.8645   0.7421 0.9013   0.9000
dirac i40 1 r2   0.8639   0.7419 0.9016   0.9000
dirac i40 1 r3   0.8981   0.7195 0.9021   0.9000
dirac i40 1 r4   0.8653   0.7459 0.9036   0.9000
dirac i40 1 r5   0.9012   0.8623 0.9014   0.9000
dirac i40 1 r6   0.7941   0.7039 0.9025   0.9000
dirac i40 1 r7   0.8980   0.7655 0.9015   0.9000
dirac i40 1 r8   0.9000   0.8123 0.9016   0.9000
dirac i40 1 r9   0.8590   0.7437 0.9056   0.9000
dirac i40 1 r10   0.8987   0.7281 0.9024   0.9000
dirac i41 1 r1   0.9001   0.8633 0.9003   0.9000
dirac i41 1 r2   0.8997   0.8319 0.9011   0.9000
dirac i41 1 r3   0.8221   0.7119 0.9032   0.9000
dirac i41 1 r4   0.9001   0.8285 0.9015   0.9000
dirac i41 1 r5   0.8541   0.7358 0.9027   0.9000
dirac i41 1 r6   0.9008   0.8568 0.9014   0.9000
dirac i41 1 r7   0.8753   0.8362 0.9036   0.9000
dirac i41 1 r8   0.8982   0.7107 0.9034   0.9000
dirac i41 1 r9   0.8705   0.7481 0.9022   0.9000
dirac i41 1 r10   0.9007   0.7497 0.9042   0.9000
dirac i42 1 r1   0.9013   0.7935 0.9033   0.9000
dirac i42 1 r2   0.8846   0.8459 0.9003   0.9000
dirac i42 1 r3   0.9008   0.8621 0.9011   0.9000
dirac i42 1 r4   0.8200   0.7118 0.9033   0.9000
dirac i42 1 r5   0.8742   0.7517 0.9028   0.9000
dirac i42 1 r6   0.8986   0.7680 0.9013   0.9000
dirac i42 1 r7   0.8455   0.7258 0.9002   0.9000
dirac i42 1 r8   0.8957   0.7473 0.8991   0.9000
dirac i42 1 r9   0.8987   0.7717 0.9012   0.9000
dirac i42 1 r10   0.8819   0.7580 0.9024   0.9000
dirac i43 1 r1   0.8944   0.7695 0.9021   0.9000
dirac i43 1 r2   0.8985   0.8086 0.9004   0.9000
dirac i43 1 r3   0.8972   0.7443 0.9008   0.9000
dirac i43 1 r4   0.8992   0.7928 0.9013   0.9000
dirac i43 1 r5   0.9030   0.7806 0.9053   0.9000
dirac i43 1 r6   0.8058   0.6950 0.8997   0.9000
dirac i43 1 r7   0.9007   0.8136 0.9023   0.9000
dirac i43 1 r8   0.8987   0.7813 0.9010   0.9000
dirac i43 1 r9   0.9005   0.7600 0.9032   0.9000
dirac i43 1 r10   0.8998   0.7640 0.9024   0.9000
dirac i44 1 r1   0.9003   0.8459 0.9016   0.9000
dirac i44 1 r2   0.8999   0.7213 0.9037   0.9000
dirac i44 1 r3   0.8620   0.7412 0.9022   0.9000
dirac i44 1 r4   0.8992   0.7580 0.9021   0.9000
dirac i44 1 r5   0.9011   0.8623 0.9013   0.9000
dirac i44 1 r6   0.9007   0.7937 0.9026   0.9000
dirac i44 1 r7   0.8930   0.7105 0.9025   0.9000
dirac i44 1 r8   0.8997   0.7499 0.9030   0.9000
dirac i44 1 r9   0.8401   0.7253 0.9028   0.9000
dirac i44 1 r10   0.8889   0.7547 0.9029   0.9000
dirac i45 1 r1   0.9004   0.7994 0.9023   0.9000
dirac i45 1 r2   0.8527   0.7332 0.9016   0.9000
dirac i45 1 r3   0.8975   0.7904 0.8998   0.9000
dirac i45 1 r4   0.8585   0.7400 0.9033   0.9000
dirac i45 1 r5   0.8590   0.7370 0.9007   0.9000
dirac i45 1 r6   0.9014   0.8624 0.9020   0.9000
dirac i45 1 r7   0.8997   0.8189 0.9012   0.9000
dirac i45 1 r8   0.8990   0.7814 0.9014   0.9000
dirac i45 1 r9   0.9013   0.8031 0.9031   0.9000
dirac i45 1 r10   0.8215   0.7103 0.9030   0.9000
dirac i46 1 r1   0.8635   0.7444 0.9036   0.9000
dirac i46 1 r2   0.8924   0.7677 0.9033   0.9000
dirac i46 1 r3   0.8995   0.7867 0.9016   0.9000
dirac i46 1 r4   0.8999   0.7926 0.9019   0.9000
dirac i46 1 r5   0.8974   0.7660 0.9002   0.9000
dirac i46 1 r6   0.9000   0.8691 0.9003   0.9000
dirac i46 1 r7   0.9012   0.8254 0.9026   0.9000
dirac i46 1 r8   0.9008   0.8046 0.9025   0.9000
dirac i46 1 r9   0.9021   0.8157 0.9038   0.9000
dirac i46 1 r10   0.8699   0.7471 0.9016   0.9000
dirac i47 1 r1   0.8523   0.7316 0.9007   0.9000
dirac i47 1 r2   0.9020   0.8274 0.9035   0.9000
dirac i47 1 r3   0.9013   0.7937 0.9033   0.9000
dirac i47 1 r4   0.8984   0.7412 0.9019   0.9000
dirac i47 1 r5   0.9006   0.8502 0.9017   0.9000
dirac i47 1 r6   0.8995   0.8116 0.9012   0.9000
dirac i47 1 r7   0.8997   0.8574 0.9003   0.9000
dirac i47 1 r8   0.9020   0.8189 0.9036   0.9000
dirac i47 1 r9   0.8625   0.7402 0.9006   0.9000
dirac i47 1 r10   0.9007   0.7376 0.9043   0.9000
dirac i48 1 r1   0.8982   0.8106 0.9001   0.9000
dirac i48 1 r2   0.9001   0.7796 0.9023   0.9000
dirac i48 1 r3   0.9015   0.8293 0.9030   0.9000
dirac i48 1 r4   0.9035   0.7831 0.9057   0.9000
dirac i48 1 r5   0.9023   0.8655 0.9025   0.9000
dirac i48 1 r6   0.9005   0.7760 0.9053   0.9000
dirac i48 1 r7   0.8615   0.7431 0.9038   0.9000
dirac i48 1 r8   0.9001   0.8598 0.9002   0.9000
dirac i48 1 r9   0.9022   0.8720 0.9025   0.9000
dirac i48 1 r10   0.8326   0.7175 0.9013   0.9000
dirac i49 1 r1   0.9003   0.8457 0.9016   0.9000
dirac i49 1 r2   0.7749   0.6785 0.8994   0.9000
dirac i49 1 r3   0.9001   0.7360 0.9036   0.9000
dirac i49 1 r4   0.9012   0.8250 0.9026   0.9000
dirac i49 1 r5   0.8880   0.7136 0.9047   0.9000
dirac i49 1 r6   0.8392   0.7269 0.9040   0.9000
dirac i49 1 r7   0.8981   0.7884 0.9004   0.9000
dirac i49 1 r8   0.8997   0.8323 0.9012   0.9000
dirac i49 1 r9   0.9007   0.8609 0.9008   0.9000
dirac i49 1 r10   0.8991   0.8514 0.9003   0.9000
dirac i50 1 r1   0.8878   0.7635 0.9024   0.9000
dirac i50 1 r2   0.8993   0.8580 0.8994   0.9000
dirac i50 1 r3   0.8999   0.7820 0.9020   0.9000
dirac i50 1 r4   0.8988   0.7926 0.9009   0.9000
dirac i50 1 r5   0.8997   0.7986 0.9016   0.9000
dirac i50 1 r6   0.8998   0.8010 0.9017   0.9000
dirac i50 1 r7   0.8951   0.7572 0.8981   0.9000
dirac i50 1 r8   0.7826   0.6797 0.9031   0.9000
dirac i50 1 r9   0.9023   0.7994 0.9043   0.9000
dirac i50 1 r10   0.9019   0.8628 0.9022   0.9000
