hard i1 20 r1   0.9036   0.8913 0.9063   0.9003
hard i1 20 r2   0.9047   0.8933 0.9071   0.9003
hard i1 20 r3   0.8965   0.8909 0.9062   0.9003
hard i1 20 r4   0.8997   0.8912 0.9064   0.9003
hard i1 20 r5   0.9025   0.8913 0.9064   0.9003
hard i1 20 r6   0.9017   0.8904 0.9061   0.9003
hard i1 20 r7   0.8971   0.8914 0.9064   0.9003
hard i1 20 r8   0.8952   0.8901 0.9055   0.9003
hard i1 20 r9   0.9029   0.8909 0.9063   0.9003
hard i1 20 r10   0.9040   0.8938 0.9076   0.9003
hard i2 20 r1   0.9073   0.8967 0.9110   0.9066
hard i2 20 r2   0.9087   0.8972 0.9111   0.9066
hard i2 20 r3   0.9087   0.8979 0.9107   0.9066
hard i2 20 r4   0.9084   0.8967 0.9108   0.9066
hard i2 20 r5   0.9016   0.8968 0.9109   0.9066
hard i2 20 r6   0.9067   0.8960 0.9106   0.9066
hard i2 20 r7   0.9090   0.8971 0.9109   0.9066
hard i2 20 r8   0.9094   0.8985 0.9112   0.9066
hard i2 20 r9   0.9074   0.8953 0.9103   0.9066
hard i2 20 r10   0.9070   0.8970 0.9106   0.9066
hard i3 20 r1   0.8926   0.8863 0.9029   0.8975
hard i3 20 r2   0.9020   0.8888 0.9038   0.8975
hard i3 20 r3   0.8936   0.8866 0.9028   0.8975
hard i3 20 r4   0.8939   0.8873 0.9035   0.8975
hard i3 20 r5   0.9004   0.8875 0.9033   0.8975
hard i3 20 r6   0.8949   0.8887 0.9037   0.8975
hard i3 20 r7   0.9020   0.8895 0.9039   0.8975
hard i3 20 r8   0.8918   0.8875 0.9031   0.8975
hard i3 20 r9   0.8952   0.8871 0.9035   0.8975
hard i3 20 r10   0.8985   0.8869 0.9030   0.8975
hard i4 20 r1   0.9064   0.8937 0.9082   0.9013
hard i4 20 r2   0.9008   0.8934 0.9084   0.9013
hard i4 20 r3   0.8950   0.8911 0.9070   0.9013
hard i4 20 r4   0.9009   0.8921 0.9073   0.9013
hard i4 20 r5   0.9053   0.8943 0.9083   0.9013
hard i4 20 r6   0.8981   0.8928 0.9077   0.9013
hard i4 20 r7   0.9002   0.8934 0.9082   0.9013
hard i4 20 r8   0.9038   0.8930 0.9080   0.9013
hard i4 20 r9   0.9045   0.8924 0.9079   0.9013
hard i4 20 r10   0.9055   0.8930 0.9081   0.9013
hard i5 20 r1   0.9061   0.8954 0.9081   0.9023
hard i5 20 r2   0.9013   0.8936 0.9082   0.9023
hard i5 20 r3   0.8981   0.8930 0.9078   0.9023
hard i5 20 r4   0.8981   0.8924 0.9077   0.9023
hard i5 20 r5   0.9047   0.8929 0.9078   0.9023
hard i5 20 r6   0.9020   0.8950 0.9089   0.9023
hard i5 20 r7   0.8989   0.8921 0.9071   0.9023
hard i5 20 r8   0.8986   0.8932 0.9081   0.9023
hard i5 20 r9   0.9067   0.8946 0.9086   0.9023
hard i5 20 r10   0.9033   0.8937 0.9083   0.9023
hard i6 20 r1   0.8924   0.8875 0.9039   0.8983
hard i6 20 r2   0.9003   0.8878 0.9040   0.8983
hard i6 20 r3   0.9009   0.8880 0.9042   0.8983
hard i6 20 r4   0.8971   0.8869 0.9038   0.8983
hard i6 20 r5   0.9025   0.8886 0.9044   0.8983
hard i6 20 r6   0.9000   0.8867 0.9036   0.8983
hard i6 20 r7   0.8915   0.8866 0.9034   0.8983
hard i6 20 r8   0.8998   0.8876 0.9036   0.8983
hard i6 20 r9   0.8953   0.8869 0.9038   0.8983
hard i6 20 r10   0.9012   0.8883 0.9043   0.8983
hard i7 20 r1   0.9051   0.8930 0.9085   0.9021
hard i7 20 r2   0.9046   0.8920 0.9080   0.9021
hard i7 20 r3   0.8989   0.8937 0.9087   0.9021
hard i7 20 r4   0.9028   0.8933 0.9087   0.9021
hard i7 20 r5   0.9020   0.8940 0.9090   0.9021
hard i7 20 r6   0.8986   0.8946 0.9091   0.9021
hard i7 20 r7   0.9050   0.8934 0.9081   0.9021
hard i7 20 r8   0.9004   0.8931 0.9086   0.9021
hard i7 20 r9   0.9063   0.8936 0.9086   0.9021
hard i7 20 r10   0.9048   0.8922 0.9081   0.9021
hard i8 20 r1   0.8941   0.8865 0.9031   0.8967
hard i8 20 r2   0.9021   0.8888 0.9041   0.8967
hard i8 20 r3   0.8967   0.8855 0.9027   0.8967
hard i8 20 r4   0.9000   0.8872 0.9032   0.8967
hard i8 20 r5   0.9020   0.8897 0.9037   0.8967
hard i8 20 r6   0.9012   0.8881 0.9036   0.8967
hard i8 20 r7   0.8981   0.8863 0.9028   0.8967
hard i8 20 r8   0.9009   0.8872 0.9031   0.8967
hard i8 20 r9   0.8952   0.8859 0.9029   0.8967
hard i8 20 r10   0.8919   0.8869 0.9034   0.8967
hard i9 20 r1   0.9022   0.8888 0.9052   0.8976
hard i9 20 r2   0.8924   0.8879 0.9049   0.8976
hard i9 20 r3   0.8927   0.8870 0.9045   0.8976
hard i9 20 r4   0.8945   0.8872 0.9046   0.8976
hard i9 20 r5   0.9008   0.8874 0.9046   0.8976
hard i9 20 r6   0.8912   0.8878 0.9044   0.8976
hard i9 20 r7   0.8974   0.8879 0.9050   0.8976
hard i9 20 r8   0.9010   0.8876 0.9048   0.8976
hard i9 20 r9   0.8911   0.8866 0.9038   0.8976
hard i9 20 r10   0.8974   0.8873 0.9046   0.8976
hard i10 20 r1   0.8925   0.8884 0.9051   0.8987
hard i10 20 r2   0.9012   0.8915 0.9066   0.8987
hard i10 20 r3   0.9013   0.8898 0.9058   0.8987
hard i10 20 r4   0.9023   0.8896 0.9058   0.8987
hard i10 20 r5   0.8963   0.8896 0.9060   0.8987
hard i10 20 r6   0.9035   0.8902 0.9063   0.8987
hard i10 20 r7   0.9013   0.8882 0.9052   0.8987
hard i10 20 r8   0.9007   0.8881 0.9048   0.8987
hard i10 20 r9   0.8929   0.8892 0.9055   0.8987
hard i10 20 r10   0.8951   0.8894 0.9060   0.8987
hard i11 20 r1   0.8912   0.8848 0.9020   0.8972
hard i11 20 r2   0.8962   0.8863 0.9023   0.8972
hard i11 20 r3   0.8924   0.8845 0.9017   0.8972
hard i11 20 r4   0.9001   0.8870 0.9029   0.8972
hard i11 20 r5   0.8995   0.8868 0.9023   0.8972
hard i11 20 r6   0.9013   0.8888 0.9031   0.8972
hard i11 20 r7   0.8940   0.8851 0.9020   0.8972
hard i11 20 r8   0.8998   0.8868 0.9027   0.8972
hard i11 20 r9   0.8938   0.8858 0.9024   0.8972
hard i11 20 r10   0.8933   0.8877 0.9030   0.8972
hard i12 20 r1   0.8953   0.8821 0.8985   0.8922
hard i12 20 r2   0.8952   0.8816 0.8991   0.8922
hard i12 20 r3   0.8870   0.8803 0.8978   0.8922
hard i12 20 r4   0.8962   0.8829 0.8995   0.8922
hard i12 20 r5   0.8885   0.8818 0.8990   0.8922
hard i12 20 r6   0.8893   0.8804 0.8979   0.8922
hard i12 20 r7   0.8900   0.8829 0.8994   0.8922
hard i12 20 r8   0.8962   0.8829 0.8994   0.8922
hard i12 20 r9   0.8877   0.8824 0.8993   0.8922
hard i12 20 r10   0.8866   0.8800 0.8982   0.8922
hard i13 20 r1   0.9083   0.8978 0.9112   0.9075
hard i13 20 r2   0.9097   0.8989 0.9116   0.9075
hard i13 20 r3   0.9052   0.8981 0.9112   0.9075
hard i13 20 r4   0.9085   0.8991 0.9116   0.9075
hard i13 20 r5   0.9083   0.8982 0.9113   0.9075
hard i13 20 r6   0.9097   0.8989 0.9112   0.9075
hard i13 20 r7   0.9031   0.8985 0.9116   0.9075
hard i13 20 r8   0.9104   0.9003 0.9117   0.9075
hard i13 20 r9   0.9099   0.8994 0.9118   0.9075
hard i13 20 r10   0.9100   0.8995 0.9116   0.9075
hard i14 20 r1   0.9060   0.8933 0.9089   0.9033
hard i14 20 r2   0.9045   0.8938 0.9091   0.9033
hard i14 20 r3   0.9023   0.8933 0.9087   0.9033
hard i14 20 r4   0.9069   0.8958 0.9100   0.9033
hard i14 20 r5   0.9067   0.8943 0.9095   0.9033
hard i14 20 r6   0.9058   0.8942 0.9093   0.9033
hard i14 20 r7   0.9073   0.8953 0.9098   0.9033
hard i14 20 r8   0.8985   0.8939 0.9091   0.9033
hard i14 20 r9   0.9054   0.8933 0.9088   0.9033
hard i14 20 r10   0.9016   0.8941 0.9093   0.9033
hard i15 20 r1   0.8978   0.8899 0.9058   0.8985
hard i15 20 r2   0.8976   0.8901 0.9060   0.8985
hard i15 20 r3   0.8972   0.8889 0.9053   0.8985
hard i15 20 r4   0.8983   0.8899 0.9061   0.8985
hard i15 20 r5   0.8946   0.8892 0.9053   0.8985
hard i15 20 r6   0.9019   0.8898 0.9057   0.8985
hard i15 20 r7   0.8988   0.8895 0.9056   0.8985
hard i15 20 r8   0.9009   0.8882 0.9051   0.8985
hard i15 20 r9   0.8998   0.8886 0.9051   0.8985
hard i15 20 r10   0.8962   0.8893 0.9057   0.8985
hard i16 20 r1   0.9004   0.8948 0.9104   0.9039
hard i16 20 r2   0.9073   0.8959 0.9110   0.9039
hard i16 20 r3   0.9072   0.8953 0.9107   0.9039
hard i16 20 r4   0.8998   0.8934 0.9089   0.9039
hard i16 20 r5   0.9066   0.8970 0.9115   0.9039
hard i16 20 r6   0.9071   0.8961 0.9109   0.9039
hard i16 20 r7   0.9059   0.8953 0.9107   0.9039
hard i16 20 r8   0.9041   0.8960 0.9111   0.9039
hard i16 20 r9   0.9064   0.8953 0.9102   0.9039
hard i16 20 r10   0.9082   0.8959 0.9109   0.9039
hard i17 20 r1   0.9053   0.8922 0.9073   0.9012
hard i17 20 r2   0.9050   0.8921 0.9074   0.9012
hard i17 20 r3   0.9014   0.8926 0.9080   0.9012
hard i17 20 r4   0.8977   0.8898 0.9066   0.9012
hard i17 20 r5   0.8958   0.8899 0.9068   0.9012
hard i17 20 r6   0.9042   0.8911 0.9070   0.9012
hard i17 20 r7   0.9034   0.8917 0.9076   0.9012
hard i17 20 r8   0.9044   0.8914 0.9072   0.9012
hard i17 20 r9   0.8980   0.8916 0.9074   0.9012
hard i17 20 r10   0.9048   0.8923 0.9077   0.9012
hard i18 20 r1   0.8979   0.8846 0.9026   0.8953
hard i18 20 r2   0.9002   0.8867 0.9033   0.8953
hard i18 20 r3   0.9005   0.8876 0.9040   0.8953
hard i18 20 r4   0.8998   0.8867 0.9036   0.8953
hard i18 20 r5   0.9007   0.8878 0.9038   0.8953
hard i18 20 r6   0.8916   0.8842 0.9016   0.8953
hard i18 20 r7   0.8925   0.8857 0.9031   0.8953
hard i18 20 r8   0.9003   0.8868 0.9037   0.8953
hard i18 20 r9   0.8910   0.8839 0.9024   0.8953
hard i18 20 r10   0.8999   0.8858 0.9032   0.8953
hard i19 20 r1   0.9083   0.8981 0.9101   0.9059
hard i19 20 r2   0.9080   0.8970 0.9098   0.9059
hard i19 20 r3   0.9087   0.8981 0.9103   0.9059
hard i19 20 r4   0.9070   0.8983 0.9104   0.9059
hard i19 20 r5   0.9039   0.8974 0.9100   0.9059
hard i19 20 r6   0.9080   0.8977 0.9100   0.9059
hard i19 20 r7   0.9087   0.8988 0.9103   0.9059
hard i19 20 r8   0.9057   0.8974 0.9101   0.9059
hard i19 20 r9   0.9025   0.8969 0.9100   0.9059
hard i19 20 r10   0.9084   0.8988 0.9105   0.9059
hard i20 20 r1   0.8950   0.8819 0.8988   0.8912
hard i20 20 r2   0.8950   0.8819 0.8984   0.8912
hard i20 20 r3   0.8905   0.8820 0.8992   0.8912
hard i20 20 r4   0.8863   0.8803 0.8980   0.8912
hard i20 20 r5   0.8905   0.8805 0.8984   0.8912
hard i20 20 r6   0.8929   0.8804 0.8982   0.8912
hard i20 20 r7   0.8956   0.8819 0.8990   0.8912
hard i20 20 r8   0.8926   0.8801 0.8980   0.8912
hard i20 20 r9   0.8934   0.8800 0.8979   0.8912
hard i20 20 r10   0.8875   0.8818 0.8990   0.8912
hard i21 20 r1   0.9013   0.8948 0.9096   0.9058
hard i21 20 r2   0.9040   0.8966 0.9108   0.9058
hard i21 20 r3   0.9017   0.8958 0.9103   0.9058
hard i21 20 r4   0.9023   0.8966 0.9108   0.9058
hard i21 20 r5   0.9071   0.8953 0.9100   0.9058
hard i21 20 r6   0.9037   0.8979 0.9110   0.9058
hard i21 20 r7   0.9095   0.8990 0.9111   0.9058
hard i21 20 r8   0.9066   0.8955 0.9100   0.9058
hard i21 20 r9   0.9012   0.8968 0.9106   0.9058
hard i21 20 r10   0.9086   0.8971 0.9110   0.9058
hard i22 20 r1   0.9002   0.8876 0.9026   0.8967
hard i22 20 r2   0.8997   0.8884 0.9030   0.8967
hard i22 20 r3   0.8998   0.8890 0.9029   0.8967
hard i22 20 r4   0.9004   0.8887 0.9032   0.8967
hard i22 20 r5   0.8986   0.8879 0.9027   0.8967
hard i22 20 r6   0.9001   0.8874 0.9028   0.8967
hard i22 20 r7   0.8928   0.8852 0.9019   0.8967
hard i22 20 r8   0.9005   0.8877 0.9029   0.8967
hard i22 20 r9   0.8987   0.8867 0.9023   0.8967
hard i22 20 r10   0.8909   0.8858 0.9016   0.8967
hard i23 20 r1   0.8952   0.8832 0.9020   0.8940
hard i23 20 r2   0.8985   0.8837 0.9022   0.8940
hard i23 20 r3   0.8994   0.8843 0.9022   0.8940
hard i23 20 r4   0.8902   0.8846 0.9026   0.8940
hard i23 20 r5   0.8903   0.8834 0.9023   0.8940
hard i23 20 r6   0.8944   0.8843 0.9026   0.8940
hard i23 20 r7   0.8965   0.8834 0.9019   0.8940
hard i23 20 r8   0.8953   0.8831 0.9016   0.8940
hard i23 20 r9   0.8922   0.8821 0.9011   0.8940
hard i23 20 r10   0.8953   0.8839 0.9024   0.8940
hard i24 20 r1   0.8950   0.8833 0.8995   0.8942
hard i24 20 r2   0.8901   0.8837 0.9001   0.8942
hard i24 20 r3   0.8921   0.8841 0.8999   0.8942
hard i24 20 r4   0.8938   0.8828 0.8996   0.8942
hard i24 20 r5   0.8894   0.8838 0.9003   0.8942
hard i24 20 r6   0.8899   0.8842 0.9000   0.8942
hard i24 20 r7   0.8958   0.8845 0.9003   0.8942
hard i24 20 r8   0.8907   0.8813 0.8990   0.8942
hard i24 20 r9   0.8982   0.8857 0.9001   0.8942
hard i24 20 r10   0.8967   0.8832 0.9000   0.8942
hard i25 20 r1   0.8976   0.8920 0.9075   0.9001
hard i25 20 r2   0.8945   0.8906 0.9067   0.9001
hard i25 20 r3   0.9044   0.8917 0.9074   0.9001
hard i25 20 r4   0.8969   0.8918 0.9076   0.9001
hard i25 20 r5   0.9047   0.8929 0.9081   0.9001
hard i25 20 r6   0.8990   0.8926 0.9079   0.9001
hard i25 20 r7   0.9043   0.8919 0.9073   0.9001
hard i25 20 r8   0.9007   0.8933 0.9084   0.9001
hard i25 20 r9   0.9002   0.8923 0.9079   0.9001
hard i25 20 r10   0.9014   0.8922 0.9078   0.9001
hard i26 20 r1   0.8989   0.8928 0.9081   0.9024
hard i26 20 r2   0.8993   0.8921 0.9078   0.9024
hard i26 20 r3   0.9065   0.8946 0.9085   0.9024
hard i26 20 r4   0.8987   0.8921 0.9078   0.9024
hard i26 20 r5   0.8992   0.8928 0.9080   0.9024
hard i26 20 r6   0.8979   0.8925 0.9081   0.9024
hard i26 20 r7   0.8986   0.8917 0.9075   0.9024
hard i26 20 r8   0.9035   0.8931 0.9081   0.9024
hard i26 20 r9   0.8992   0.8929 0.9082   0.9024
hard i26 20 r10   0.9018   0.8920 0.9075   0.9024
hard i27 20 r1   0.8907   0.8863 0.9041   0.8985
hard i27 20 r2   0.9023   0.8889 0.9047   0.8985
hard i27 20 r3   0.9024   0.8886 0.9052   0.8985
hard i27 20 r4   0.8934   0.8868 0.9044   0.8985
hard i27 20 r5   0.9009   0.8875 0.9047   0.8985
hard i27 20 r6   0.8924   0.8871 0.9047   0.8985
hard i27 20 r7   0.8945   0.8886 0.9053   0.8985
hard i27 20 r8   0.8963   0.8878 0.9048   0.8985
hard i27 20 r9   0.8961   0.8890 0.9051   0.8985
hard i27 20 r10   0.8972   0.8894 0.9055   0.8985
hard i28 20 r1   0.8894   0.8830 0.8982   0.8914
hard i28 20 r2   0.8848   0.8794 0.8971   0.8914
hard i28 20 r3   0.8947   0.8815 0.8978   0.8914
hard i28 20 r4   0.8960   0.8821 0.8980   0.8914
hard i28 20 r5   0.8945   0.8810 0.8981   0.8914
hard i28 20 r6   0.8939   0.8804 0.8976   0.8914
hard i28 20 r7   0.8940   0.8799 0.8974   0.8914
hard i28 20 r8   0.8936   0.8793 0.8971   0.8914
hard i28 20 r9   0.8848   0.8792 0.8968   0.8914
hard i28 20 r10   0.8965   0.8837 0.8985   0.8914
hard i29 20 r1   0.9017   0.8893 0.9051   0.9003
hard i29 20 r2   0.8918   0.8885 0.9041   0.9003
hard i29 20 r3   0.9006   0.8888 0.9047   0.9003
hard i29 20 r4   0.8962   0.8886 0.9048   0.9003
hard i29 20 r5   0.8975   0.8917 0.9061   0.9003
hard i29 20 r6   0.9034   0.8908 0.9056   0.9003
hard i29 20 r7   0.9036   0.8924 0.9054   0.9003
hard i29 20 r8   0.9032   0.8909 0.9053   0.9003
hard i29 20 r9   0.8937   0.8889 0.9047   0.9003
hard i29 20 r10   0.9021   0.8893 0.9050   0.9003
hard i30 20 r1   0.8972   0.8851 0.9004   0.8945
hard i30 20 r2   0.8886   0.8840 0.9002   0.8945
hard i30 20 r3   0.8991   0.8878 0.9007   0.8945
hard i30 20 r4   0.8958   0.8828 0.8993   0.8945
hard i30 20 r5   0.8966   0.8836 0.9001   0.8945
hard i30 20 r6   0.8976   0.8843 0.9001   0.8945
hard i30 20 r7   0.8872   0.8822 0.8993   0.8945
hard i30 20 r8   0.8972   0.8838 0.9001   0.8945
hard i30 20 r9   0.8980   0.8844 0.9005   0.8945
hard i30 20 r10   0.8917   0.8851 0.9007   0.8945
hard i31 20 r1   0.8957   0.8894 0.9044   0.8988
hard i31 20 r2   0.8933   0.8868 0.9034   0.8988
hard i31 20 r3   0.9012   0.8899 0.9047   0.8988
hard i31 20 r4   0.9012   0.8886 0.9041   0.8988
hard i31 20 r5   0.8975   0.8890 0.9043   0.8988
hard i31 20 r6   0.9022   0.8903 0.9046   0.8988
hard i31 20 r7   0.8942   0.8884 0.9042   0.8988
hard i31 20 r8   0.8998   0.8887 0.9042   0.8988
hard i31 20 r9   0.9024   0.8908 0.9047   0.8988
hard i31 20 r10   0.9025   0.8903 0.9047   0.8988
hard i32 20 r1   0.8933   0.8835 0.8997   0.8941
hard i32 20 r2   0.8971   0.8841 0.9000   0.8941
hard i32 20 r3   0.8919   0.8847 0.9000   0.8941
hard i32 20 r4   0.8871   0.8822 0.8990   0.8941
hard i32 20 r5   0.8910   0.8820 0.8990   0.8941
hard i32 20 r6   0.8958   0.8829 0.8995   0.8941
hard i32 20 r7   0.8919   0.8842 0.9001   0.8941
hard i32 20 r8   0.8885   0.8830 0.8996   0.8941
hard i32 20 r9   0.8941   0.8839 0.9000   0.8941
hard i32 20 r10   0.8891   0.8834 0.8997   0.8941
hard i33 20 r1   0.9032   0.8936 0.9076   0.9016
hard i33 20 r2   0.8983   0.8927 0.9073   0.9016
hard i33 20 r3   0.9043   0.8929 0.9072   0.9016
hard i33 20 r4   0.9058   0.8948 0.9080   0.9016
hard i33 20 r5   0.9033   0.8939 0.9074   0.9016
hard i33 20 r6   0.9036   0.8938 0.9076   0.9016
hard i33 20 r7   0.8974   0.8914 0.9066   0.9016
hard i33 20 r8   0.9058   0.8941 0.9079   0.9016
hard i33 20 r9   0.9003   0.8926 0.9071   0.9016
hard i33 20 r10   0.9041   0.8937 0.9077   0.9016
hard i34 20 r1   0.8942   0.8876 0.9037   0.8979
hard i34 20 r2   0.9003   0.8885 0.9043   0.8979
hard i34 20 r3   0.8934   0.8883 0.9041   0.8979
hard i34 20 r4   0.8991   0.8908 0.9052   0.8979
hard i34 20 r5   0.9024   0.8902 0.9047   0.8979
hard i34 20 r6   0.9007   0.8880 0.9041   0.8979
hard i34 20 r7   0.8987   0.8902 0.9051   0.8979
hard i34 20 r8   0.9006   0.8879 0.9039   0.8979
hard i34 20 r9   0.8965   0.8902 0.9052   0.8979
hard i34 20 r10   0.9031   0.8909 0.9048   0.8979
hard i35 20 r1   0.8976   0.8904 0.9060   0.9004
hard i35 20 r2   0.9037   0.8904 0.9061   0.9004
hard i35 20 r3   0.8994   0.8916 0.9065   0.9004
hard i35 20 r4   0.9043   0.8913 0.9059   0.9004
hard i35 20 r5   0.9007   0.8897 0.9057   0.9004
hard i35 20 r6   0.8948   0.8893 0.9053   0.9004
hard i35 20 r7   0.9019   0.8884 0.9051   0.9004
hard i35 20 r8   0.9030   0.8899 0.9054   0.9004
hard i35 20 r9   0.8948   0.8887 0.9052   0.9004
hard i35 20 r10   0.9032   0.8912 0.9057   0.9004
hard i36 20 r1   0.8975   0.8882 0.9047   0.8967
hard i36 20 r2   0.8997   0.8867 0.9038   0.8967
hard i36 20 r3   0.8946   0.8884 0.9046   0.8967
hard i36 20 r4   0.9018   0.8892 0.9045   0.8967
hard i36 20 r5   0.8982   0.8876 0.9043   0.8967
hard i36 20 r6   0.9015   0.8878 0.9043   0.8967
hard i36 20 r7   0.9013   0.8878 0.9041   0.8967
hard i36 20 r8   0.8925   0.8865 0.9033   0.8967
hard i36 20 r9   0.9005   0.8881 0.9045   0.8967
hard i36 20 r10   0.8924   0.8866 0.9037   0.8967
hard i37 20 r1   0.9093   0.8974 0.9130   0.9073
hard i37 20 r2   0.9111   0.8989 0.9136   0.9073
hard i37 20 r3   0.9031   0.8985 0.9133   0.9073
hard i37 20 r4   0.9084   0.8982 0.9133   0.9073
hard i37 20 r5   0.9063   0.8992 0.9135   0.9073
hard i37 20 r6   0.9018   0.8963 0.9118   0.9073
hard i37 20 r7   0.9026   0.8977 0.9131   0.9073
hard i37 20 r8   0.9042   0.8983 0.9136   0.9073
hard i37 20 r9   0.9063   0.8983 0.9134   0.9073
hard i37 20 r10   0.9107   0.8985 0.9135   0.9073
hard i38 20 r1   0.8870   0.8822 0.9000   0.8959
hard i38 20 r2   0.8922   0.8840 0.9011   0.8959
hard i38 20 r3   0.8963   0.8851 0.9017   0.8959
hard i38 20 r4   0.8939   0.8854 0.9016   0.8959
hard i38 20 r5   0.8877   0.8840 0.9004   0.8959
hard i38 20 r6   0.8972   0.8837 0.9009   0.8959
hard i38 20 r7   0.8947   0.8866 0.9022   0.8959
hard i38 20 r8   0.8893   0.8839 0.9011   0.8959
hard i38 20 r9   0.8911   0.8850 0.9012   0.8959
hard i38 20 r10   0.8987   0.8853 0.9016   0.8959
hard i39 20 r1   0.8962   0.8910 0.9069   0.9010
hard i39 20 r2   0.8974   0.8908 0.9066   0.9010
hard i39 20 r3   0.9039   0.8924 0.9075   0.9010
hard i39 20 r4   0.8976   0.8918 0.9074   0.9010
hard i39 20 r5   0.9052   0.8936 0.9083   0.9010
hard i39 20 r6   0.9055   0.8931 0.9080   0.9010
hard i39 20 r7   0.8966   0.8931 0.9076   0.9010
hard i39 20 r8   0.9041   0.8922 0.9078   0.9010
hard i39 20 r9   0.8953   0.8907 0.9067   0.9010
hard i39 20 r10   0.8963   0.8903 0.9057   0.9010
hard i40 20 r1   0.8915   0.8871 0.9033   0.8970
hard i40 20 r2   0.8964   0.8879 0.9039   0.8970
hard i40 20 r3   0.9007   0.8875 0.9035   0.8970
hard i40 20 r4   0.8962   0.8879 0.9037   0.8970
hard i40 20 r5   0.8953   0.8851 0.9026   0.8970
hard i40 20 r6   0.9010   0.8878 0.9038   0.8970
hard i40 20 r7   0.8960   0.8863 0.9029   0.8970
hard i40 20 r8   0.8905   0.8858 0.9027   0.8970
hard i40 20 r9   0.8930   0.8865 0.9029   0.8970
hard i40 20 r10   0.8913   0.8859 0.9027   0.8970
hard i41 20 r1   0.8975   0.8931 0.9089   0.9021
hard i41 20 r2   0.9020   0.8937 0.9091   0.9021
hard i41 20 r3   0.9048   0.8925 0.9082   0.9021
hard i41 20 r4   0.9058   0.8935 0.9091   0.9021
hard i41 20 r5   0.9019   0.8937 0.9089   0.9021
hard i41 20 r6   0.9042   0.8936 0.9093   0.9021
hard i41 20 r7   0.9005   0.8950 0.9097   0.9021
hard i41 20 r8   0.9060   0.8934 0.9091   0.9021
hard i41 20 r9   0.9060   0.8928 0.9088   0.9021
hard i41 20 r10   0.9039   0.8932 0.9091   0.9021
hard i42 20 r1   0.8984   0.8943 0.9089   0.9040
hard i42 20 r2   0.9030   0.8939 0.9087   0.9040
hard i42 20 r3   0.9032   0.8960 0.9101   0.9040
hard i42 20 r4   0.9056   0.8946 0.9093   0.9040
hard i42 20 r5   0.9073   0.8957 0.9093   0.9040
hard i42 20 r6   0.9072   0.8962 0.9098   0.9040
hard i42 20 r7   0.8997   0.8951 0.9093   0.9040
hard i42 20 r8   0.9009   0.8953 0.9097   0.9040
hard i42 20 r9   0.9024   0.8970 0.9102   0.9040
hard i42 20 r10   0.9056   0.8952 0.9097   0.9040
hard i43 20 r1   0.9075   0.8968 0.9115   0.9075
hard i43 20 r2   0.9104   0.8990 0.9120   0.9075
hard i43 20 r3   0.9066   0.8964 0.9115   0.9075
hard i43 20 r4   0.9034   0.8972 0.9116   0.9075
hard i43 20 r5   0.9062   0.8977 0.9118   0.9075
hard i43 20 r6   0.9086   0.8967 0.9114   0.9075
hard i43 20 r7   0.9018   0.8964 0.9114   0.9075
hard i43 20 r8   0.9030   0.8966 0.9115   0.9075
hard i43 20 r9   0.9047   0.8966 0.9115   0.9075
hard i43 20 r10   0.9031   0.8969 0.9117   0.9075
hard i44 20 r1   0.9030   0.8913 0.9080   0.9011
hard i44 20 r2   0.8962   0.8907 0.9075   0.9011
hard i44 20 r3   0.9060   0.8936 0.9094   0.9011
hard i44 20 r4   0.9062   0.8938 0.9089   0.9011
hard i44 20 r5   0.8969   0.8913 0.9082   0.9011
hard i44 20 r6   0.9011   0.8926 0.9091   0.9011
hard i44 20 r7   0.9040   0.8916 0.9082   0.9011
hard i44 20 r8   0.8984   0.8921 0.9086   0.9011
hard i44 20 r9   0.9061   0.8931 0.9090   0.9011
hard i44 20 r10   0.9055   0.8922 0.9086   0.9011
hard i45 20 r1   0.9039   0.8912 0.9081   0.9017
hard i45 20 r2   0.9056   0.8919 0.9087   0.9017
hard i45 20 r3   0.9062   0.8926 0.9090   0.9017
hard i45 20 r4   0.8995   0.8919 0.9087   0.9017
hard i45 20 r5   0.9046   0.8932 0.9093   0.9017
hard i45 20 r6   0.8970   0.8919 0.9087   0.9017
hard i45 20 r7   0.9016   0.8918 0.9082   0.9017
hard i45 20 r8   0.9030   0.8913 0.9080   0.9017
hard i45 20 r9   0.9035   0.8914 0.9083   0.9017
hard i45 20 r10   0.9066   0.8939 0.9091   0.9017
hard i46 20 r1   0.9031   0.8961 0.9102   0.9043
hard i46 20 r2   0.9004   0.8956 0.9099   0.9043
hard i46 20 r3   0.9015   0.8961 0.9100   0.9043
hard i46 20 r4   0.9026   0.8971 0.9104   0.9043
hard i46 20 r5   0.9018   0.8964 0.9103   0.9043
hard i46 20 r6   0.9001   0.8953 0.9099   0.9043
hard i46 20 r7   0.9034   0.8958 0.9101   0.9043
hard i46 20 r8   0.9073   0.8959 0.9100   0.9043
hard i46 20 r9   0.9058   0.8966 0.9103   0.9043
hard i46 20 r10   0.9022   0.8959 0.9101   0.9043
hard i47 20 r1   0.9009   0.8920 0.9066   0.9031
hard i47 20 r2   0.8998   0.8919 0.9069   0.9031
hard i47 20 r3   0.9038   0.8925 0.9071   0.9031
hard i47 20 r4   0.9052   0.8937 0.9073   0.9031
hard i47 20 r5   0.9014   0.8936 0.9074   0.9031
hard i47 20 r6   0.8970   0.8929 0.9071   0.9031
hard i47 20 r7   0.9053   0.8938 0.9075   0.9031
hard i47 20 r8   0.8980   0.8931 0.9074   0.9031
hard i47 20 r9   0.9051   0.8936 0.9074   0.9031
hard i47 20 r10   0.9053   0.8935 0.9071   0.9031
hard i48 20 r1   0.8993   0.8862 0.9014   0.8947
hard i48 20 r2   0.8886   0.8823 0.8995   0.8947
hard i48 20 r3   0.8938   0.8850 0.9007   0.8947
hard i48 20 r4   0.8942   0.8847 0.9009   0.8947
hard i48 20 r5   0.8956   0.8831 0.9001   0.8947
hard i48 20 r6   0.8987   0.8873 0.9011   0.8947
hard i48 20 r7   0.8974   0.8845 0.9006   0.8947
hard i48 20 r8   0.8967   0.8844 0.9005   0.8947
hard i48 20 r9   0.8947   0.8849 0.9008   0.8947
hard i48 20 r10   0.8982   0.8864 0.9010   0.8947
hard i49 20 r1   0.9031   0.8981 0.9117   0.9071
hard i49 20 r2   0.9023   0.8972 0.9110   0.9071
hard i49 20 r3   0.9033   0.8975 0.9115   0.9071
hard i49 20 r4   0.9091   0.8975 0.9115   0.9071
hard i49 20 r5   0.9053   0.8975 0.9113   0.9071
hard i49 20 r6   0.9081   0.8969 0.9111   0.9071
hard i49 20 r7   0.9102   0.8998 0.9120   0.9071
hard i49 20 r8   0.9045   0.8971 0.9111   0.9071
hard i49 20 r9   0.9045   0.8969 0.9111   0.9071
hard i49 20 r10   0.9015   0.8970 0.9110   0.9071
hard i50 20 r1   0.9079   0.8966 0.9109   0.9051
hard i50 20 r2   0.9072   0.8958 0.9107   0.9051
hard i50 20 r3   0.9087   0.8972 0.9113   0.9051
hard i50 20 r4   0.9045   0.8956 0.9103   0.9051
hard i50 20 r5   0.8976   0.8947 0.9092   0.9051
hard i50 20 r6   0.9094   0.8978 0.9110   0.9051
hard i50 20 r7   0.9035   0.8963 0.9107   0.9051
hard i50 20 r8   0.9077   0.8963 0.9107   0.9051
hard i50 20 r9   0.9070   0.8958 0.9103   0.9051
hard i50 20 r10   0.9016   0.8968 0.9110   0.9051
