hard i1 1 r1 88696 7300 588 43 2
hard i1 1 r2 88621 7291 608 50 3
hard i1 1 r3 88644 7274 605 55 3
hard i1 1 r4 88668 7323 569 46 6 0 1
hard i1 1 r5 88567 7359 578 52 3
hard i1 1 r6 88747 7259 600 38 5
hard i1 1 r7 89031 7109 592 53 1
hard i1 1 r8 88942 7185 575 50 1
hard i1 1 r9 88841 7209 585 48 6 1
hard i1 1 r10 88724 7269 579 52 7
hard i2 1 r1 78326 6658 530 44 2
hard i2 1 r2 78216 6770 495 43 1
hard i2 1 r3 78229 6682 539 48 2 1
hard i2 1 r4 78464 6529 557 45 9
hard i2 1 r5 78340 6539 584 58 2 1
hard i2 1 r6 78459 6569 541 47 2
hard i2 1 r7 78384 6613 540 42 4
hard i2 1 r8 78304 6643 553 36 5
hard i2 1 r9 78360 6606 554 41 4
hard i2 1 r10 78457 6551 565 41
hard i3 1 r1 83834 6520 532 44 4
hard i3 1 r2 83634 6545 570 48 8
hard i3 1 r3 83701 6579 522 54 5
hard i3 1 r4 83954 6507 506 40 4
hard i3 1 r5 83770 6564 534 39 2
hard i3 1 r6 83675 6658 505 35 4
hard i3 1 r7 83658 6599 539 42 5
hard i3 1 r8 83463 6700 532 48 3
hard i3 1 r9 83606 6599 539 55 5
hard i3 1 r10 83545 6679 528 41 3
hard i4 1 r1 88061 7300 602 55 4 1
hard i4 1 r2 88018 7382 556 62 3
hard i4 1 r3 88094 7392 571 28 2
hard i4 1 r4 87514 7582 601 53 4
hard i4 1 r5 88114 7285 590 61 3
hard i4 1 r6 88244 7262 584 47 1
hard i4 1 r7 88062 7364 565 53 2 1
hard i4 1 r8 88341 7234 582 37 2
hard i4 1 r9 87957 7396 584 43 8
hard i4 1 r10 88346 7194 576 50 9 1
hard i5 1 r1 83399 7014 595 46 3
hard i5 1 r2 83591 7010 539 42 3
hard i5 1 r3 83316 7049 604 40 5
hard i5 1 r4 83845 6903 518 49 2
hard i5 1 r5 83473 7013 593 32 1
hard i5 1 r6 83712 6927 540 55 1
hard i5 1 r7 83562 6996 558 42 3
hard i5 1 r8 83686 6866 601 45 2
hard i5 1 r9 83659 6934 567 42 3
hard i5 1 r10 83452 7028 566 50 1
hard i6 1 r1 81188 6783 546 41 4 1
hard i6 1 r2 81232 6733 558 46 4 1
hard i6 1 r3 81354 6717 531 44 5
hard i6 1 r4 81211 6738 574 38 3 1
hard i6 1 r5 81368 6623 582 44 8 1
hard i6 1 r6 81200 6841 522 31 2
hard i6 1 r7 81072 6813 558 46 4 1
hard i6 1 r8 81676 6586 520 41 2
hard i6 1 r9 81339 6709 550 40 3
hard i6 1 r10 81132 6715 592 52 6 1
hard i7 1 r1 90295 7709 614 42 1
hard i7 1 r2 90523 7549 640 43 3
hard i7 1 r3 90737 7562 554 45 5
hard i7 1 r4 90327 7633 624 62 3
hard i7 1 r5 90429 7642 600 46 5 1
hard i7 1 r6 90220 7685 635 57 1
hard i7 1 r7 90283 7676 642 38 3
hard i7 1 r8 90580 7593 564 60 6
hard i7 1 r9 90378 7623 626 54 2
hard i7 1 r10 90595 7564 600 46 3 1
hard i8 1 r1 77668 6391 542 31 3
hard i8 1 r2 77862 6272 525 56 2
hard i8 1 r3 77831 6232 583 39 3
hard i8 1 r4 77511 6458 545 37 1
hard i8 1 r5 77444 6444 581 30 4
hard i8 1 r6 77546 6437 547 36 2
hard i8 1 r7 77823 6320 529 40 1
hard i8 1 r8 77667 6397 536 34 2
hard i8 1 r9 77307 6496 560 55 2 1
hard i8 1 r10 77656 6379 524 52 3 1
hard i9 1 r1 85062 6911 560 49 6
hard i9 1 r2 84711 7083 579 40 2 1
hard i9 1 r3 84819 6979 605 39 6 2
hard i9 1 r4 84912 6966 574 51 4
hard i9 1 r5 84818 6975 613 42 3
hard i9 1 r6 84719 7109 553 46 2
hard i9 1 r7 84964 6968 559 52 1
hard i9 1 r8 84890 7039 538 47 4
hard i9 1 r9 85078 6853 599 46 5
hard i9 1 r10 85016 6957 544 52 4
hard i10 1 r1 81005 6614 559 52 3
hard i10 1 r2 80828 6764 523 48 2 1
hard i10 1 r3 80806 6706 548 59 7
hard i10 1 r4 81064 6617 557 37 2 1
hard i10 1 r5 80792 6828 504 42 1
hard i10 1 r6 80983 6703 509 48 5
hard i10 1 r7 81014 6672 543 29 6
hard i10 1 r8 81036 6630 545 43 6
hard i10 1 r9 81016 6713 511 37 2
hard i10 1 r10 80776 6793 530 39 5
hard i11 1 r1 82165 6629 513 41 6
hard i11 1 r2 82501 6401 555 42 4
hard i11 1 r3 82315 6618 479 37 4
hard i11 1 r4 82088 6660 516 45 4
hard i11 1 r5 82244 6569 529 38 7
hard i11 1 r6 81882 6738 536 40 6
hard i11 1 r7 82354 6495 549 40 1
hard i11 1 r8 82104 6617 555 34 2 0 1
hard i11 1 r9 82357 6584 502 30 1
hard i11 1 r10 82146 6655 507 41 3
hard i12 1 r1 80292 6414 525 57 2
hard i12 1 r2 80342 6442 508 42 3
hard i12 1 r3 80495 6393 493 42 1
hard i12 1 r4 80581 6290 530 43 2
hard i12 1 r5 80249 6428 527 56 2 1 1
hard i12 1 r6 80434 6368 520 44 3 2
hard i12 1 r7 80733 6239 502 49 4
hard i12 1 r8 80515 6342 516 44 2
hard i12 1 r9 80522 6363 498 44 3
hard i12 1 r10 80423 6378 536 31 3 0 1
hard i13 1 r1 78881 6700 547 47 2
hard i13 1 r2 79099 6592 557 39 2
hard i13 1 r3 78987 6621 560 49 3
hard i13 1 r4 78993 6650 565 33
hard i13 1 r5 78885 6673 559 48 4
hard i13 1 r6 79042 6632 539 44 3 1
hard i13 1 r7 79027 6670 515 47 4
hard i13 1 r8 79234 6564 511 51 3 1
hard i13 1 r9 78829 6700 564 46 3
hard i13 1 r10 79103 6627 525 43 2 1
hard i14 1 r1 86279 7348 622 48 4 1
hard i14 1 r2 86806 7124 602 46 3
hard i14 1 r3 86469 7317 555 65 5 1
hard i14 1 r4 86256 7352 636 40 5 1
hard i14 1 r5 86468 7313 600 40 1
hard i14 1 r6 86533 7246 608 50 2
hard i14 1 r7 86272 7396 594 48 3 1
hard i14 1 r8 86290 7394 600 39 5
hard i14 1 r9 86319 7337 600 59 6
hard i14 1 r10 86378 7337 585 58 4
hard i15 1 r1 87115 7136 616 42 4 1
hard i15 1 r2 86809 7374 564 40 4
hard i15 1 r3 86645 7355 630 36 8
hard i15 1 r4 87266 7084 596 48 3
hard i15 1 r5 87114 7163 605 41 2
hard i15 1 r6 87064 7185 610 40 1
hard i15 1 r7 86876 7332 577 37 2
hard i15 1 r8 87025 7224 591 38 5 1
hard i15 1 r9 87088 7139 601 55 8
hard i15 1 r10 87143 7133 621 33 5
hard i16 1 r1 79925 6841 544 46 0 1
hard i16 1 r2 79829 6813 581 50 5 1
hard i16 1 r3 79913 6821 565 37 5 1
hard i16 1 r4 80145 6733 541 45 3
hard i16 1 r5 80006 6841 526 37 3
hard i16 1 r6 79956 6758 578 47 7
hard i16 1 r7 80072 6750 562 40 1 1
hard i16 1 r8 79910 6796 578 43 3 1
hard i16 1 r9 80016 6779 546 53 1
hard i16 1 r10 80076 6761 554 37 3 1
hard i17 1 r1 84226 7097 564 54 3
hard i17 1 r2 84375 7067 542 52
hard i17 1 r3 84209 7121 573 37 5
hard i17 1 r4 84294 7044 596 42 1
hard i17 1 r5 84378 7048 562 37 7
hard i17 1 r6 84256 7143 529 51 2
hard i17 1 r7 83821 7219 632 42 4
hard i17 1 r8 84624 6900 569 48 4
hard i17 1 r9 84271 7046 582 51 6
hard i17 1 r10 84101 7172 564 45 4 1
hard i18 1 r1 76158 6389 568 41 4
hard i18 1 r2 76333 6346 530 46 5
hard i18 1 r3 76470 6298 529 39 3
hard i18 1 r4 75905 6569 516 52 5
hard i18 1 r5 76319 6315 550 51 3 1
hard i18 1 r6 76517 6283 522 40 3
hard i18 1 r7 76662 6256 492 41 2
hard i18 1 r8 76301 6301 554 56 7
hard i18 1 r9 76058 6391 592 47 4
hard i18 1 r10 76093 6457 547 39 4
hard i19 1 r1 91267 7652 575 54 5
hard i19 1 r2 91335 7580 601 56 3
hard i19 1 r3 91774 7315 636 50 5
hard i19 1 r4 91725 7411 601 43 3
hard i19 1 r5 91719 7376 607 55 5
hard i19 1 r6 91740 7398 612 37 1 2
hard i19 1 r7 91758 7371 596 56 5
hard i19 1 r8 91796 7367 607 39 6
hard i19 1 r9 91448 7503 612 54 5 1
hard i19 1 r10 91690 7384 616 54 3
hard i20 1 r1 90193 7198 546 47
hard i20 1 r2 90315 7084 568 53 2 1
hard i20 1 r3 90312 7081 596 37 1
hard i20 1 r4 90544 7074 515 38 4 1
hard i20 1 r5 90714 6959 531 45 2
hard i20 1 r6 90451 7010 585 42 3 1
hard i20 1 r7 90406 7094 536 47 5
hard i20 1 r8 90171 7133 596 41 4 1
hard i20 1 r9 90383 7111 551 34 3 1
hard i20 1 r10 90282 7089 589 42 4
hard i21 1 r1 81840 6771 520 48 6
hard i21 1 r2 81329 6938 575 52 4 1
hard i21 1 r3 81865 6742 557 32 2 1
hard i21 1 r4 81553 6880 552 45 3
hard i21 1 r5 81575 6886 525 58 2
hard i21 1 r6 81463 6941 542 43 3 1
hard i21 1 r7 81834 6800 518 39 4
hard i21 1 r8 81688 6790 574 41 2
hard i21 1 r9 81460 6912 534 63 4 1
hard i21 1 r10 81879 6705 572 31 7
hard i22 1 r1 84180 6722 555 36 1
hard i22 1 r2 84119 6741 551 41 4
hard i22 1 r3 84249 6661 565 38 4
hard i22 1 r4 84160 6777 517 42 1
hard i22 1 r5 84336 6692 521 35 3
hard i22 1 r6 84500 6557 531 54 3
hard i22 1 r7 84212 6750 528 33 2
hard i22 1 r8 84283 6655 554 42 3
hard i22 1 r9 84285 6697 521 44 4
hard i22 1 r10 84352 6642 537 39 7
hard i23 1 r1 76758 6486 580 52 3
hard i23 1 r2 76433 6707 542 50 4
hard i23 1 r3 76834 6510 545 46 4
hard i23 1 r4 76549 6667 531 53 1
hard i23 1 r5 76775 6541 550 44 2
hard i23 1 r6 76704 6539 563 49 4 1
hard i23 1 r7 76584 6543 593 56 4
hard i23 1 r8 76638 6607 536 54 1 2
hard i23 1 r9 76495 6653 554 50 6
hard i23 1 r10 76537 6673 530 50 4
hard i24 1 r1 84680 6783 524 41 1 1
hard i24 1 r2 84749 6692 561 43 1
hard i24 1 r3 84618 6775 553 35 4 1
hard i24 1 r4 84650 6726 554 51 5
hard i24 1 r5 84734 6750 517 48 2 1
hard i24 1 r6 84906 6628 551 42 2
hard i24 1 r7 84779 6693 549 41 1 2
hard i24 1 r8 84504 6807 563 44 2
hard i24 1 r9 84645 6794 533 34 5
hard i24 1 r10 84715 6725 542 48 2
hard i25 1 r1 77022 6428 512 47 6
hard i25 1 r2 77138 6357 537 37 3 1
hard i25 1 r3 77030 6379 555 41 3
hard i25 1 r4 76972 6403 543 50 5
hard i25 1 r5 77180 6347 513 46 7
hard i25 1 r6 77227 6350 520 35 1
hard i25 1 r7 77259 6322 537 27 2
hard i25 1 r8 77171 6341 517 52 4
hard i25 1 r9 77007 6376 544 54 5
hard i25 1 r10 77411 6222 507 55 6 1
hard i26 1 r1 84151 7069 598 33 3
hard i26 1 r2 84212 7176 509 32 1 1
hard i26 1 r3 84207 7021 598 43 3
hard i26 1 r4 84219 7016 587 52 2
hard i26 1 r5 84033 7091 612 41 3
hard i26 1 r6 84168 7066 574 47 4
hard i26 1 r7 84083 7108 577 50
hard i26 1 r8 84137 7044 595 50 4
hard i26 1 r9 84215 7010 609 37 4
hard i26 1 r10 84299 7062 527 54 2
hard i27 1 r1 87756 7449 636 46 3
hard i27 1 r2 87459 7599 622 57 2
hard i27 1 r3 87682 7462 632 57 5 1
hard i27 1 r4 87454 7584 662 32 5
hard i27 1 r5 87772 7486 597 54 2
hard i27 1 r6 87616 7537 613 49 6 1
hard i27 1 r7 87499 7578 631 48 3 1
hard i27 1 r8 87231 7698 655 41 1
hard i27 1 r9 87542 7616 603 42 2
hard i27 1 r10 87653 7496 634 51 2
hard i28 1 r1 88598 6985 602 31 6
hard i28 1 r2 88480 7020 588 56 4
hard i28 1 r3 88929 6837 561 58 2
hard i28 1 r4 88363 7153 559 43 2
hard i28 1 r5 88807 6895 562 57 1 2
hard i28 1 r6 88588 6988 597 42 1
hard i28 1 r7 88751 6970 547 44 4
hard i28 1 r8 88496 7027 575 57 5
hard i28 1 r9 88539 7013 586 50 1
hard i28 1 r10 88510 7092 551 40 3 1
hard i29 1 r1 88527 7107 570 49 4 1
hard i29 1 r2 88628 7114 542 44 3
hard i29 1 r3 88416 7228 541 38 4 1
hard i29 1 r4 88218 7238 580 54 1 3
hard i29 1 r5 88464 7120 597 42 2
hard i29 1 r6 88429 7170 551 54 7
hard i29 1 r7 88768 6972 595 39 4
hard i29 1 r8 88511 7173 537 46 3 1
hard i29 1 r9 88558 7132 560 39 3
hard i29 1 r10 88790 6965 587 43 4
hard i30 1 r1 87265 6905 530 54 6 1
hard i30 1 r2 87115 7011 522 51 2
hard i30 1 r3 87296 6875 546 52 5
hard i30 1 r4 87391 6815 572 45
hard i30 1 r5 86976 7028 561 44 4 1
hard i30 1 r6 87444 6790 564 45 3 1
hard i30 1 r7 87228 6902 558 45 5 1
hard i30 1 r8 87265 6854 587 42 3
hard i30 1 r9 87397 6785 562 62 2 1
hard i30 1 r10 87746 6680 544 41 3
hard i31 1 r1 86765 7010 546 41 3
hard i31 1 r2 87012 6878 547 43 3 1
hard i31 1 r3 86967 6829 582 54 3
hard i31 1 r4 86707 6987 565 49 6
hard i31 1 r5 87060 6889 527 42 3
hard i31 1 r6 86880 6956 547 41 1
hard i31 1 r7 86780 6999 541 44 5
hard i31 1 r8 86684 7037 546 45 4 1
hard i31 1 r9 87052 6881 534 45 0 1
hard i31 1 r10 86963 6924 540 39 3
hard i32 1 r1 90091 7074 551 46 7
hard i32 1 r2 89984 7134 563 40 2
hard i32 1 r3 90438 6935 530 52 1
hard i32 1 r4 90154 7022 557 54 4 1
hard i32 1 r5 90111 7044 582 39 2
hard i32 1 r6 90052 7064 564 56 3
hard i32 1 r7 90115 7042 573 42 5
hard i32 1 r8 90260 7002 562 39 1
hard i32 1 r9 90110 7024 595 37 4
hard i32 1 r10 90400 6927 542 54 3
hard i33 1 r1 84684 6947 567 37 2
hard i33 1 r2 84914 6878 510 53 5
hard i33 1 r3 84999 6846 523 38 5
hard i33 1 r4 84845 6870 555 43 3
hard i33 1 r5 84819 6826 585 49 3
hard i33 1 r6 84880 6873 550 39 1
hard i33 1 r7 84642 6986 533 51 4
hard i33 1 r8 84792 6868 581 34 6
hard i33 1 r9 84994 6814 541 48
hard i33 1 r10 84781 6869 564 49 6
hard i34 1 r1 83727 6813 570 42 3
hard i34 1 r2 83551 6874 579 50 2
hard i34 1 r3 83511 6932 559 46 2
hard i34 1 r4 83928 6738 549 45 3
hard i34 1 r5 83271 7039 551 56 4
hard i34 1 r6 83850 6809 535 33 7 1
hard i34 1 r7 83553 6932 547 42 4
hard i34 1 r8 83588 6876 575 39 5
hard i34 1 r9 83686 6831 557 48 7
hard i34 1 r10 83660 6883 527 52 5 1
hard i35 1 r1 80947 6823 506 50 5
hard i35 1 r2 80735 6821 603 35 2
hard i35 1 r3 81024 6724 549 48 5
hard i35 1 r4 80849 6788 567 45 6
hard i35 1 r5 80678 6926 523 58 1
hard i35 1 r6 81000 6768 521 50 5 2
hard i35 1 r7 80734 6788 610 44 4
hard i35 1 r8 80672 6896 546 56 2
hard i35 1 r9 80860 6798 573 39 1
hard i35 1 r10 80525 6855 610 60 5 1
hard i36 1 r1 82541 6976 576 42 3
hard i36 1 r2 82754 6818 588 55 6
hard i36 1 r3 82657 6882 586 50 5
hard i36 1 r4 82886 6795 562 54 4 1
hard i36 1 r5 82397 7009 581 55 4 1
hard i36 1 r6 82614 6908 598 40 4
hard i36 1 r7 82501 6979 567 56 4
hard i36 1 r8 82590 6890 607 52 1
hard i36 1 r9 82906 6796 559 41 13
hard i36 1 r10 82628 6910 578 48 6
hard i37 1 r1 81338 7281 598 50 1
hard i37 1 r2 81420 7240 584 53 7
hard i37 1 r3 81400 7286 590 38 1
hard i37 1 r4 81642 7185 568 38 5 1
hard i37 1 r5 81563 7181 594 43 4
hard i37 1 r6 81809 7068 573 55 3
hard i37 1 r7 81411 7212 631 39 3
hard i37 1 r8 81708 7076 605 51 4
hard i37 1 r9 81805 7081 571 46 7
hard i37 1 r10 81531 7182 593 50 5
hard i38 1 r1 81356 6640 521 45 5
hard i38 1 r2 81734 6499 502 39 2
hard i38 1 r3 81520 6535 551 35 3 1
hard i38 1 r4 81300 6637 546 43 4
hard i38 1 r5 81543 6543 520 45 7
hard i38 1 r6 81464 6575 525 46 5 1
hard i38 1 r7 81523 6561 541 34
hard i38 1 r8 81504 6549 531 42 7 1
hard i38 1 r9 81673 6480 515 54 2
hard i38 1 r10 81487 6585 525 38 4
hard i39 1 r1 90457 7267 564 46 3
hard i39 1 r2 90185 7339 593 50 8
hard i39 1 r3 90174 7363 592 45 4 1
hard i39 1 r4 90177 7385 591 38 2
hard i39 1 r5 90106 7417 583 42 5
hard i39 1 r6 90285 7325 586 46 1
hard i39 1 r7 90275 7267 625 44 3 0 1
hard i39 1 r8 90122 7371 605 47 3
hard i39 1 r9 90113 7360 602 57 3
hard i39 1 r10 90218 7386 555 53 3
hard i40 1 r1 83084 6845 555 48 4
hard i40 1 r2 83276 6734 567 45 4 1
hard i40 1 r3 83270 6756 553 47 2 2
hard i40 1 r4 83285 6740 577 35 3
hard i40 1 r5 83114 6831 547 49 4 3
hard i40 1 r6 83384 6730 547 39 2
hard i40 1 r7 82951 6861 590 47 4
hard i40 1 r8 83022 6869 567 45 2
hard i40 1 r9 83205 6859 519 39 3
hard i40 1 r10 82896 6880 577 61 4
hard i41 1 r1 89240 7569 600 50 4 1
hard i41 1 r2 89575 7379 618 48 5
hard i41 1 r3 89453 7426 609 63 4
hard i41 1 r4 89497 7485 581 46 2
hard i41 1 r5 89267 7544 635 36
hard i41 1 r6 89473 7431 607 57 4
hard i41 1 r7 89557 7413 614 41 3
hard i41 1 r8 89681 7408 580 38 3
hard i41 1 r9 89295 7513 633 42 2 1
hard i41 1 r10 89215 7588 610 39 4 0 1
hard i42 1 r1 85377 6966 568 48 1
hard i42 1 r2 85053 7124 574 43 3
hard i42 1 r3 84836 7189 594 51 2
hard i42 1 r4 84839 7171 599 53 4
hard i42 1 r5 84787 7210 600 38 9 1
hard i42 1 r6 84783 7161 625 50 6
hard i42 1 r7 85031 7068 602 53 5
hard i42 1 r8 85219 7030 590 39 1
hard i42 1 r9 84919 7145 592 50 5
hard i42 1 r10 85092 7063 584 50 8
hard i43 1 r1 83205 7297 625 43 5
hard i43 1 r2 83161 7315 624 49 1 0 1
hard i43 1 r3 83210 7313 603 54 2
hard i43 1 r4 83248 7238 627 64 2
hard i43 1 r5 83709 7100 594 40 4
hard i43 1 r6 83263 7290 595 52 7
hard i43 1 r7 83458 7262 558 50 3
hard i43 1 r8 83221 7341 576 56 2 1
hard i43 1 r9 83114 7282 645 62 2
hard i43 1 r10 83159 7290 634 50 6
hard i44 1 r1 86029 7143 567 50 3 1
hard i44 1 r2 85647 7261 622 44 4 1
hard i44 1 r3 85617 7305 589 53 5 1
hard i44 1 r4 85526 7315 614 56 3
hard i44 1 r5 85582 7290 607 56 6
hard i44 1 r6 85790 7207 605 52 2
hard i44 1 r7 85707 7280 584 52 2
hard i44 1 r8 85503 7363 617 38 1
hard i44 1 r9 85765 7230 605 44 3 1
hard i44 1 r10 85331 7474 578 47 6 1
hard i45 1 r1 81188 7045 643 43 2
hard i45 1 r2 80967 7148 617 65 3
hard i45 1 r3 81200 7057 617 51 4
hard i45 1 r4 81165 7096 604 50 4
hard i45 1 r5 81061 7159 594 52 4
hard i45 1 r6 81217 7036 628 49 4
hard i45 1 r7 81521 6947 596 44 2
hard i45 1 r8 81214 7074 595 58 2
hard i45 1 r9 81311 7069 575 46 5 1
hard i45 1 r10 81309 7060 589 43 3 1
hard i46 1 r1 86831 7222 603 42 2
hard i46 1 r2 86983 7228 529 50 6 1
hard i46 1 r3 86890 7187 602 43 4
hard i46 1 r4 87186 7103 537 61 3
hard i46 1 r5 87051 7183 536 58 1
hard i46 1 r6 86931 7194 586 40 5
hard i46 1 r7 87107 7175 531 44 6 1
hard i46 1 r8 86700 7286 579 57 5
hard i46 1 r9 86919 7256 541 47 4
hard i46 1 r10 86854 7199 597 51 3
hard i47 1 r1 83007 6945 545 46 3
hard i47 1 r2 82876 6950 591 43 2
hard i47 1 r3 82854 6913 601 57 4
hard i47 1 r4 82930 6941 566 49 5
hard i47 1 r5 83194 6856 529 57 2
hard i47 1 r6 83167 6852 538 54 6
hard i47 1 r7 83398 6734 557 42 4 1
hard i47 1 r8 82887 6975 574 38 4
hard i47 1 r9 82985 6909 581 45 1
hard i47 1 r10 82865 6930 594 47 6 1
hard i48 1 r1 87638 7023 565 43 3
hard i48 1 r2 87697 6983 568 46 3
hard i48 1 r3 87649 6995 574 45 5
hard i48 1 r4 87767 6976 538 57 1
hard i48 1 r5 87891 6904 544 55 3
hard i48 1 r6 87514 7049 598 40
hard i48 1 r7 87875 7007 496 42 3 1
hard i48 1 r8 87765 6921 568 60 3
hard i48 1 r9 87751 6958 557 52 4
hard i48 1 r10 87636 7058 543 41 3 1
hard i49 1 r1 74421 6725 588 57 2
hard i49 1 r2 75021 6502 561 36 3 1
hard i49 1 r3 75132 6470 542 36 5 1
hard i49 1 r4 74973 6527 554 37 6 1
hard i49 1 r5 75169 6438 548 42 2 1
hard i49 1 r6 74854 6611 527 50 2 1
hard i49 1 r7 74795 6583 579 40 3
hard i49 1 r8 74852 6556 566 45 5 1
hard i49 1 r9 74840 6551 579 41 6
hard i49 1 r10 75025 6529 529 42 7
hard i50 1 r1 80701 6743 569 62 2 1
hard i50 1 r2 80780 6693 589 55 1
hard i50 1 r3 80892 6688 554 53 2 1
hard i50 1 r4 80928 6706 534 46 4 2
hard i50 1 r5 80791 6762 531 55 6
hard i50 1 r6 80745 6721 586 47 5
hard i50 1 r7 80684 6748 572 54 8 1
hard i50 1 r8 81047 6627 566 36 3
hard i50 1 r9 80611 6829 570 41 3
hard i50 1 r10 80669 6768 575 48 6 1
