monotone i1 1 r1 255809 3603 35
monotone i1 1 r2 256034 3499 28 1
monotone i1 1 r3 255737 3648 29
monotone i1 1 r4 255926 3558 26
monotone i1 1 r5 256040 3495 30
monotone i1 1 r6 256046 3469 44 1
monotone i1 1 r7 255913 3542 41
monotone i1 1 r8 256006 3503 36
monotone i1 1 r9 256058 3486 30
monotone i1 1 r10 255930 3538 38
monotone i2 1 r1 80961 323 1
monotone i2 1 r2 80916 347
monotone i2 1 r3 80917 345 1
monotone i2 1 r4 80940 335
monotone i2 1 r5 80940 332 2
monotone i2 1 r6 80882 364
monotone i2 1 r7 80910 350
monotone i2 1 r8 80940 335
monotone i2 1 r9 80874 368
monotone i2 1 r10 80863 372 1
monotone i3 1 r1 305095 4938 52 1
monotone i3 1 r2 304748 5113 51 1
monotone i3 1 r3 304756 5078 73
monotone i3 1 r4 304851 5057 54 1
monotone i3 1 r5 304946 4986 71
monotone i3 1 r6 304626 5141 73 1
monotone i3 1 r7 304872 5043 55 2
monotone i3 1 r8 305079 4924 68
monotone i3 1 r9 304788 5059 75
monotone i3 1 r10 304932 5017 55
monotone i4 1 r1 78930 420 1
monotone i4 1 r2 78963 399 4
monotone i4 1 r3 78958 401 3 1
monotone i4 1 r4 78934 415 3
monotone i4 1 r5 78840 462 3
monotone i4 1 r6 78882 444 1
monotone i4 1 r7 78935 416 2
monotone i4 1 r8 78891 438 2
monotone i4 1 r9 78906 429 3
monotone i4 1 r10 78843 462 2
monotone i5 1 r1 190555 2030 27
monotone i5 1 r2 190481 2088 13
monotone i5 1 r3 190379 2130 19
monotone i5 1 r4 190691 1960 27 1
monotone i5 1 r5 190526 2067 12
monotone i5 1 r6 190554 2044 18
monotone i5 1 r7 190604 2013 22
monotone i5 1 r8 190456 2090 20
monotone i5 1 r9 190383 2125 21
monotone i5 1 r10 190590 2023 20
monotone i6 1 r1 58948 244
monotone i6 1 r2 58958 239
monotone i6 1 r3 58950 240 2
monotone i6 1 r4 58920 258
monotone i6 1 r5 58954 241
monotone i6 1 r6 58926 252 2
monotone i6 1 r7 58924 256
monotone i6 1 r8 58924 256
monotone i6 1 r9 58980 228
monotone i6 1 r10 58950 243
monotone i7 1 r1 229689 3362 34
monotone i7 1 r2 229833 3284 38
monotone i7 1 r3 229641 3356 54
monotone i7 1 r4 229747 3327 38
monotone i7 1 r5 229692 3353 39
monotone i7 1 r6 229928 3241 35
monotone i7 1 r7 229871 3280 28
monotone i7 1 r8 229835 3265 50
monotone i7 1 r9 229823 3289 38
monotone i7 1 r10 229866 3281 29
monotone i8 1 r1 58001 341 4
monotone i8 1 r2 57980 350 5
monotone i8 1 r3 58008 342 1
monotone i8 1 r4 57994 349 1
monotone i8 1 r5 58058 317 1
monotone i8 1 r6 57940 367 7
monotone i8 1 r7 58043 323 2
monotone i8 1 r8 58009 337 4
monotone i8 1 r9 58029 330 2
monotone i8 1 r10 57966 363 1
monotone i9 1 r1 179768 2227 26
monotone i9 1 r2 179540 2348 20 1
monotone i9 1 r3 179523 2348 27
monotone i9 1 r4 179632 2292 28
monotone i9 1 r5 179730 2246 26
monotone i9 1 r6 179728 2253 22
monotone i9 1 r7 179573 2323 27
monotone i9 1 r8 179579 2317 29
monotone i9 1 r9 179630 2293 28
monotone i9 1 r10 179702 2254 30
monotone i10 1 r1 335713 4665 57
monotone i10 1 r2 335604 4721 56
monotone i10 1 r3 335732 4661 52 1
monotone i10 1 r4 335599 4746 41
monotone i10 1 r5 335451 4808 49
monotone i10 1 r6 335526 4769 50
monotone i10 1 r7 335421 4848 31 1
monotone i10 1 r8 335753 4652 51 1
monotone i10 1 r9 335393 4843 45
monotone i10 1 r10 335360 4858 46
monotone i11 1 r1 92378 505 2
monotone i11 1 r2 92437 474 3
monotone i11 1 r3 92285 553 1
monotone i11 1 r4 92398 498
monotone i11 1 r5 92353 519 1
monotone i11 1 r6 92267 562 1
monotone i11 1 r7 92363 514 1
monotone i11 1 r8 92310 536 4
monotone i11 1 r9 92322 533 2
monotone i11 1 r10 92356 516 2
monotone i12 1 r1 73438 415 5
monotone i12 1 r2 73523 380
monotone i12 1 r3 73494 393 1
monotone i12 1 r4 73421 431
monotone i12 1 r5 73445 413 4
monotone i12 1 r6 73490 395 1
monotone i12 1 r7 73494 393 1
monotone i12 1 r8 73477 403
monotone i12 1 r9 73470 402 3
monotone i12 1 r10 73441 421
monotone i13 1 r1 69994 228
monotone i13 1 r2 69934 258
monotone i13 1 r3 69970 240
monotone i13 1 r4 69960 245
monotone i13 1 r5 69970 240
monotone i13 1 r6 69938 256
monotone i13 1 r7 69972 239
monotone i13 1 r8 69998 226
monotone i13 1 r9 69932 259
monotone i13 1 r10 69974 238
monotone i14 1 r1 158754 1788 13 1
monotone i14 1 r2 158594 1849 27
monotone i14 1 r3 158606 1864 13
monotone i14 1 r4 158637 1850 12
monotone i14 1 r5 158591 1861 20
monotone i14 1 r6 158559 1889 12
monotone i14 1 r7 158673 1838 8
monotone i14 1 r8 158523 1910 10
monotone i14 1 r9 158746 1794 13
monotone i14 1 r10 158466 1925 19
monotone i15 1 r1 174291 2325 33
monotone i15 1 r2 174478 2243 24 1
monotone i15 1 r3 174354 2298 30
monotone i15 1 r4 174424 2269 26
monotone i15 1 r5 174582 2188 26 1
monotone i15 1 r6 174443 2267 21
monotone i15 1 r7 174393 2298 17
monotone i15 1 r8 174379 2296 23
monotone i15 1 r9 174620 2172 24 1
monotone i15 1 r10 174437 2265 23 1
monotone i16 1 r1 81538 696 6 1
monotone i16 1 r2 81423 760 3
monotone i16 1 r3 81454 732 10 1
monotone i16 1 r4 81528 703 6
monotone i16 1 r5 81478 722 10
monotone i16 1 r6 81561 688 5
monotone i16 1 r7 81485 717 11
monotone i16 1 r8 81469 734 5
monotone i16 1 r9 81519 709 5
monotone i16 1 r10 81574 674 10
monotone i17 1 r1 70075 469 4
monotone i17 1 r2 70053 483 2
monotone i17 1 r3 70028 491 5
monotone i17 1 r4 70046 485 3
monotone i17 1 r5 70011 504 2
monotone i17 1 r6 70070 476 1
monotone i17 1 r7 70055 473 8
monotone i17 1 r8 70059 477 4
monotone i17 1 r9 70058 479 3
monotone i17 1 r10 70075 469 4
monotone i18 1 r1 53655 254
monotone i18 1 r2 53647 255 2
monotone i18 1 r3 53670 242 3
monotone i18 1 r4 53622 266 3
monotone i18 1 r5 53609 274 2
monotone i18 1 r6 53683 234 4
monotone i18 1 r7 53604 278 1
monotone i18 1 r8 53602 279 1
monotone i18 1 r9 53637 260 2
monotone i18 1 r10 53654 253 1
monotone i19 1 r1 46385 193 1
monotone i19 1 r2 46381 195 1
monotone i19 1 r3 46322 226
monotone i19 1 r4 46367 202 1
monotone i19 1 r5 46406 181 2
monotone i19 1 r6 46336 219
monotone i19 1 r7 46332 221
monotone i19 1 r8 46318 228
monotone i19 1 r9 46360 204 2
monotone i19 1 r10 46390 189 2
monotone i20 1 r1 100687 862 2
monotone i20 1 r2 100703 842 10
monotone i20 1 r3 100649 878 4
monotone i20 1 r4 100589 899 10
monotone i20 1 r5 100501 937 14
monotone i20 1 r6 100575 909 8
monotone i20 1 r7 100769 815 6
monotone i20 1 r8 100557 912 12
monotone i20 1 r9 100631 881 8
monotone i20 1 r10 100652 875 5
monotone i21 1 r1 116067 1509 16 1
monotone i21 1 r2 116045 1528 12
monotone i21 1 r3 116034 1523 19
monotone i21 1 r4 115976 1555 17
monotone i21 1 r5 116012 1541 13 1
monotone i21 1 r6 116024 1534 15
monotone i21 1 r7 116015 1534 18
monotone i21 1 r8 116172 1455 17 1
monotone i21 1 r9 116010 1545 11 1
monotone i21 1 r10 116216 1432 19
monotone i22 1 r1 102034 953 16
monotone i22 1 r2 102072 940 12
monotone i22 1 r3 102115 911 17
monotone i22 1 r4 102023 969 9
monotone i22 1 r5 102009 976 9
monotone i22 1 r6 102036 965 6 1
monotone i22 1 r7 102121 911 15
monotone i22 1 r8 102049 953 11
monotone i22 1 r9 102176 891 10
monotone i22 1 r10 102135 913 9
monotone i23 1 r1 119605 1311 9
monotone i23 1 r2 119464 1383 8
monotone i23 1 r3 119520 1349 12
monotone i23 1 r4 119468 1366 18
monotone i23 1 r5 119523 1355 7
monotone i23 1 r6 119578 1323 10
monotone i23 1 r7 119566 1323 14
monotone i23 1 r8 119570 1322 12 1
monotone i23 1 r9 119371 1416 17
monotone i23 1 r10 119610 1307 10
monotone i24 1 r1 116192 1083 10
monotone i24 1 r2 116201 1080 9
monotone i24 1 r3 116195 1083 9
monotone i24 1 r4 116245 1058 9
monotone i24 1 r5 116257 1049 11
monotone i24 1 r6 116199 1078 11
monotone i24 1 r7 116277 1045 7
monotone i24 1 r8 116189 1092 5
monotone i24 1 r9 116302 1034 6
monotone i24 1 r10 116275 1049 5
monotone i25 1 r1 145586 1330 11
monotone i25 1 r2 145582 1335 9
monotone i25 1 r3 145472 1396 5
monotone i25 1 r4 145482 1388 7
monotone i25 1 r5 145720 1269 7
monotone i25 1 r6 145438 1407 9
monotone i25 1 r7 145659 1298 8
monotone i25 1 r8 145537 1356 10
monotone i25 1 r9 145599 1334 4
monotone i25 1 r10 145595 1330 8
monotone i26 1 r1 29705 35
monotone i26 1 r2 29685 45
monotone i26 1 r3 29713 31
monotone i26 1 r4 29707 34
monotone i26 1 r5 29677 49
monotone i26 1 r6 29709 33
monotone i26 1 r7 29683 46
monotone i26 1 r8 29691 42
monotone i26 1 r9 29693 41
monotone i26 1 r10 29701 37
monotone i27 1 r1 37227 176 1
monotone i27 1 r2 37237 168 3
monotone i27 1 r3 37211 181 3
monotone i27 1 r4 37210 183 2
monotone i27 1 r5 37178 199 2
monotone i27 1 r6 37197 188 3
monotone i27 1 r7 37225 177 1
monotone i27 1 r8 37198 189 2
monotone i27 1 r9 37222 174 4
monotone i27 1 r10 37162 210
monotone i28 1 r1 36530 161 2
monotone i28 1 r2 36556 148 2
monotone i28 1 r3 36523 163 3
monotone i28 1 r4 36588 135
monotone i28 1 r5 36531 159 3
monotone i28 1 r6 36573 141 1
monotone i28 1 r7 36553 151 1
monotone i28 1 r8 36535 157 3
monotone i28 1 r9 36579 138 1
monotone i28 1 r10 36557 149 1
monotone i29 1 r1 112287 998 5
monotone i29 1 r2 112346 964 8
monotone i29 1 r3 112320 983 4
monotone i29 1 r4 112312 984 6
monotone i29 1 r5 112284 995 8
monotone i29 1 r6 112343 973 3
monotone i29 1 r7 112252 999 16
monotone i29 1 r8 112269 998 11
monotone i29 1 r9 112226 1030 4
monotone i29 1 r10 112339 969 7
monotone i30 1 r1 135246 988 6
monotone i30 1 r2 135250 989 4
monotone i30 1 r3 135285 976 1
monotone i30 1 r4 135244 992 4
monotone i30 1 r5 135276 976 4
monotone i30 1 r6 135230 1002 2
monotone i30 1 r7 135142 1037 8
monotone i30 1 r8 135269 981 3
monotone i30 1 r9 135210 1006 6
monotone i30 1 r10 135293 966 5
monotone i31 1 r1 70743 304
monotone i31 1 r2 70769 291
monotone i31 1 r3 70761 295
monotone i31 1 r4 70711 317 2
monotone i31 1 r5 70759 296
monotone i31 1 r6 70745 303
monotone i31 1 r7 70707 322
monotone i31 1 r8 70756 296 1
monotone i31 1 r9 70760 294 1
monotone i31 1 r10 70756 293 3
monotone i32 1 r1 86264 571 8
monotone i32 1 r2 86316 557
monotone i32 1 r3 86208 605 4
monotone i32 1 r4 86240 589 4
monotone i32 1 r5 86227 597 3
monotone i32 1 r6 86216 601 4
monotone i32 1 r7 86232 593 4
monotone i32 1 r8 86275 573 3
monotone i32 1 r9 86287 558 9
monotone i32 1 r10 86372 523 4
monotone i33 1 r1 115283 1058 4
monotone i33 1 r2 115292 1049 7
monotone i33 1 r3 115046 1169 9
monotone i33 1 r4 115199 1097 6
monotone i33 1 r5 115354 1021 5
monotone i33 1 r6 115280 1058 5
monotone i33 1 r7 115134 1122 11
monotone i33 1 r8 115319 1037 6
monotone i33 1 r9 115168 1102 13
monotone i33 1 r10 115269 1062 6
monotone i34 1 r1 100178 969 7
monotone i34 1 r2 100164 974 7 1
monotone i34 1 r3 100102 1010 5
monotone i34 1 r4 100212 952 7
monotone i34 1 r5 99986 1065 7
monotone i34 1 r6 100095 1006 10
monotone i34 1 r7 100131 988 10
monotone i34 1 r8 100095 1001 12 1
monotone i34 1 r9 100171 968 10
monotone i34 1 r10 100100 1005 9
monotone i35 1 r1 46535 155
monotone i35 1 r2 46601 122
monotone i35 1 r3 46609 118
monotone i35 1 r4 46559 143
monotone i35 1 r5 46554 144 1
monotone i35 1 r6 46537 154
monotone i35 1 r7 46513 166
monotone i35 1 r8 46569 138
monotone i35 1 r9 46563 141
monotone i35 1 r10 46571 137
monotone i36 1 r1 136447 967 1
monotone i36 1 r2 136544 911 6
monotone i36 1 r3 136558 913
monotone i36 1 r4 136571 902 3
monotone i36 1 r5 136506 930 6
monotone i36 1 r6 136573 904 1
monotone i36 1 r7 136443 960 7
monotone i36 1 r8 136444 967 2
monotone i36 1 r9 136576 904
monotone i36 1 r10 136542 915 4
monotone i37 1 r1 36913 99
monotone i37 1 r2 36965 73
monotone i37 1 r3 36943 84
monotone i37 1 r4 36962 73 1
monotone i37 1 r5 36979 66
monotone i37 1 r6 36971 70
monotone i37 1 r7 36963 74
monotone i37 1 r8 36949 81
monotone i37 1 r9 36953 79
monotone i37 1 r10 37003 54
monotone i38 1 r1 74560 603 9
monotone i38 1 r2 74448 668 3
monotone i38 1 r3 74448 659 9
monotone i38 1 r4 74412 680 7
monotone i38 1 r5 74446 663 7
monotone i38 1 r6 74424 683 1
monotone i38 1 r7 74488 645 5
monotone i38 1 r8 74446 666 5
monotone i38 1 r9 74409 677 10
monotone i38 1 r10 74462 655 7
monotone i39 1 r1 106804 1024 10
monotone i39 1 r2 106961 947 9
monotone i39 1 r3 106958 950 8
monotone i39 1 r4 107055 906 5
monotone i39 1 r5 106801 1027 9
monotone i39 1 r6 106905 972 11
monotone i39 1 r7 106821 1017 9
monotone i39 1 r8 106960 955 4
monotone i39 1 r9 106863 990 13
monotone i39 1 r10 106925 968 7
monotone i40 1 r1 143018 1958 21
monotone i40 1 r2 143157 1887 22
monotone i40 1 r3 143186 1871 23
monotone i40 1 r4 143001 1953 30
monotone i40 1 r5 143119 1909 20
monotone i40 1 r6 143132 1901 21
monotone i40 1 r7 143131 1888 30
monotone i40 1 r8 143131 1909 16
monotone i40 1 r9 143148 1887 25
monotone i40 1 r10 143079 1930 18 1
monotone i41 1 r1 31673 48
monotone i41 1 r2 31634 66 1
monotone i41 1 r3 31628 69 1
monotone i41 1 r4 31633 68
monotone i41 1 r5 31671 46 2
monotone i41 1 r6 31641 64
monotone i41 1 r7 31609 80
monotone i41 1 r8 31619 75
monotone i41 1 r9 31653 58
monotone i41 1 r10 31633 68
monotone i42 1 r1 78526 337 2
monotone i42 1 r2 78456 372 2
monotone i42 1 r3 78450 375 2
monotone i42 1 r4 78443 377 3
monotone i42 1 r5 78515 344 1
monotone i42 1 r6 78510 348
monotone i42 1 r7 78544 328 2
monotone i42 1 r8 78429 384 3
monotone i42 1 r9 78529 337 1
monotone i42 1 r10 78492 357
monotone i43 1 r1 34408 68
monotone i43 1 r2 34405 68 1
monotone i43 1 r3 34395 73 1
monotone i43 1 r4 34400 72
monotone i43 1 r5 34396 74
monotone i43 1 r6 34444 50
monotone i43 1 r7 34402 71
monotone i43 1 r8 34408 68
monotone i43 1 r9 34410 67
monotone i43 1 r10 34420 62
monotone i44 1 r1 114451 1273 8
monotone i44 1 r2 114444 1255 21 1
monotone i44 1 r3 114257 1361 14
monotone i44 1 r4 114342 1311 19
monotone i44 1 r5 114374 1299 15 1
monotone i44 1 r6 114411 1279 16 1
monotone i44 1 r7 114462 1255 15 1
monotone i44 1 r8 114371 1304 14
monotone i44 1 r9 114381 1287 22
monotone i44 1 r10 114507 1239 12
monotone i45 1 r1 54533 151
monotone i45 1 r2 54533 151
monotone i45 1 r3 54497 169
monotone i45 1 r4 54517 159
monotone i45 1 r5 54537 149
monotone i45 1 r6 54543 146
monotone i45 1 r7 54497 169
monotone i45 1 r8 54509 163
monotone i45 1 r9 54467 184
monotone i45 1 r10 54487 174
monotone i46 1 r1 101092 670 5
monotone i46 1 r2 101052 690 5
monotone i46 1 r3 101054 692 3
monotone i46 1 r4 101148 645 3
monotone i46 1 r5 101037 699 4
monotone i46 1 r6 101105 665 4
monotone i46 1 r7 101140 652 1
monotone i46 1 r8 101140 646 5
monotone i46 1 r9 101042 701 1
monotone i46 1 r10 101115 660 4
monotone i47 1 r1 126706 1664 23 1
monotone i47 1 r2 126735 1659 18
monotone i47 1 r3 126854 1595 21
monotone i47 1 r4 126831 1617 14
monotone i47 1 r5 126809 1619 20
monotone i47 1 r6 126806 1628 15
monotone i47 1 r7 126864 1594 17 1
monotone i47 1 r8 126861 1593 20
monotone i47 1 r9 126686 1679 21
monotone i47 1 r10 126778 1655 5 1
monotone i48 1 r1 119555 1054 8
monotone i48 1 r2 119345 1159 8
monotone i48 1 r3 119401 1134 6
monotone i48 1 r4 119403 1133 6
monotone i48 1 r5 119435 1108 12
monotone i48 1 r6 119550 1058 7
monotone i48 1 r7 119436 1112 9
monotone i48 1 r8 119441 1102 14
monotone i48 1 r9 119383 1146 4
monotone i48 1 r10 119491 1086 8
monotone i49 1 r1 36168 110
monotone i49 1 r2 36132 128
monotone i49 1 r3 36179 103 1
monotone i49 1 r4 36172 102 4
monotone i49 1 r5 36151 117 1
monotone i49 1 r6 36197 94 1
monotone i49 1 r7 36183 101 1
monotone i49 1 r8 36148 120
monotone i49 1 r9 36135 125 1
monotone i49 1 r10 36180 104
monotone i50 1 r1 81240 436 2
monotone i50 1 r2 81187 464 1
monotone i50 1 r3 81177 469 1
monotone i50 1 r4 81204 452 2 1
monotone i50 1 r5 81194 456 4
monotone i50 1 r6 81234 439 2
monotone i50 1 r7 81188 459 4
monotone i50 1 r8 81098 504 4
monotone i50 1 r9 81169 470 3
monotone i50 1 r10 81221 447 1
