monotone i1 2 r1 497825 13778 281 4
monotone i1 2 r2 497756 13802 284 7
monotone i1 2 r3 498193 13593 279 6
monotone i1 2 r4 497876 13799 250 4
monotone i1 2 r5 497482 13955 276 5
monotone i1 2 r6 498198 13637 252 3
monotone i1 2 r7 497524 13945 266 7
monotone i1 2 r8 497892 13793 246 6
monotone i1 2 r9 498007 13738 243 7
monotone i1 2 r10 497883 13717 305 2
monotone i2 2 r1 160352 1416 12
monotone i2 2 r2 160389 1408 5
monotone i2 2 r3 160371 1417 5
monotone i2 2 r4 160428 1390 4
monotone i2 2 r5 160388 1410 4
monotone i2 2 r6 160378 1412 6
monotone i2 2 r7 160362 1417 8
monotone i2 2 r8 160365 1420 5
monotone i2 2 r9 160383 1411 5
monotone i2 2 r10 160261 1472 5
monotone i3 2 r1 589559 19551 515 14
monotone i3 2 r2 589843 19477 475 10
monotone i3 2 r3 590128 19286 502 14
monotone i3 2 r4 589917 19408 495 11
monotone i3 2 r5 589297 19737 485 9
monotone i3 2 r6 589108 19777 516 13
monotone i3 2 r7 589533 19545 525 16
monotone i3 2 r8 589834 19457 486 14
monotone i3 2 r9 589795 19381 551 13
monotone i3 2 r10 589535 19582 505 12
monotone i4 2 r1 156116 1697 12
monotone i4 2 r2 156103 1694 17 1
monotone i4 2 r3 156108 1686 22
monotone i4 2 r4 155988 1749 20
monotone i4 2 r5 156061 1708 23
monotone i4 2 r6 156256 1621 16
monotone i4 2 r7 155957 1781 9
monotone i4 2 r8 156096 1707 12
monotone i4 2 r9 156156 1665 20
monotone i4 2 r10 156186 1671 6
monotone i5 2 r1 372996 8009 126
monotone i5 2 r2 372926 8017 140 3
monotone i5 2 r3 373018 7978 138 1
monotone i5 2 r4 372870 8061 128 4
monotone i5 2 r5 372964 7998 144
monotone i5 2 r6 372819 8080 132 3 1
monotone i5 2 r7 372870 8061 132 1
monotone i5 2 r8 373205 7911 119 2
monotone i5 2 r9 373016 7984 136
monotone i5 2 r10 373007 7991 129 4
monotone i6 2 r1 116995 931 5
monotone i6 2 r2 117074 878 14
monotone i6 2 r3 116922 957 12
monotone i6 2 r4 116916 969 6
monotone i6 2 r5 117005 923 7
monotone i6 2 r6 116788 1021 14
monotone i6 2 r7 116986 937 4
monotone i6 2 r8 116890 979 8
monotone i6 2 r9 116949 943 11 1
monotone i6 2 r10 116881 991 3
monotone i7 2 r1 446429 12803 328 3
monotone i7 2 r2 446725 12667 313 7 1
monotone i7 2 r3 446761 12654 310 8
monotone i7 2 r4 446733 12690 298 6
monotone i7 2 r5 446536 12774 301 11
monotone i7 2 r6 446625 12702 326 6
monotone i7 2 r7 446785 12622 326 6
monotone i7 2 r8 446255 12892 321 6 1
monotone i7 2 r9 447091 12479 322 4
monotone i7 2 r10 446797 12607 332 6
monotone i8 2 r1 114353 1482 24
monotone i8 2 r2 114583 1371 20 1
monotone i8 2 r3 114590 1362 25
monotone i8 2 r4 114630 1354 17
monotone i8 2 r5 114596 1375 13 1
monotone i8 2 r6 114569 1368 28
monotone i8 2 r7 114502 1415 19
monotone i8 2 r8 114530 1392 25
monotone i8 2 r9 114448 1433 25
monotone i8 2 r10 114576 1369 21 3
monotone i9 2 r1 350310 8841 200 2
monotone i9 2 r2 350364 8840 180 4
monotone i9 2 r3 350394 8777 212 4
monotone i9 2 r4 350742 8656 178 3
monotone i9 2 r5 350306 8855 192 2
monotone i9 2 r6 350189 8925 179 6
monotone i9 2 r7 350859 8599 177 3
monotone i9 2 r8 350411 8750 219 8
monotone i9 2 r9 350710 8664 182 4
monotone i9 2 r10 350475 8787 181 2
monotone i10 2 r1 652941 18194 360 5
monotone i10 2 r2 652860 18275 337 2
monotone i10 2 r3 652551 18433 328 7
monotone i10 2 r4 652827 18275 340 8
monotone i10 2 r5 652709 18347 334 6
monotone i10 2 r6 652904 18217 353 8
monotone i10 2 r7 652548 18449 325 2
monotone i10 2 r8 652580 18384 351 7
monotone i10 2 r9 652838 18259 344 9 1
monotone i10 2 r10 652545 18429 334 6
monotone i11 2 r1 182644 2054 12
monotone i11 2 r2 182579 2082 15
monotone i11 2 r3 182546 2103 12
monotone i11 2 r4 182403 2173 13
monotone i11 2 r5 182607 2071 13
monotone i11 2 r6 182576 2079 18
monotone i11 2 r7 182497 2117 19
monotone i11 2 r8 182463 2137 17
monotone i11 2 r9 182525 2109 15
monotone i11 2 r10 182632 2060 12
monotone i12 2 r1 145245 1647 9
monotone i12 2 r2 145301 1616 11
monotone i12 2 r3 145248 1644 10
monotone i12 2 r4 145328 1604 10
monotone i12 2 r5 145301 1619 9
monotone i12 2 r6 145485 1518 15
monotone i12 2 r7 145180 1675 12
monotone i12 2 r8 145274 1629 10 1
monotone i12 2 r9 145271 1628 13
monotone i12 2 r10 145226 1652 12
monotone i13 2 r1 139089 905
monotone i13 2 r2 138955 972
monotone i13 2 r3 138979 960
monotone i13 2 r4 138927 986
monotone i13 2 r5 138884 1006 1
monotone i13 2 r6 138973 963
monotone i13 2 r7 138951 974
monotone i13 2 r8 138995 952
monotone i13 2 r9 139059 917 2
monotone i13 2 r10 138991 951 2
monotone i14 2 r1 309689 7302 148 2
monotone i14 2 r2 310078 7142 125 2
monotone i14 2 r3 310040 7160 127 1
monotone i14 2 r4 310262 7076 109 1
monotone i14 2 r5 309849 7239 134 4
monotone i14 2 r6 309826 7245 139 3
monotone i14 2 r7 309888 7275 101 1
monotone i14 2 r8 309833 7238 144 1
monotone i14 2 r9 309789 7294 120 2
monotone i14 2 r10 310445 6976 116
monotone i15 2 r1 339938 8757 201 6
monotone i15 2 r2 339894 8785 205
monotone i15 2 r3 339808 8824 201 5
monotone i15 2 r4 339596 8952 189 3
monotone i15 2 r5 339838 8768 223 9
monotone i15 2 r6 339870 8823 185 2
monotone i15 2 r7 339815 8827 202 1
monotone i15 2 r8 339757 8874 186 4
monotone i15 2 r9 339945 8761 200 3
monotone i15 2 r10 339824 8797 215 4
monotone i16 2 r1 159995 2864 59 1
monotone i16 2 r2 160088 2813 62 1
monotone i16 2 r3 160098 2800 66 2
monotone i16 2 r4 160064 2816 68 1
monotone i16 2 r5 160021 2837 67 2
monotone i16 2 r6 160062 2837 56
monotone i16 2 r7 160122 2802 58 1
monotone i16 2 r8 160059 2814 71 1
monotone i16 2 r9 160096 2799 66 3
monotone i16 2 r10 160076 2815 66
monotone i17 2 r1 138236 1865 28
monotone i17 2 r2 138191 1886 29
monotone i17 2 r3 138322 1825 26
monotone i17 2 r4 138329 1824 23 1
monotone i17 2 r5 138244 1867 24
monotone i17 2 r6 138145 1916 23 1
monotone i17 2 r7 138390 1797 22
monotone i17 2 r8 138052 1942 38
monotone i17 2 r9 138241 1882 15
monotone i17 2 r10 138183 1893 27
monotone i18 2 r1 106329 981 12
monotone i18 2 r2 106440 916 17 1
monotone i18 2 r3 106274 1016 7
monotone i18 2 r4 106336 973 15
monotone i18 2 r5 106239 1017 18
monotone i18 2 r6 106408 928 21
monotone i18 2 r7 106312 991 11
monotone i18 2 r8 106309 985 16
monotone i18 2 r9 106258 1010 15 1
monotone i18 2 r10 106317 975 20
monotone i19 2 r1 92022 754 6
monotone i19 2 r2 91989 772 5
monotone i19 2 r3 91865 831 7
monotone i19 2 r4 91842 838 10
monotone i19 2 r5 91970 774 10
monotone i19 2 r6 91959 784 7
monotone i19 2 r7 91805 864 5
monotone i19 2 r8 92002 755 12
monotone i19 2 r9 91902 814 6
monotone i19 2 r10 91848 838 8
monotone i20 2 r1 197703 3492 49
monotone i20 2 r2 197794 3457 42
monotone i20 2 r3 197972 3350 54
monotone i20 2 r4 197839 3433 43
monotone i20 2 r5 197733 3471 53
monotone i20 2 r6 197717 3506 35
monotone i20 2 r7 197706 3488 48 2
monotone i20 2 r8 197803 3446 45 1
monotone i20 2 r9 197553 3570 47
monotone i20 2 r10 197775 3459 47
monotone i21 2 r1 226047 5929 122 1
monotone i21 2 r2 226107 5887 130 1
monotone i21 2 r3 225868 5979 147 2
monotone i21 2 r4 225844 6053 107 1
monotone i21 2 r5 226233 5819 132 2
monotone i21 2 r6 226107 5892 128
monotone i21 2 r7 226284 5806 125 1
monotone i21 2 r8 225981 5958 126
monotone i21 2 r9 226186 5840 131 4
monotone i21 2 r10 225776 6072 117 1
monotone i22 2 r1 200479 3599 97 2
monotone i22 2 r2 200392 3637 98 4
monotone i22 2 r3 200383 3685 69 4
monotone i22 2 r4 200425 3624 97 3
monotone i22 2 r5 200744 3481 87 1 1
monotone i22 2 r6 200472 3596 100 3
monotone i22 2 r7 200217 3718 105 2
monotone i22 2 r8 200539 3594 79 3
monotone i22 2 r9 200391 3649 89 5
monotone i22 2 r10 200544 3584 84 3
monotone i23 2 r1 233797 5234 78 2
monotone i23 2 r2 233673 5281 88 2
monotone i23 2 r3 233662 5278 95 1
monotone i23 2 r4 233683 5279 86 2
monotone i23 2 r5 233818 5195 97 2
monotone i23 2 r6 233630 5287 101
monotone i23 2 r7 233640 5275 99 5
monotone i23 2 r8 233779 5216 96 2
monotone i23 2 r9 233622 5300 91 3
monotone i23 2 r10 234005 5109 92 2
monotone i24 2 r1 228159 4218 59 1
monotone i24 2 r2 228094 4253 56 2
monotone i24 2 r3 228207 4211 49
monotone i24 2 r4 228381 4099 63 2
monotone i24 2 r5 228072 4250 68
monotone i24 2 r6 228276 4148 68
monotone i24 2 r7 228482 4054 62
monotone i24 2 r8 228308 4148 56 1
monotone i24 2 r9 228285 4149 63 1
monotone i24 2 r10 228452 4072 60
monotone i25 2 r1 285801 5286 62
monotone i25 2 r2 285703 5356 48
monotone i25 2 r3 285893 5255 52
monotone i25 2 r4 285781 5300 58 1
monotone i25 2 r5 286174 5111 53 1
monotone i25 2 r6 285802 5296 55
monotone i25 2 r7 285853 5276 50 1
monotone i25 2 r8 285981 5196 62
monotone i25 2 r9 285924 5232 53 3
monotone i25 2 r10 285865 5248 66
monotone i26 2 r1 59258 146
monotone i26 2 r2 59217 165 1
monotone i26 2 r3 59199 174 1
monotone i26 2 r4 59249 143 5
monotone i26 2 r5 59283 132 1
monotone i26 2 r6 59273 137 1
monotone i26 2 r7 59244 153
monotone i26 2 r8 59242 154
monotone i26 2 r9 59217 165 1
monotone i26 2 r10 59251 148 1
monotone i27 2 r1 73697 712 14
monotone i27 2 r2 73776 677 11
monotone i27 2 r3 73633 741 16
monotone i27 2 r4 73787 670 12
monotone i27 2 r5 73668 718 17 2
monotone i27 2 r6 73720 702 13
monotone i27 2 r7 73697 706 18
monotone i27 2 r8 73653 734 14
monotone i27 2 r9 73775 679 10
monotone i27 2 r10 73738 696 11
monotone i28 2 r1 72456 609 14
monotone i28 2 r2 72476 602 12
monotone i28 2 r3 72534 573 12
monotone i28 2 r4 72555 558 15
monotone i28 2 r5 72382 643 16
monotone i28 2 r6 72547 565 13
monotone i28 2 r7 72485 596 13
monotone i28 2 r8 72417 630 13
monotone i28 2 r9 72533 575 11
monotone i28 2 r10 72507 585 13
monotone i29 2 r1 220486 3990 43
monotone i29 2 r2 220663 3890 48 2
monotone i29 2 r3 220693 3879 48
monotone i29 2 r4 220804 3819 51
monotone i29 2 r5 220754 3833 57 1
monotone i29 2 r6 220629 3893 60
monotone i29 2 r7 220697 3865 56
monotone i29 2 r8 220768 3837 51
monotone i29 2 r9 220606 3924 47
monotone i29 2 r10 220814 3826 43
monotone i30 2 r1 266754 3821 28
monotone i30 2 r2 266630 3886 26
monotone i30 2 r3 266549 3922 29
monotone i30 2 r4 266541 3926 29
monotone i30 2 r5 266907 3737 33
monotone i30 2 r6 266805 3809 19
monotone i30 2 r7 266466 3956 34
monotone i30 2 r8 266658 3872 26
monotone i30 2 r9 266691 3827 45
monotone i30 2 r10 266635 3888 23
monotone i31 2 r1 140483 1102 5
monotone i31 2 r2 140343 1169 7
monotone i31 2 r3 140345 1165 9
monotone i31 2 r4 140235 1223 7
monotone i31 2 r5 140382 1148 8
monotone i31 2 r6 140238 1226 4
monotone i31 2 r7 140394 1151 2
monotone i31 2 r8 140153 1270 3
monotone i31 2 r9 140285 1204 3
monotone i31 2 r10 140267 1210 5
monotone i32 2 r1 170246 2263 28 1
monotone i32 2 r2 170255 2250 35
monotone i32 2 r3 170126 2307 40
monotone i32 2 r4 170160 2291 38 1
monotone i32 2 r5 170257 2249 35
monotone i32 2 r6 170296 2228 32 3
monotone i32 2 r7 170356 2213 26
monotone i32 2 r8 170336 2213 30 2
monotone i32 2 r9 170360 2203 30 1
monotone i32 2 r10 170318 2229 28
monotone i33 2 r1 226413 4127 52
monotone i33 2 r2 226457 4109 48 1
monotone i33 2 r3 226178 4224 63 2
monotone i33 2 r4 226434 4118 51
monotone i33 2 r5 226124 4276 49
monotone i33 2 r6 226545 4051 56 2
monotone i33 2 r7 226309 4177 52 1
monotone i33 2 r8 226211 4208 64 1
monotone i33 2 r9 226297 4200 42
monotone i33 2 r10 226464 4104 49 1
monotone i34 2 r1 196233 3897 78 3
monotone i34 2 r2 196379 3842 70
monotone i34 2 r3 196335 3847 76 4
monotone i34 2 r4 196405 3842 60 1
monotone i34 2 r5 196238 3913 67 2
monotone i34 2 r6 196409 3814 76 2
monotone i34 2 r7 196338 3864 69
monotone i34 2 r8 196173 3955 62 1
monotone i34 2 r9 196432 3811 69 3
monotone i34 2 r10 196337 3855 74 1
monotone i35 2 r1 92612 536 2
monotone i35 2 r2 92581 553 1
monotone i35 2 r3 92601 540 3
monotone i35 2 r4 92487 597 3
monotone i35 2 r5 92600 536 6
monotone i35 2 r6 92605 538 3
monotone i35 2 r7 92515 580 5
monotone i35 2 r8 92540 572 2
monotone i35 2 r9 92491 598 1
monotone i35 2 r10 92561 563 1
monotone i36 2 r1 269240 3743 14
monotone i36 2 r2 269540 3584 20
monotone i36 2 r3 269228 3743 18
monotone i36 2 r4 269309 3701 19
monotone i36 2 r5 269185 3760 21
monotone i36 2 r6 269500 3607 18
monotone i36 2 r7 269518 3592 22
monotone i36 2 r8 269299 3700 23
monotone i36 2 r9 269274 3723 16
monotone i36 2 r10 269465 3627 15 1
monotone i37 2 r1 73630 294 1
monotone i37 2 r2 73532 343 1
monotone i37 2 r3 73611 302 2
monotone i37 2 r4 73663 273 4
monotone i37 2 r5 73606 306 1
monotone i37 2 r6 73584 317 1
monotone i37 2 r7 73625 298
monotone i37 2 r8 73662 278 1
monotone i37 2 r9 73668 273 1 1
monotone i37 2 r10 73649 283 2
monotone i38 2 r1 146123 2679 35
monotone i38 2 r2 146039 2695 51 1
monotone i38 2 r3 146196 2636 38 1
monotone i38 2 r4 146316 2576 38 1
monotone i38 2 r5 145967 2734 49 1
monotone i38 2 r6 146237 2602 47 1
monotone i38 2 r7 146178 2632 48
monotone i38 2 r8 146293 2579 45
monotone i38 2 r9 146392 2528 46
monotone i38 2 r10 146202 2626 44
monotone i39 2 r1 209805 3883 64
monotone i39 2 r2 209909 3818 70 2
monotone i39 2 r3 209967 3789 70 2
monotone i39 2 r4 210062 3729 81
monotone i39 2 r5 209843 3841 78 1
monotone i39 2 r6 209722 3905 77
monotone i39 2 r7 209887 3842 64
monotone i39 2 r8 209752 3891 75 1
monotone i39 2 r9 210050 3769 53 4
monotone i39 2 r10 210067 3755 62
monotone i40 2 r1 278721 7411 147 1 1
monotone i40 2 r2 278897 7298 164 2
monotone i40 2 r3 279005 7235 166 5
monotone i40 2 r4 278499 7498 162 3
monotone i40 2 r5 278944 7265 169 3
monotone i40 2 r6 278602 7459 152 3 1
monotone i40 2 r7 279049 7189 182 5
monotone i40 2 r8 278756 7364 167 2
monotone i40 2 r9 279041 7224 168
monotone i40 2 r10 278790 7361 159 1
monotone i41 2 r1 63042 244 3
monotone i41 2 r2 63028 254 1
monotone i41 2 r3 63068 234 1
monotone i41 2 r4 63054 241 1
monotone i41 2 r5 63038 249 1
monotone i41 2 r6 63043 248
monotone i41 2 r7 63000 265 3
monotone i41 2 r8 63020 255 3
monotone i41 2 r9 63042 244 3
monotone i41 2 r10 63042 247 1
monotone i42 2 r1 155639 1359 17 1
monotone i42 2 r2 155758 1318 6
monotone i42 2 r3 155641 1378 5
monotone i42 2 r4 155583 1395 13
monotone i42 2 r5 155736 1323 10
monotone i42 2 r6 155618 1379 12
monotone i42 2 r7 155662 1363 8
monotone i42 2 r8 155574 1407 8
monotone i42 2 r9 155550 1419 8
monotone i42 2 r10 155588 1396 9 0 1
monotone i43 2 r1 68499 288 4
monotone i43 2 r2 68525 278 2
monotone i43 2 r3 68581 247 4
monotone i43 2 r4 68541 270 2
monotone i43 2 r5 68544 267 3
monotone i43 2 r6 68570 254 3
monotone i43 2 r7 68557 259 4
monotone i43 2 r8 68487 297 2
monotone i43 2 r9 68497 292 2
monotone i43 2 r10 68541 270 2
monotone i44 2 r1 223673 4991 121 6
monotone i44 2 r2 223659 4985 131 5
monotone i44 2 r3 223743 5001 95 3
monotone i44 2 r4 223527 5095 107 1
monotone i44 2 r5 223821 4925 121 2
monotone i44 2 r6 223716 4979 120 2
monotone i44 2 r7 223875 4916 105 5
monotone i44 2 r8 223785 4946 119 2
monotone i44 2 r9 223937 4864 119 5
monotone i44 2 r10 224043 4826 113 2
monotone i45 2 r1 108423 622 1
monotone i45 2 r2 108400 635
monotone i45 2 r3 108392 639
monotone i45 2 r4 108326 672
monotone i45 2 r5 108382 644
monotone i45 2 r6 108343 662 1
monotone i45 2 r7 108462 604
monotone i45 2 r8 108374 648
monotone i45 2 r9 108420 625
monotone i45 2 r10 108380 642 2
monotone i46 2 r1 199414 2693 31
monotone i46 2 r2 199453 2657 42
monotone i46 2 r3 199668 2563 33
monotone i46 2 r4 199613 2592 32
monotone i46 2 r5 199507 2645 32
monotone i46 2 r6 199416 2698 27
monotone i46 2 r7 199490 2659 27 1
monotone i46 2 r8 199605 2584 40
monotone i46 2 r9 199510 2649 27 1
monotone i46 2 r10 199574 2601 39
monotone i47 2 r1 247000 6397 137 2
monotone i47 2 r2 247411 6175 148 2
monotone i47 2 r3 247031 6376 138 4
monotone i47 2 r4 247032 6362 151 1
monotone i47 2 r5 246997 6389 142 3
monotone i47 2 r6 247104 6352 131 3
monotone i47 2 r7 247035 6356 146 7
monotone i47 2 r8 247079 6342 146 3
monotone i47 2 r9 247020 6380 139 4
monotone i47 2 r10 247001 6382 144 4
monotone i48 2 r1 234435 4365 70
monotone i48 2 r2 234448 4364 65 1
monotone i48 2 r3 234609 4297 56 1
monotone i48 2 r4 234251 4469 62
monotone i48 2 r5 234446 4376 59
monotone i48 2 r6 234531 4296 84
monotone i48 2 r7 234404 4363 79 2
monotone i48 2 r8 234553 4321 60
monotone i48 2 r9 234416 4370 73
monotone i48 2 r10 234578 4289 73
monotone i49 2 r1 71795 473 12
monotone i49 2 r2 71834 461 7
monotone i49 2 r3 71867 444 6 1
monotone i49 2 r4 71826 459 11
monotone i49 2 r5 71778 477 15
monotone i49 2 r6 71797 482 4 1
monotone i49 2 r7 71750 494 13
monotone i49 2 r8 71778 489 7
monotone i49 2 r9 71820 465 9
monotone i49 2 r10 71748 507 5
monotone i50 2 r1 160461 1859 19
monotone i50 2 r2 160578 1786 26 2
monotone i50 2 r3 160570 1806 18
monotone i50 2 r4 160564 1803 22
monotone i50 2 r5 160441 1872 17
monotone i50 2 r6 160455 1860 19 1
monotone i50 2 r7 160466 1839 28 2
monotone i50 2 r8 160588 1803 14
monotone i50 2 r9 160443 1860 23 1
monotone i50 2 r10 160518 1826 22
