monotone i1 2 r1   0.6233   0.5980 0.6470   0.6430
monotone i1 2 r2   nan   nan nan   0.6430
monotone i1 2 r3   0.6145   0.5873 0.6400   0.6430
monotone i1 2 r4   nan   nan nan   0.6430
monotone i1 2 r5   0.6342   0.6094 0.6575   0.6430
monotone i1 2 r6   0.6297   0.6046 0.6532   0.6430
monotone i1 2 r7   nan   nan nan   0.6430
monotone i1 2 r8   nan   nan nan   0.6430
monotone i1 2 r9   nan   nan nan   0.6430
monotone i1 2 r10   0.6018   0.5783 0.6240   0.6430
monotone i2 2 r1   nan   nan nan   0.3716
monotone i2 2 r2   nan   nan nan   0.3716
monotone i2 2 r3   nan   nan nan   0.3716
monotone i2 2 r4   nan   nan nan   0.3716
monotone i2 2 r5   nan   nan nan   0.3716
monotone i2 2 r6   nan   nan nan   0.3716
monotone i2 2 r7   nan   nan nan   0.3716
monotone i2 2 r8   nan   nan nan   0.3716
monotone i2 2 r9   nan   nan nan   0.3716
monotone i2 2 r10   nan   nan nan   0.3716
monotone i3 2 r1   0.6625   0.6374 0.6858   0.6773
monotone i3 2 r2   0.6717   0.6467 0.6950   0.6773
monotone i3 2 r3   0.6570   0.6316 0.6806   0.6773
monotone i3 2 r4   0.6632   0.6405 0.6844   0.6773
monotone i3 2 r5   0.6693   0.6445 0.6924   0.6773
monotone i3 2 r6   0.6665   0.6418 0.6895   0.6773
monotone i3 2 r7   nan   nan nan   0.6773
monotone i3 2 r8   nan   nan nan   0.6773
monotone i3 2 r9   0.6418   0.6224 0.6602   0.6773
monotone i3 2 r10   0.6637   0.6401 0.6858   0.6773
monotone i4 2 r1   nan   nan nan   0.3956
monotone i4 2 r2   0.3523   0.3373 0.3668   0.3956
monotone i4 2 r3   nan   nan nan   0.3956
monotone i4 2 r4   nan   nan nan   0.3956
monotone i4 2 r5   nan   nan nan   0.3956
monotone i4 2 r6   nan   nan nan   0.3956
monotone i4 2 r7   nan   nan nan   0.3956
monotone i4 2 r8   nan   nan nan   0.3956
monotone i4 2 r9   nan   nan nan   0.3956
monotone i4 2 r10   nan   nan nan   0.3956
monotone i5 2 r1   nan   nan nan   0.5796
monotone i5 2 r2   0.5391   0.5150 0.5621   0.5796
monotone i5 2 r3   0.5400   0.5054 0.5722   0.5796
monotone i5 2 r4   nan   nan nan   0.5796
monotone i5 2 r5   nan   nan nan   0.5796
monotone i5 2 r6   0.5554   0.5226 0.5860   0.5796
monotone i5 2 r7   0.5528   0.5199 0.5835   0.5796
monotone i5 2 r8   0.5557   0.5260 0.5836   0.5796
monotone i5 2 r9   nan   nan nan   0.5796
monotone i5 2 r10   nan   nan nan   0.5796
monotone i6 2 r1   nan   nan nan   0.3139
monotone i6 2 r2   nan   nan nan   0.3139
monotone i6 2 r3   nan   nan nan   0.3139
monotone i6 2 r4   nan   nan nan   0.3139
monotone i6 2 r5   nan   nan nan   0.3139
monotone i6 2 r6   nan   nan nan   0.3139
monotone i6 2 r7   nan   nan nan   0.3139
monotone i6 2 r8   nan   nan nan   0.3139
monotone i6 2 r9   0.2863   0.2685 0.3037   0.3139
monotone i6 2 r10   nan   nan nan   0.3139
monotone i7 2 r1   0.6024   0.5894 0.6150   0.6275
monotone i7 2 r2   0.6037   0.5809 0.6253   0.6275
monotone i7 2 r3   0.6041   0.5814 0.6255   0.6275
monotone i7 2 r4   0.6131   0.5851 0.6393   0.6275
monotone i7 2 r5   nan   nan nan   0.6275
monotone i7 2 r6   0.6005   0.5825 0.6177   0.6275
monotone i7 2 r7   0.5977   0.5787 0.6157   0.6275
monotone i7 2 r8   0.6095   0.5876 0.6302   0.6275
monotone i7 2 r9   0.5930   0.5781 0.6074   0.6275
monotone i7 2 r10   0.5950   0.5834 0.6063   0.6275
monotone i8 2 r1   nan   nan nan   0.3610
monotone i8 2 r2   0.3731   0.3494 0.3960   0.3610
monotone i8 2 r3   nan   nan nan   0.3610
monotone i8 2 r4   nan   nan nan   0.3610
monotone i8 2 r5   nan   nan nan   0.3610
monotone i8 2 r6   nan   nan nan   0.3610
monotone i8 2 r7   nan   nan nan   0.3610
monotone i8 2 r8   nan   nan nan   0.3610
monotone i8 2 r9   nan   nan nan   0.3610
monotone i8 2 r10   0.3739   0.3566 0.3909   0.3610
monotone i9 2 r1   0.5701   0.5531 0.5864   0.5975
monotone i9 2 r2   0.5834   0.5526 0.6120   0.5975
monotone i9 2 r3   0.5651   0.5496 0.5800   0.5975
monotone i9 2 r4   0.5716   0.5456 0.5961   0.5975
monotone i9 2 r5   0.5731   0.5507 0.5943   0.5975
monotone i9 2 r6   nan   nan nan   0.5975
monotone i9 2 r7   0.5725   0.5437 0.5994   0.5975
monotone i9 2 r8   0.5599   0.5473 0.5722   0.5975
monotone i9 2 r9   0.5744   0.5449 0.6020   0.5975
monotone i9 2 r10   0.5768   0.5476 0.6042   0.5975
monotone i10 2 r1   0.6323   0.6071 0.6559   0.6643
monotone i10 2 r2   0.6429   0.6182 0.6660   0.6643
monotone i10 2 r3   nan   nan nan   0.6643
monotone i10 2 r4   nan   nan nan   0.6643
monotone i10 2 r5   nan   nan nan   0.6643
monotone i10 2 r6   nan   nan nan   0.6643
monotone i10 2 r7   0.6470   0.6256 0.6671   0.6643
monotone i10 2 r8   nan   nan nan   0.6643
monotone i10 2 r9   nan   nan nan   0.6643
monotone i10 2 r10   nan   nan nan   0.6643
monotone i11 2 r1   nan   nan nan   0.4215
monotone i11 2 r2   nan   nan nan   0.4215
monotone i11 2 r3   nan   nan nan   0.4215
monotone i11 2 r4   nan   nan nan   0.4215
monotone i11 2 r5   nan   nan nan   0.4215
monotone i11 2 r6   nan   nan nan   0.4215
monotone i11 2 r7   nan   nan nan   0.4215
monotone i11 2 r8   nan   nan nan   0.4215
monotone i11 2 r9   nan   nan nan   0.4215
monotone i11 2 r10   nan   nan nan   0.4215
monotone i12 2 r1   nan   nan nan   0.3963
monotone i12 2 r2   nan   nan nan   0.3963
monotone i12 2 r3   nan   nan nan   0.3963
monotone i12 2 r4   nan   nan nan   0.3963
monotone i12 2 r5   nan   nan nan   0.3963
monotone i12 2 r6   nan   nan nan   0.3963
monotone i12 2 r7   nan   nan nan   0.3963
monotone i12 2 r8   nan   nan nan   0.3963
monotone i12 2 r9   nan   nan nan   0.3963
monotone i12 2 r10   nan   nan nan   0.3963
monotone i13 2 r1   nan   nan nan   0.3275
monotone i13 2 r2   nan   nan nan   0.3275
monotone i13 2 r3   nan   nan nan   0.3275
monotone i13 2 r4   nan   nan nan   0.3275
monotone i13 2 r5   nan   nan nan   0.3275
monotone i13 2 r6   nan   nan nan   0.3275
monotone i13 2 r7   nan   nan nan   0.3275
monotone i13 2 r8   nan   nan nan   0.3275
monotone i13 2 r9   nan   nan nan   0.3275
monotone i13 2 r10   nan   nan nan   0.3275
monotone i14 2 r1   0.5601   0.5315 0.5869   0.5787
monotone i14 2 r2   0.5650   0.5369 0.5914   0.5787
monotone i14 2 r3   0.5678   0.5372 0.5963   0.5787
monotone i14 2 r4   0.5803   0.5490 0.6095   0.5787
monotone i14 2 r5   nan   nan nan   0.5787
monotone i14 2 r6   0.5602   0.5296 0.5888   0.5787
monotone i14 2 r7   nan   nan nan   0.5787
monotone i14 2 r8   0.5549   0.5275 0.5807   0.5787
monotone i14 2 r9   0.5891   0.5561 0.6196   0.5787
monotone i14 2 r10   nan   nan nan   0.5787
monotone i15 2 r1   0.5754   0.5523 0.5973   0.5930
monotone i15 2 r2   nan   nan nan   0.5930
monotone i15 2 r3   0.5807   0.5588 0.6015   0.5930
monotone i15 2 r4   0.5929   0.5621 0.6215   0.5930
monotone i15 2 r5   0.5689   0.5554 0.5819   0.5930
monotone i15 2 r6   0.5876   0.5632 0.6107   0.5930
monotone i15 2 r7   0.5765   0.5577 0.5945   0.5930
monotone i15 2 r8   0.5914   0.5622 0.6187   0.5930
monotone i15 2 r9   0.5780   0.5538 0.6008   0.5930
monotone i15 2 r10   0.5730   0.5553 0.5900   0.5930
monotone i16 2 r1   nan   nan nan   0.4488
monotone i16 2 r2   nan   nan nan   0.4488
monotone i16 2 r3   0.4615   0.4138 0.5054   0.4488
monotone i16 2 r4   nan   nan nan   0.4488
monotone i16 2 r5   0.4582   0.4123 0.5005   0.4488
monotone i16 2 r6   nan   nan nan   0.4488
monotone i16 2 r7   0.4636   0.4289 0.4962   0.4488
monotone i16 2 r8   0.4408   0.3910 0.4866   0.4488
monotone i16 2 r9   0.4612   0.4192 0.5001   0.4488
monotone i16 2 r10   nan   nan nan   0.4488
monotone i17 2 r1   nan   nan nan   0.4103
monotone i17 2 r2   nan   nan nan   0.4103
monotone i17 2 r3   nan   nan nan   0.4103
monotone i17 2 r4   0.3957   0.3791 0.4118   0.4103
monotone i17 2 r5   nan   nan nan   0.4103
monotone i17 2 r6   nan   nan nan   0.4103
monotone i17 2 r7   nan   nan nan   0.4103
monotone i17 2 r8   nan   nan nan   0.4103
monotone i17 2 r9   nan   nan nan   0.4103
monotone i17 2 r10   nan   nan nan   0.4103
monotone i18 2 r1   nan   nan nan   0.3088
monotone i18 2 r2   0.2877   0.2514 0.3223   0.3088
monotone i18 2 r3   nan   nan nan   0.3088
monotone i18 2 r4   nan   nan nan   0.3088
monotone i18 2 r5   nan   nan nan   0.3088
monotone i18 2 r6   nan   nan nan   0.3088
monotone i18 2 r7   nan   nan nan   0.3088
monotone i18 2 r8   nan   nan nan   0.3088
monotone i18 2 r9   0.3196   0.2911 0.3471   0.3088
monotone i18 2 r10   nan   nan nan   0.3088
monotone i19 2 r1   nan   nan nan   0.2865
monotone i19 2 r2   nan   nan nan   0.2865
monotone i19 2 r3   nan   nan nan   0.2865
monotone i19 2 r4   nan   nan nan   0.2865
monotone i19 2 r5   nan   nan nan   0.2865
monotone i19 2 r6   nan   nan nan   0.2865
monotone i19 2 r7   nan   nan nan   0.2865
monotone i19 2 r8   nan   nan nan   0.2865
monotone i19 2 r9   nan   nan nan   0.2865
monotone i19 2 r10   nan   nan nan   0.2865
monotone i20 2 r1   nan   nan nan   0.4986
monotone i20 2 r2   nan   nan nan   0.4986
monotone i20 2 r3   nan   nan nan   0.4986
monotone i20 2 r4   nan   nan nan   0.4986
monotone i20 2 r5   nan   nan nan   0.4986
monotone i20 2 r6   nan   nan nan   0.4986
monotone i20 2 r7   nan   nan nan   0.4986
monotone i20 2 r8   nan   nan nan   0.4986
monotone i20 2 r9   nan   nan nan   0.4986
monotone i20 2 r10   nan   nan nan   0.4986
monotone i21 2 r1   0.5955   0.5625 0.6261   0.5713
monotone i21 2 r2   0.5837   0.5556 0.6101   0.5713
monotone i21 2 r3   0.5803   0.5592 0.6004   0.5713
monotone i21 2 r4   nan   nan nan   0.5713
monotone i21 2 r5   0.5759   0.5471 0.6029   0.5713
monotone i21 2 r6   nan   nan nan   0.5713
monotone i21 2 r7   0.5816   0.5513 0.6099   0.5713
monotone i21 2 r8   nan   nan nan   0.5713
monotone i21 2 r9   0.5784   0.5538 0.6016   0.5713
monotone i21 2 r10   0.6136   0.5797 0.6447   0.5713
monotone i22 2 r1   0.4445   0.3859 0.4975   0.4681
monotone i22 2 r2   0.4563   0.4131 0.4963   0.4681
monotone i22 2 r3   0.4817   0.4656 0.4973   0.4681
monotone i22 2 r4   0.4515   0.4038 0.4955   0.4681
monotone i22 2 r5   nan   nan nan   0.4681
monotone i22 2 r6   0.4411   0.3834 0.4934   0.4681
monotone i22 2 r7   0.4475   0.3899 0.4997   0.4681
monotone i22 2 r8   0.4709   0.4343 0.5052   0.4681
monotone i22 2 r9   0.4720   0.4334 0.5080   0.4681
monotone i22 2 r10   0.4645   0.4286 0.4980   0.4681
monotone i23 2 r1   nan   nan nan   0.5558
monotone i23 2 r2   nan   nan nan   0.5558
monotone i23 2 r3   0.5600   0.5250 0.5924   0.5558
monotone i23 2 r4   nan   nan nan   0.5558
monotone i23 2 r5   0.5431   0.5129 0.5714   0.5558
monotone i23 2 r6   nan   nan nan   0.5558
monotone i23 2 r7   nan   nan nan   0.5558
monotone i23 2 r8   0.5459   0.5186 0.5716   0.5558
monotone i23 2 r9   nan   nan nan   0.5558
monotone i23 2 r10   0.5434   0.5119 0.5728   0.5558
monotone i24 2 r1   nan   nan nan   0.5130
monotone i24 2 r2   nan   nan nan   0.5130
monotone i24 2 r3   nan   nan nan   0.5130
monotone i24 2 r4   nan   nan nan   0.5130
monotone i24 2 r5   nan   nan nan   0.5130
monotone i24 2 r6   nan   nan nan   0.5130
monotone i24 2 r7   nan   nan nan   0.5130
monotone i24 2 r8   nan   nan nan   0.5130
monotone i24 2 r9   nan   nan nan   0.5130
monotone i24 2 r10   nan   nan nan   0.5130
monotone i25 2 r1   nan   nan nan   0.5465
monotone i25 2 r2   nan   nan nan   0.5465
monotone i25 2 r3   nan   nan nan   0.5465
monotone i25 2 r4   nan   nan nan   0.5465
monotone i25 2 r5   nan   nan nan   0.5465
monotone i25 2 r6   nan   nan nan   0.5465
monotone i25 2 r7   nan   nan nan   0.5465
monotone i25 2 r8   nan   nan nan   0.5465
monotone i25 2 r9   nan   nan nan   0.5465
monotone i25 2 r10   nan   nan nan   0.5465
monotone i26 2 r1   nan   nan nan   0.0929
monotone i26 2 r2   nan   nan nan   0.0929
monotone i26 2 r3   nan   nan nan   0.0929
monotone i26 2 r4   nan   nan nan   0.0929
monotone i26 2 r5   nan   nan nan   0.0929
monotone i26 2 r6   nan   nan nan   0.0929
monotone i26 2 r7   nan   nan nan   0.0929
monotone i26 2 r8   nan   nan nan   0.0929
monotone i26 2 r9   nan   nan nan   0.0929
monotone i26 2 r10   nan   nan nan   0.0929
monotone i27 2 r1   nan   nan nan   0.2359
monotone i27 2 r2   nan   nan nan   0.2359
monotone i27 2 r3   nan   nan nan   0.2359
monotone i27 2 r4   nan   nan nan   0.2359
monotone i27 2 r5   0.3151   0.2740 0.3539   0.2359
monotone i27 2 r6   nan   nan nan   0.2359
monotone i27 2 r7   nan   nan nan   0.2359
monotone i27 2 r8   nan   nan nan   0.2359
monotone i27 2 r9   nan   nan nan   0.2359
monotone i27 2 r10   nan   nan nan   0.2359
monotone i28 2 r1   nan   nan nan   0.2169
monotone i28 2 r2   nan   nan nan   0.2169
monotone i28 2 r3   nan   nan nan   0.2169
monotone i28 2 r4   nan   nan nan   0.2169
monotone i28 2 r5   nan   nan nan   0.2169
monotone i28 2 r6   nan   nan nan   0.2169
monotone i28 2 r7   nan   nan nan   0.2169
monotone i28 2 r8   nan   nan nan   0.2169
monotone i28 2 r9   nan   nan nan   0.2169
monotone i28 2 r10   nan   nan nan   0.2169
monotone i29 2 r1   nan   nan nan   0.5072
monotone i29 2 r2   nan   nan nan   0.5072
monotone i29 2 r3   nan   nan nan   0.5072
monotone i29 2 r4   nan   nan nan   0.5072
monotone i29 2 r5   nan   nan nan   0.5072
monotone i29 2 r6   nan   nan nan   0.5072
monotone i29 2 r7   nan   nan nan   0.5072
monotone i29 2 r8   nan   nan nan   0.5072
monotone i29 2 r9   nan   nan nan   0.5072
monotone i29 2 r10   nan   nan nan   0.5072
monotone i30 2 r1   nan   nan nan   0.4989
monotone i30 2 r2   nan   nan nan   0.4989
monotone i30 2 r3   nan   nan nan   0.4989
monotone i30 2 r4   nan   nan nan   0.4989
monotone i30 2 r5   nan   nan nan   0.4989
monotone i30 2 r6   nan   nan nan   0.4989
monotone i30 2 r7   nan   nan nan   0.4989
monotone i30 2 r8   nan   nan nan   0.4989
monotone i30 2 r9   nan   nan nan   0.4989
monotone i30 2 r10   nan   nan nan   0.4989
monotone i31 2 r1   nan   nan nan   0.3522
monotone i31 2 r2   nan   nan nan   0.3522
monotone i31 2 r3   nan   nan nan   0.3522
monotone i31 2 r4   nan   nan nan   0.3522
monotone i31 2 r5   nan   nan nan   0.3522
monotone i31 2 r6   nan   nan nan   0.3522
monotone i31 2 r7   nan   nan nan   0.3522
monotone i31 2 r8   nan   nan nan   0.3522
monotone i31 2 r9   nan   nan nan   0.3522
monotone i31 2 r10   nan   nan nan   0.3522
monotone i32 2 r1   0.4014   0.3864 0.4161   0.4211
monotone i32 2 r2   nan   nan nan   0.4211
monotone i32 2 r3   nan   nan nan   0.4211
monotone i32 2 r4   0.3956   0.3634 0.4261   0.4211
monotone i32 2 r5   nan   nan nan   0.4211
monotone i32 2 r6   0.3960   0.3772 0.4142   0.4211
monotone i32 2 r7   nan   nan nan   0.4211
monotone i32 2 r8   0.3932   0.3705 0.4150   0.4211
monotone i32 2 r9   0.3919   0.3703 0.4128   0.4211
monotone i32 2 r10   nan   nan nan   0.4211
monotone i33 2 r1   nan   nan nan   0.5242
monotone i33 2 r2   nan   nan nan   0.5242
monotone i33 2 r3   nan   nan nan   0.5242
monotone i33 2 r4   nan   nan nan   0.5242
monotone i33 2 r5   nan   nan nan   0.5242
monotone i33 2 r6   nan   nan nan   0.5242
monotone i33 2 r7   nan   nan nan   0.5242
monotone i33 2 r8   nan   nan nan   0.5242
monotone i33 2 r9   nan   nan nan   0.5242
monotone i33 2 r10   nan   nan nan   0.5242
monotone i34 2 r1   0.5019   0.4831 0.5200   0.5028
monotone i34 2 r2   nan   nan nan   0.5028
monotone i34 2 r3   0.4971   0.4828 0.5109   0.5028
monotone i34 2 r4   nan   nan nan   0.5028
monotone i34 2 r5   nan   nan nan   0.5028
monotone i34 2 r6   0.4946   0.4714 0.5167   0.5028
monotone i34 2 r7   nan   nan nan   0.5028
monotone i34 2 r8   nan   nan nan   0.5028
monotone i34 2 r9   0.4966   0.4740 0.5183   0.5028
monotone i34 2 r10   0.5029   0.4792 0.5255   0.5028
monotone i35 2 r1   nan   nan nan   0.2539
monotone i35 2 r2   nan   nan nan   0.2539
monotone i35 2 r3   nan   nan nan   0.2539
monotone i35 2 r4   nan   nan nan   0.2539
monotone i35 2 r5   nan   nan nan   0.2539
monotone i35 2 r6   nan   nan nan   0.2539
monotone i35 2 r7   nan   nan nan   0.2539
monotone i35 2 r8   nan   nan nan   0.2539
monotone i35 2 r9   nan   nan nan   0.2539
monotone i35 2 r10   nan   nan nan   0.2539
monotone i36 2 r1   nan   nan nan   0.4943
monotone i36 2 r2   nan   nan nan   0.4943
monotone i36 2 r3   nan   nan nan   0.4943
monotone i36 2 r4   nan   nan nan   0.4943
monotone i36 2 r5   nan   nan nan   0.4943
monotone i36 2 r6   nan   nan nan   0.4943
monotone i36 2 r7   nan   nan nan   0.4943
monotone i36 2 r8   nan   nan nan   0.4943
monotone i36 2 r9   nan   nan nan   0.4943
monotone i36 2 r10   nan   nan nan   0.4943
monotone i37 2 r1   nan   nan nan   0.1715
monotone i37 2 r2   nan   nan nan   0.1715
monotone i37 2 r3   nan   nan nan   0.1715
monotone i37 2 r4   nan   nan nan   0.1715
monotone i37 2 r5   nan   nan nan   0.1715
monotone i37 2 r6   nan   nan nan   0.1715
monotone i37 2 r7   nan   nan nan   0.1715
monotone i37 2 r8   nan   nan nan   0.1715
monotone i37 2 r9   0.1577   0.1420 0.1730   0.1715
monotone i37 2 r10   nan   nan nan   0.1715
monotone i38 2 r1   nan   nan nan   0.4563
monotone i38 2 r2   nan   nan nan   0.4563
monotone i38 2 r3   nan   nan nan   0.4563
monotone i38 2 r4   nan   nan nan   0.4563
monotone i38 2 r5   nan   nan nan   0.4563
monotone i38 2 r6   0.4697   0.4516 0.4872   0.4563
monotone i38 2 r7   nan   nan nan   0.4563
monotone i38 2 r8   nan   nan nan   0.4563
monotone i38 2 r9   nan   nan nan   0.4563
monotone i38 2 r10   nan   nan nan   0.4563
monotone i39 2 r1   nan   nan nan   0.4911
monotone i39 2 r2   0.4790   0.4605 0.4969   0.4911
monotone i39 2 r3   0.4754   0.4516 0.4982   0.4911
monotone i39 2 r4   nan   nan nan   0.4911
monotone i39 2 r5   0.4786   0.4433 0.5117   0.4911
monotone i39 2 r6   nan   nan nan   0.4911
monotone i39 2 r7   nan   nan nan   0.4911
monotone i39 2 r8   0.4861   0.4608 0.5103   0.4911
monotone i39 2 r9   nan   nan nan   0.4911
monotone i39 2 r10   nan   nan nan   0.4911
monotone i40 2 r1   0.6067   0.5722 0.6384   0.5933
monotone i40 2 r2   0.5813   0.5593 0.6021   0.5933
monotone i40 2 r3   0.5784   0.5532 0.6023   0.5933
monotone i40 2 r4   0.5978   0.5658 0.6275   0.5933
monotone i40 2 r5   0.5786   0.5584 0.5979   0.5933
monotone i40 2 r6   0.6072   0.5777 0.6347   0.5933
monotone i40 2 r7   0.5690   0.5557 0.5820   0.5933
monotone i40 2 r8   0.5857   0.5631 0.6070   0.5933
monotone i40 2 r9   nan   nan nan   0.5933
monotone i40 2 r10   0.5927   0.5618 0.6213   0.5933
monotone i41 2 r1   nan   nan nan   0.1322
monotone i41 2 r2   nan   nan nan   0.1322
monotone i41 2 r3   nan   nan nan   0.1322
monotone i41 2 r4   nan   nan nan   0.1322
monotone i41 2 r5   nan   nan nan   0.1322
monotone i41 2 r6   nan   nan nan   0.1322
monotone i41 2 r7   nan   nan nan   0.1322
monotone i41 2 r8   nan   nan nan   0.1322
monotone i41 2 r9   nan   nan nan   0.1322
monotone i41 2 r10   nan   nan nan   0.1322
monotone i42 2 r1   0.3005   0.2802 0.3203   0.3627
monotone i42 2 r2   nan   nan nan   0.3627
monotone i42 2 r3   nan   nan nan   0.3627
monotone i42 2 r4   nan   nan nan   0.3627
monotone i42 2 r5   nan   nan nan   0.3627
monotone i42 2 r6   nan   nan nan   0.3627
monotone i42 2 r7   nan   nan nan   0.3627
monotone i42 2 r8   nan   nan nan   0.3627
monotone i42 2 r9   nan   nan nan   0.3627
monotone i42 2 r10   nan   nan nan   0.3627
monotone i43 2 r1   nan   nan nan   0.1521
monotone i43 2 r2   nan   nan nan   0.1521
monotone i43 2 r3   nan   nan nan   0.1521
monotone i43 2 r4   nan   nan nan   0.1521
monotone i43 2 r5   nan   nan nan   0.1521
monotone i43 2 r6   nan   nan nan   0.1521
monotone i43 2 r7   nan   nan nan   0.1521
monotone i43 2 r8   nan   nan nan   0.1521
monotone i43 2 r9   nan   nan nan   0.1521
monotone i43 2 r10   nan   nan nan   0.1521
monotone i44 2 r1   0.5301   0.5106 0.5488   0.5335
monotone i44 2 r2   0.5244   0.4903 0.5562   0.5335
monotone i44 2 r3   nan   nan nan   0.5335
monotone i44 2 r4   0.5434   0.5188 0.5667   0.5335
monotone i44 2 r5   0.5265   0.4995 0.5521   0.5335
monotone i44 2 r6   0.5319   0.5100 0.5529   0.5335
monotone i44 2 r7   0.5277   0.5153 0.5397   0.5335
monotone i44 2 r8   0.5284   0.5014 0.5540   0.5335
monotone i44 2 r9   0.5219   0.5039 0.5392   0.5335
monotone i44 2 r10   0.5225   0.4975 0.5463   0.5335
monotone i45 2 r1   nan   nan nan   0.2794
monotone i45 2 r2   nan   nan nan   0.2794
monotone i45 2 r3   nan   nan nan   0.2794
monotone i45 2 r4   nan   nan nan   0.2794
monotone i45 2 r5   nan   nan nan   0.2794
monotone i45 2 r6   nan   nan nan   0.2794
monotone i45 2 r7   nan   nan nan   0.2794
monotone i45 2 r8   nan   nan nan   0.2794
monotone i45 2 r9   nan   nan nan   0.2794
monotone i45 2 r10   nan   nan nan   0.2794
monotone i46 2 r1   nan   nan nan   0.4475
monotone i46 2 r2   nan   nan nan   0.4475
monotone i46 2 r3   nan   nan nan   0.4475
monotone i46 2 r4   nan   nan nan   0.4475
monotone i46 2 r5   nan   nan nan   0.4475
monotone i46 2 r6   nan   nan nan   0.4475
monotone i46 2 r7   nan   nan nan   0.4475
monotone i46 2 r8   nan   nan nan   0.4475
monotone i46 2 r9   nan   nan nan   0.4475
monotone i46 2 r10   nan   nan nan   0.4475
monotone i47 2 r1   0.5884   0.5562 0.6182   0.5757
monotone i47 2 r2   0.5641   0.5472 0.5803   0.5757
monotone i47 2 r3   0.5816   0.5511 0.6100   0.5757
monotone i47 2 r4   0.5730   0.5567 0.5887   0.5757
monotone i47 2 r5   0.5802   0.5528 0.6060   0.5757
monotone i47 2 r6   0.5893   0.5589 0.6176   0.5757
monotone i47 2 r7   nan   nan nan   0.5757
monotone i47 2 r8   0.5740   0.5467 0.5995   0.5757
monotone i47 2 r9   0.5827   0.5558 0.6080   0.5757
monotone i47 2 r10   0.5766   0.5543 0.5979   0.5757
monotone i48 2 r1   nan   nan nan   0.5148
monotone i48 2 r2   nan   nan nan   0.5148
monotone i48 2 r3   nan   nan nan   0.5148
monotone i48 2 r4   nan   nan nan   0.5148
monotone i48 2 r5   nan   nan nan   0.5148
monotone i48 2 r6   nan   nan nan   0.5148
monotone i48 2 r7   0.4843   0.4577 0.5096   0.5148
monotone i48 2 r8   nan   nan nan   0.5148
monotone i48 2 r9   nan   nan nan   0.5148
monotone i48 2 r10   nan   nan nan   0.5148
monotone i49 2 r1   nan   nan nan   0.1964
monotone i49 2 r2   nan   nan nan   0.1964
monotone i49 2 r3   0.2310   0.2084 0.2529   0.1964
monotone i49 2 r4   nan   nan nan   0.1964
monotone i49 2 r5   nan   nan nan   0.1964
monotone i49 2 r6   0.2509   0.2317 0.2697   0.1964
monotone i49 2 r7   nan   nan nan   0.1964
monotone i49 2 r8   nan   nan nan   0.1964
monotone i49 2 r9   nan   nan nan   0.1964
monotone i49 2 r10   nan   nan nan   0.1964
monotone i50 2 r1   nan   nan nan   0.3953
monotone i50 2 r2   0.3560   0.3333 0.3780   0.3953
monotone i50 2 r3   nan   nan nan   0.3953
monotone i50 2 r4   nan   nan nan   0.3953
monotone i50 2 r5   nan   nan nan   0.3953
monotone i50 2 r6   nan   nan nan   0.3953
monotone i50 2 r7   0.3607   0.3375 0.3831   0.3953
monotone i50 2 r8   nan   nan nan   0.3953
monotone i50 2 r9   0.3662   0.3525 0.3795   0.3953
monotone i50 2 r10   nan   nan nan   0.3953
