monotone i1 5 r1   nan   nan nan   0.6430
monotone i1 5 r2   nan   nan nan   0.6430
monotone i1 5 r3   nan   nan nan   0.6430
monotone i1 5 r4   nan   nan nan   0.6430
monotone i1 5 r5   nan   nan nan   0.6430
monotone i1 5 r6   nan   nan nan   0.6430
monotone i1 5 r7   nan   nan nan   0.6430
monotone i1 5 r8   0.6315   0.6113 0.6506   0.6430
monotone i1 5 r9   0.6284   0.6170 0.6394   0.6430
monotone i1 5 r10   0.6339   0.6275 0.6401   0.6430
monotone i2 5 r1   nan   nan nan   0.3716
monotone i2 5 r2   nan   nan nan   0.3716
monotone i2 5 r3   nan   nan nan   0.3716
monotone i2 5 r4   nan   nan nan   0.3716
monotone i2 5 r5   nan   nan nan   0.3716
monotone i2 5 r6   nan   nan nan   0.3716
monotone i2 5 r7   nan   nan nan   0.3716
monotone i2 5 r8   nan   nan nan   0.3716
monotone i2 5 r9   nan   nan nan   0.3716
monotone i2 5 r10   nan   nan nan   0.3716
monotone i3 5 r1   nan   nan nan   0.6773
monotone i3 5 r2   0.6664   0.6351 0.6951   0.6773
monotone i3 5 r3   0.6698   0.6634 0.6760   0.6773
monotone i3 5 r4   nan   nan nan   0.6773
monotone i3 5 r5   nan   nan nan   0.6773
monotone i3 5 r6   nan   nan nan   0.6773
monotone i3 5 r7   nan   nan nan   0.6773
monotone i3 5 r8   nan   nan nan   0.6773
monotone i3 5 r9   nan   nan nan   0.6773
monotone i3 5 r10   0.6686   0.6551 0.6815   0.6773
monotone i4 5 r1   nan   nan nan   0.3956
monotone i4 5 r2   0.3708   0.3568 0.3845   0.3956
monotone i4 5 r3   nan   nan nan   0.3956
monotone i4 5 r4   nan   nan nan   0.3956
monotone i4 5 r5   nan   nan nan   0.3956
monotone i4 5 r6   0.3663   0.3542 0.3781   0.3956
monotone i4 5 r7   0.3810   0.3688 0.3930   0.3956
monotone i4 5 r8   nan   nan nan   0.3956
monotone i4 5 r9   nan   nan nan   0.3956
monotone i4 5 r10   nan   nan nan   0.3956
monotone i5 5 r1   0.5625   0.5537 0.5711   0.5796
monotone i5 5 r2   nan   nan nan   0.5796
monotone i5 5 r3   0.5584   0.5490 0.5676   0.5796
monotone i5 5 r4   0.5541   0.5438 0.5642   0.5796
monotone i5 5 r5   nan   nan nan   0.5796
monotone i5 5 r6   nan   nan nan   0.5796
monotone i5 5 r7   nan   nan nan   0.5796
monotone i5 5 r8   nan   nan nan   0.5796
monotone i5 5 r9   nan   nan nan   0.5796
monotone i5 5 r10   nan   nan nan   0.5796
monotone i6 5 r1   0.2906   0.2829 0.2983   0.3139
monotone i6 5 r2   0.2933   0.2832 0.3034   0.3139
monotone i6 5 r3   0.2814   0.2668 0.2957   0.3139
monotone i6 5 r4   0.2905   0.2833 0.2977   0.3139
monotone i6 5 r5   0.2833   0.2741 0.2923   0.3139
monotone i6 5 r6   0.2896   0.2827 0.2965   0.3139
monotone i6 5 r7   0.2869   0.2749 0.2988   0.3139
monotone i6 5 r8   0.2853   0.2710 0.2994   0.3139
monotone i6 5 r9   0.2920   0.2853 0.2987   0.3139
monotone i6 5 r10   0.2884   0.2796 0.2971   0.3139
monotone i7 5 r1   0.6161   0.6062 0.6257   0.6275
monotone i7 5 r2   0.6136   0.6047 0.6223   0.6275
monotone i7 5 r3   0.6145   0.6048 0.6240   0.6275
monotone i7 5 r4   0.6130   0.6031 0.6227   0.6275
monotone i7 5 r5   0.6131   0.6043 0.6217   0.6275
monotone i7 5 r6   0.6166   0.6069 0.6261   0.6275
monotone i7 5 r7   0.6164   0.6067 0.6258   0.6275
monotone i7 5 r8   0.6159   0.6072 0.6243   0.6275
monotone i7 5 r9   0.6203   0.6111 0.6293   0.6275
monotone i7 5 r10   0.6115   0.6019 0.6209   0.6275
monotone i8 5 r1   0.3595   0.3422 0.3763   0.3610
monotone i8 5 r2   0.3638   0.3475 0.3797   0.3610
monotone i8 5 r3   0.3669   0.3486 0.3846   0.3610
monotone i8 5 r4   0.3582   0.3411 0.3748   0.3610
monotone i8 5 r5   nan   nan nan   0.3610
monotone i8 5 r6   0.3716   0.3584 0.3845   0.3610
monotone i8 5 r7   0.3611   0.3435 0.3782   0.3610
monotone i8 5 r8   0.3690   0.3512 0.3862   0.3610
monotone i8 5 r9   0.3658   0.3497 0.3814   0.3610
monotone i8 5 r10   0.3479   0.3268 0.3683   0.3610
monotone i9 5 r1   nan   nan nan   0.5975
monotone i9 5 r2   0.5826   0.5728 0.5922   0.5975
monotone i9 5 r3   0.5939   0.5838 0.6037   0.5975
monotone i9 5 r4   nan   nan nan   0.5975
monotone i9 5 r5   0.5876   0.5780 0.5969   0.5975
monotone i9 5 r6   0.5754   0.5665 0.5842   0.5975
monotone i9 5 r7   0.5912   0.5805 0.6016   0.5975
monotone i9 5 r8   0.5830   0.5717 0.5940   0.5975
monotone i9 5 r9   nan   nan nan   0.5975
monotone i9 5 r10   nan   nan nan   0.5975
monotone i10 5 r1   nan   nan nan   0.6643
monotone i10 5 r2   nan   nan nan   0.6643
monotone i10 5 r3   nan   nan nan   0.6643
monotone i10 5 r4   nan   nan nan   0.6643
monotone i10 5 r5   nan   nan nan   0.6643
monotone i10 5 r6   nan   nan nan   0.6643
monotone i10 5 r7   nan   nan nan   0.6643
monotone i10 5 r8   nan   nan nan   0.6643
monotone i10 5 r9   nan   nan nan   0.6643
monotone i10 5 r10   nan   nan nan   0.6643
monotone i11 5 r1   0.3849   0.3719 0.3975   0.4215
monotone i11 5 r2   nan   nan nan   0.4215
monotone i11 5 r3   nan   nan nan   0.4215
monotone i11 5 r4   nan   nan nan   0.4215
monotone i11 5 r5   nan   nan nan   0.4215
monotone i11 5 r6   0.3903   0.3798 0.4006   0.4215
monotone i11 5 r7   nan   nan nan   0.4215
monotone i11 5 r8   0.3931   0.3817 0.4043   0.4215
monotone i11 5 r9   0.3936   0.3827 0.4043   0.4215
monotone i11 5 r10   nan   nan nan   0.4215
monotone i12 5 r1   0.3904   0.3795 0.4011   0.3963
monotone i12 5 r2   nan   nan nan   0.3963
monotone i12 5 r3   nan   nan nan   0.3963
monotone i12 5 r4   0.3911   0.3786 0.4033   0.3963
monotone i12 5 r5   nan   nan nan   0.3963
monotone i12 5 r6   nan   nan nan   0.3963
monotone i12 5 r7   0.3882   0.3757 0.4005   0.3963
monotone i12 5 r8   nan   nan nan   0.3963
monotone i12 5 r9   nan   nan nan   0.3963
monotone i12 5 r10   0.3835   0.3694 0.3973   0.3963
monotone i13 5 r1   nan   nan nan   0.3275
monotone i13 5 r2   nan   nan nan   0.3275
monotone i13 5 r3   nan   nan nan   0.3275
monotone i13 5 r4   nan   nan nan   0.3275
monotone i13 5 r5   nan   nan nan   0.3275
monotone i13 5 r6   nan   nan nan   0.3275
monotone i13 5 r7   nan   nan nan   0.3275
monotone i13 5 r8   nan   nan nan   0.3275
monotone i13 5 r9   nan   nan nan   0.3275
monotone i13 5 r10   nan   nan nan   0.3275
monotone i14 5 r1   nan   nan nan   0.5787
monotone i14 5 r2   0.5779   0.5686 0.5871   0.5787
monotone i14 5 r3   nan   nan nan   0.5787
monotone i14 5 r4   0.5646   0.5534 0.5755   0.5787
monotone i14 5 r5   0.5760   0.5663 0.5854   0.5787
monotone i14 5 r6   0.5673   0.5545 0.5797   0.5787
monotone i14 5 r7   0.5796   0.5681 0.5908   0.5787
monotone i14 5 r8   0.5729   0.5620 0.5836   0.5787
monotone i14 5 r9   nan   nan nan   0.5787
monotone i14 5 r10   0.5660   0.5535 0.5782   0.5787
monotone i15 5 r1   0.5905   0.5795 0.6011   0.5930
monotone i15 5 r2   0.5865   0.5746 0.5980   0.5930
monotone i15 5 r3   0.5849   0.5750 0.5947   0.5930
monotone i15 5 r4   0.5906   0.5789 0.6021   0.5930
monotone i15 5 r5   0.5807   0.5734 0.5879   0.5930
monotone i15 5 r6   0.5854   0.5742 0.5962   0.5930
monotone i15 5 r7   0.5881   0.5738 0.6020   0.5930
monotone i15 5 r8   0.5879   0.5758 0.5997   0.5930
monotone i15 5 r9   0.5754   0.5696 0.5811   0.5930
monotone i15 5 r10   0.5738   0.5649 0.5824   0.5930
monotone i16 5 r1   nan   nan nan   0.4488
monotone i16 5 r2   nan   nan nan   0.4488
monotone i16 5 r3   0.4580   0.4442 0.4714   0.4488
monotone i16 5 r4   0.4576   0.4426 0.4723   0.4488
monotone i16 5 r5   0.4554   0.4373 0.4729   0.4488
monotone i16 5 r6   nan   nan nan   0.4488
monotone i16 5 r7   0.4406   0.4206 0.4599   0.4488
monotone i16 5 r8   nan   nan nan   0.4488
monotone i16 5 r9   nan   nan nan   0.4488
monotone i16 5 r10   0.4520   0.4341 0.4694   0.4488
monotone i17 5 r1   0.4104   0.4007 0.4200   0.4103
monotone i17 5 r2   0.4139   0.4058 0.4219   0.4103
monotone i17 5 r3   0.4053   0.3960 0.4145   0.4103
monotone i17 5 r4   nan   nan nan   0.4103
monotone i17 5 r5   0.4083   0.4004 0.4162   0.4103
monotone i17 5 r6   0.4060   0.3986 0.4133   0.4103
monotone i17 5 r7   0.4067   0.3995 0.4139   0.4103
monotone i17 5 r8   0.4025   0.3953 0.4097   0.4103
monotone i17 5 r9   0.4080   0.3991 0.4167   0.4103
monotone i17 5 r10   nan   nan nan   0.4103
monotone i18 5 r1   0.2910   0.2708 0.3106   0.3088
monotone i18 5 r2   0.2953   0.2747 0.3154   0.3088
monotone i18 5 r3   0.2981   0.2803 0.3155   0.3088
monotone i18 5 r4   0.3003   0.2844 0.3159   0.3088
monotone i18 5 r5   0.2985   0.2818 0.3149   0.3088
monotone i18 5 r6   0.2802   0.2572 0.3026   0.3088
monotone i18 5 r7   0.3059   0.2896 0.3218   0.3088
monotone i18 5 r8   0.2931   0.2755 0.3103   0.3088
monotone i18 5 r9   0.2963   0.2785 0.3137   0.3088
monotone i18 5 r10   0.3109   0.3010 0.3207   0.3088
monotone i19 5 r1   nan   nan nan   0.2865
monotone i19 5 r2   0.3001   0.2873 0.3127   0.2865
monotone i19 5 r3   nan   nan nan   0.2865
monotone i19 5 r4   0.3113   0.3019 0.3207   0.2865
monotone i19 5 r5   0.3037   0.2921 0.3150   0.2865
monotone i19 5 r6   0.2951   0.2816 0.3083   0.2865
monotone i19 5 r7   0.3039   0.2936 0.3140   0.2865
monotone i19 5 r8   nan   nan nan   0.2865
monotone i19 5 r9   0.2877   0.2711 0.3039   0.2865
monotone i19 5 r10   0.3027   0.2898 0.3154   0.2865
monotone i20 5 r1   0.4820   0.4735 0.4904   0.4986
monotone i20 5 r2   0.4889   0.4774 0.5002   0.4986
monotone i20 5 r3   nan   nan nan   0.4986
monotone i20 5 r4   0.4969   0.4838 0.5096   0.4986
monotone i20 5 r5   0.5039   0.4918 0.5157   0.4986
monotone i20 5 r6   0.4913   0.4770 0.5053   0.4986
monotone i20 5 r7   nan   nan nan   0.4986
monotone i20 5 r8   0.4977   0.4852 0.5098   0.4986
monotone i20 5 r9   0.4956   0.4832 0.5076   0.4986
monotone i20 5 r10   nan   nan nan   0.4986
monotone i21 5 r1   0.5883   0.5780 0.5985   0.5713
monotone i21 5 r2   0.5977   0.5864 0.6087   0.5713
monotone i21 5 r3   0.5913   0.5782 0.6039   0.5713
monotone i21 5 r4   0.5860   0.5753 0.5963   0.5713
monotone i21 5 r5   0.5899   0.5782 0.6013   0.5713
monotone i21 5 r6   0.5830   0.5745 0.5913   0.5713
monotone i21 5 r7   0.5839   0.5721 0.5955   0.5713
monotone i21 5 r8   0.5937   0.5796 0.6074   0.5713
monotone i21 5 r9   0.5888   0.5773 0.5999   0.5713
monotone i21 5 r10   0.5971   0.5838 0.6100   0.5713
monotone i22 5 r1   0.4332   0.4117 0.4539   0.4681
monotone i22 5 r2   0.4424   0.4217 0.4624   0.4681
monotone i22 5 r3   0.4534   0.4379 0.4685   0.4681
monotone i22 5 r4   0.4444   0.4236 0.4646   0.4681
monotone i22 5 r5   0.4443   0.4228 0.4650   0.4681
monotone i22 5 r6   0.4387   0.4164 0.4602   0.4681
monotone i22 5 r7   0.4380   0.4147 0.4603   0.4681
monotone i22 5 r8   0.4562   0.4376 0.4743   0.4681
monotone i22 5 r9   0.4484   0.4261 0.4697   0.4681
monotone i22 5 r10   0.4660   0.4536 0.4781   0.4681
monotone i23 5 r1   0.5503   0.5376 0.5626   0.5558
monotone i23 5 r2   0.5640   0.5529 0.5748   0.5558
monotone i23 5 r3   0.5655   0.5525 0.5781   0.5558
monotone i23 5 r4   0.5516   0.5405 0.5623   0.5558
monotone i23 5 r5   0.5665   0.5548 0.5779   0.5558
monotone i23 5 r6   nan   nan nan   0.5558
monotone i23 5 r7   0.5580   0.5461 0.5696   0.5558
monotone i23 5 r8   nan   nan nan   0.5558
monotone i23 5 r9   0.5537   0.5420 0.5650   0.5558
monotone i23 5 r10   nan   nan nan   0.5558
monotone i24 5 r1   0.5087   0.4974 0.5197   0.5130
monotone i24 5 r2   0.5092   0.4973 0.5208   0.5130
monotone i24 5 r3   0.5061   0.4940 0.5180   0.5130
monotone i24 5 r4   0.5000   0.4870 0.5126   0.5130
monotone i24 5 r5   0.5005   0.4876 0.5130   0.5130
monotone i24 5 r6   0.5023   0.4897 0.5146   0.5130
monotone i24 5 r7   0.5091   0.4990 0.5190   0.5130
monotone i24 5 r8   0.5020   0.4875 0.5162   0.5130
monotone i24 5 r9   0.5045   0.4924 0.5164   0.5130
monotone i24 5 r10   0.4983   0.4857 0.5107   0.5130
monotone i25 5 r1   nan   nan nan   0.5465
monotone i25 5 r2   nan   nan nan   0.5465
monotone i25 5 r3   nan   nan nan   0.5465
monotone i25 5 r4   nan   nan nan   0.5465
monotone i25 5 r5   nan   nan nan   0.5465
monotone i25 5 r6   nan   nan nan   0.5465
monotone i25 5 r7   nan   nan nan   0.5465
monotone i25 5 r8   nan   nan nan   0.5465
monotone i25 5 r9   0.5357   0.5285 0.5429   0.5465
monotone i25 5 r10   nan   nan nan   0.5465
monotone i26 5 r1   nan   nan nan   0.0929
monotone i26 5 r2   nan   nan nan   0.0929
monotone i26 5 r3   0.1015   0.0890 0.1139   0.0929
monotone i26 5 r4   0.1050   0.0901 0.1197   0.0929
monotone i26 5 r5   nan   nan nan   0.0929
monotone i26 5 r6   nan   nan nan   0.0929
monotone i26 5 r7   nan   nan nan   0.0929
monotone i26 5 r8   nan   nan nan   0.0929
monotone i26 5 r9   0.1005   0.0856 0.1151   0.0929
monotone i26 5 r10   nan   nan nan   0.0929
monotone i27 5 r1   0.2814   0.2567 0.3053   0.2359
monotone i27 5 r2   0.2644   0.2391 0.2887   0.2359
monotone i27 5 r3   nan   nan nan   0.2359
monotone i27 5 r4   0.2737   0.2490 0.2976   0.2359
monotone i27 5 r5   nan   nan nan   0.2359
monotone i27 5 r6   0.2648   0.2405 0.2883   0.2359
monotone i27 5 r7   nan   nan nan   0.2359
monotone i27 5 r8   nan   nan nan   0.2359
monotone i27 5 r9   nan   nan nan   0.2359
monotone i27 5 r10   nan   nan nan   0.2359
monotone i28 5 r1   0.2409   0.2194 0.2618   0.2169
monotone i28 5 r2   nan   nan nan   0.2169
monotone i28 5 r3   0.2448   0.2196 0.2691   0.2169
monotone i28 5 r4   0.2564   0.2264 0.2853   0.2169
monotone i28 5 r5   0.2522   0.2250 0.2784   0.2169
monotone i28 5 r6   nan   nan nan   0.2169
monotone i28 5 r7   0.2447   0.2193 0.2693   0.2169
monotone i28 5 r8   0.2443   0.2161 0.2714   0.2169
monotone i28 5 r9   nan   nan nan   0.2169
monotone i28 5 r10   nan   nan nan   0.2169
monotone i29 5 r1   0.5020   0.4900 0.5137   0.5072
monotone i29 5 r2   0.5010   0.4903 0.5116   0.5072
monotone i29 5 r3   nan   nan nan   0.5072
monotone i29 5 r4   0.5014   0.4896 0.5129   0.5072
monotone i29 5 r5   0.4936   0.4813 0.5055   0.5072
monotone i29 5 r6   0.4882   0.4761 0.5000   0.5072
monotone i29 5 r7   nan   nan nan   0.5072
monotone i29 5 r8   0.4996   0.4854 0.5134   0.5072
monotone i29 5 r9   nan   nan nan   0.5072
monotone i29 5 r10   0.4906   0.4777 0.5032   0.5072
monotone i30 5 r1   nan   nan nan   0.4989
monotone i30 5 r2   nan   nan nan   0.4989
monotone i30 5 r3   nan   nan nan   0.4989
monotone i30 5 r4   nan   nan nan   0.4989
monotone i30 5 r5   nan   nan nan   0.4989
monotone i30 5 r6   nan   nan nan   0.4989
monotone i30 5 r7   nan   nan nan   0.4989
monotone i30 5 r8   nan   nan nan   0.4989
monotone i30 5 r9   nan   nan nan   0.4989
monotone i30 5 r10   nan   nan nan   0.4989
monotone i31 5 r1   nan   nan nan   0.3522
monotone i31 5 r2   nan   nan nan   0.3522
monotone i31 5 r3   nan   nan nan   0.3522
monotone i31 5 r4   nan   nan nan   0.3522
monotone i31 5 r5   nan   nan nan   0.3522
monotone i31 5 r6   nan   nan nan   0.3522
monotone i31 5 r7   nan   nan nan   0.3522
monotone i31 5 r8   nan   nan nan   0.3522
monotone i31 5 r9   nan   nan nan   0.3522
monotone i31 5 r10   nan   nan nan   0.3522
monotone i32 5 r1   0.4045   0.3952 0.4136   0.4211
monotone i32 5 r2   0.3988   0.3922 0.4053   0.4211
monotone i32 5 r3   0.4033   0.3940 0.4124   0.4211
monotone i32 5 r4   0.3943   0.3803 0.4079   0.4211
monotone i32 5 r5   0.3984   0.3923 0.4045   0.4211
monotone i32 5 r6   0.3961   0.3873 0.4048   0.4211
monotone i32 5 r7   0.3985   0.3897 0.4072   0.4211
monotone i32 5 r8   nan   nan nan   0.4211
monotone i32 5 r9   nan   nan nan   0.4211
monotone i32 5 r10   0.3965   0.3891 0.4039   0.4211
monotone i33 5 r1   nan   nan nan   0.5242
monotone i33 5 r2   0.5232   0.5114 0.5347   0.5242
monotone i33 5 r3   0.5206   0.5096 0.5313   0.5242
monotone i33 5 r4   0.5063   0.4942 0.5181   0.5242
monotone i33 5 r5   0.5114   0.4983 0.5241   0.5242
monotone i33 5 r6   nan   nan nan   0.5242
monotone i33 5 r7   nan   nan nan   0.5242
monotone i33 5 r8   nan   nan nan   0.5242
monotone i33 5 r9   nan   nan nan   0.5242
monotone i33 5 r10   nan   nan nan   0.5242
monotone i34 5 r1   0.5032   0.4955 0.5107   0.5028
monotone i34 5 r2   0.5063   0.4958 0.5166   0.5028
monotone i34 5 r3   0.5065   0.4960 0.5168   0.5028
monotone i34 5 r4   nan   nan nan   0.5028
monotone i34 5 r5   0.5123   0.5012 0.5232   0.5028
monotone i34 5 r6   0.5114   0.4997 0.5228   0.5028
monotone i34 5 r7   0.5051   0.4979 0.5123   0.5028
monotone i34 5 r8   0.5093   0.4991 0.5193   0.5028
monotone i34 5 r9   0.5055   0.4985 0.5123   0.5028
monotone i34 5 r10   0.5035   0.4948 0.5120   0.5028
monotone i35 5 r1   nan   nan nan   0.2539
monotone i35 5 r2   nan   nan nan   0.2539
monotone i35 5 r3   nan   nan nan   0.2539
monotone i35 5 r4   nan   nan nan   0.2539
monotone i35 5 r5   nan   nan nan   0.2539
monotone i35 5 r6   nan   nan nan   0.2539
monotone i35 5 r7   nan   nan nan   0.2539
monotone i35 5 r8   nan   nan nan   0.2539
monotone i35 5 r9   nan   nan nan   0.2539
monotone i35 5 r10   nan   nan nan   0.2539
monotone i36 5 r1   nan   nan nan   0.4943
monotone i36 5 r2   nan   nan nan   0.4943
monotone i36 5 r3   nan   nan nan   0.4943
monotone i36 5 r4   nan   nan nan   0.4943
monotone i36 5 r5   nan   nan nan   0.4943
monotone i36 5 r6   nan   nan nan   0.4943
monotone i36 5 r7   nan   nan nan   0.4943
monotone i36 5 r8   nan   nan nan   0.4943
monotone i36 5 r9   nan   nan nan   0.4943
monotone i36 5 r10   nan   nan nan   0.4943
monotone i37 5 r1   nan   nan nan   0.1715
monotone i37 5 r2   0.1697   0.1625 0.1769   0.1715
monotone i37 5 r3   nan   nan nan   0.1715
monotone i37 5 r4   0.1689   0.1612 0.1766   0.1715
monotone i37 5 r5   nan   nan nan   0.1715
monotone i37 5 r6   nan   nan nan   0.1715
monotone i37 5 r7   nan   nan nan   0.1715
monotone i37 5 r8   0.1679   0.1602 0.1757   0.1715
monotone i37 5 r9   0.1568   0.1435 0.1698   0.1715
monotone i37 5 r10   nan   nan nan   0.1715
monotone i38 5 r1   0.4807   0.4709 0.4902   0.4563
monotone i38 5 r2   0.4805   0.4706 0.4902   0.4563
monotone i38 5 r3   nan   nan nan   0.4563
monotone i38 5 r4   0.4795   0.4734 0.4857   0.4563
monotone i38 5 r5   nan   nan nan   0.4563
monotone i38 5 r6   0.4778   0.4729 0.4827   0.4563
monotone i38 5 r7   0.4888   0.4770 0.5003   0.4563
monotone i38 5 r8   nan   nan nan   0.4563
monotone i38 5 r9   0.4853   0.4751 0.4953   0.4563
monotone i38 5 r10   0.4753   0.4671 0.4834   0.4563
monotone i39 5 r1   0.4825   0.4771 0.4878   0.4911
monotone i39 5 r2   0.4831   0.4783 0.4880   0.4911
monotone i39 5 r3   0.4824   0.4774 0.4874   0.4911
monotone i39 5 r4   nan   nan nan   0.4911
monotone i39 5 r5   0.4866   0.4789 0.4941   0.4911
monotone i39 5 r6   0.4828   0.4743 0.4911   0.4911
monotone i39 5 r7   0.4811   0.4737 0.4885   0.4911
monotone i39 5 r8   nan   nan nan   0.4911
monotone i39 5 r9   0.4824   0.4754 0.4893   0.4911
monotone i39 5 r10   0.4848   0.4770 0.4925   0.4911
monotone i40 5 r1   0.6024   0.5910 0.6136   0.5933
monotone i40 5 r2   0.5911   0.5825 0.5997   0.5933
monotone i40 5 r3   0.6013   0.5895 0.6127   0.5933
monotone i40 5 r4   0.6051   0.5948 0.6152   0.5933
monotone i40 5 r5   0.5958   0.5841 0.6071   0.5933
monotone i40 5 r6   0.5973   0.5847 0.6095   0.5933
monotone i40 5 r7   0.6050   0.5930 0.6166   0.5933
monotone i40 5 r8   0.5905   0.5799 0.6009   0.5933
monotone i40 5 r9   0.5963   0.5846 0.6077   0.5933
monotone i40 5 r10   0.6044   0.5934 0.6151   0.5933
monotone i41 5 r1   0.1442   0.1244 0.1635   0.1322
monotone i41 5 r2   nan   nan nan   0.1322
monotone i41 5 r3   0.1464   0.1297 0.1628   0.1322
monotone i41 5 r4   0.1532   0.1375 0.1687   0.1322
monotone i41 5 r5   nan   nan nan   0.1322
monotone i41 5 r6   nan   nan nan   0.1322
monotone i41 5 r7   0.1559   0.1380 0.1734   0.1322
monotone i41 5 r8   0.1375   0.1203 0.1542   0.1322
monotone i41 5 r9   nan   nan nan   0.1322
monotone i41 5 r10   0.1333   0.1188 0.1477   0.1322
monotone i42 5 r1   nan   nan nan   0.3627
monotone i42 5 r2   nan   nan nan   0.3627
monotone i42 5 r3   nan   nan nan   0.3627
monotone i42 5 r4   nan   nan nan   0.3627
monotone i42 5 r5   nan   nan nan   0.3627
monotone i42 5 r6   nan   nan nan   0.3627
monotone i42 5 r7   0.3244   0.3129 0.3357   0.3627
monotone i42 5 r8   nan   nan nan   0.3627
monotone i42 5 r9   nan   nan nan   0.3627
monotone i42 5 r10   nan   nan nan   0.3627
monotone i43 5 r1   nan   nan nan   0.1521
monotone i43 5 r2   nan   nan nan   0.1521
monotone i43 5 r3   0.1678   0.1597 0.1759   0.1521
monotone i43 5 r4   0.1574   0.1429 0.1717   0.1521
monotone i43 5 r5   nan   nan nan   0.1521
monotone i43 5 r6   nan   nan nan   0.1521
monotone i43 5 r7   nan   nan nan   0.1521
monotone i43 5 r8   0.1481   0.1310 0.1648   0.1521
monotone i43 5 r9   0.1545   0.1429 0.1659   0.1521
monotone i43 5 r10   0.1516   0.1335 0.1692   0.1521
monotone i44 5 r1   nan   nan nan   0.5335
monotone i44 5 r2   0.5303   0.5240 0.5365   0.5335
monotone i44 5 r3   0.5295   0.5228 0.5360   0.5335
monotone i44 5 r4   nan   nan nan   0.5335
monotone i44 5 r5   nan   nan nan   0.5335
monotone i44 5 r6   0.5337   0.5247 0.5426   0.5335
monotone i44 5 r7   nan   nan nan   0.5335
monotone i44 5 r8   0.5327   0.5257 0.5397   0.5335
monotone i44 5 r9   0.5321   0.5270 0.5372   0.5335
monotone i44 5 r10   0.5346   0.5271 0.5421   0.5335
monotone i45 5 r1   nan   nan nan   0.2794
monotone i45 5 r2   nan   nan nan   0.2794
monotone i45 5 r3   nan   nan nan   0.2794
monotone i45 5 r4   nan   nan nan   0.2794
monotone i45 5 r5   nan   nan nan   0.2794
monotone i45 5 r6   nan   nan nan   0.2794
monotone i45 5 r7   nan   nan nan   0.2794
monotone i45 5 r8   nan   nan nan   0.2794
monotone i45 5 r9   nan   nan nan   0.2794
monotone i45 5 r10   nan   nan nan   0.2794
monotone i46 5 r1   nan   nan nan   0.4475
monotone i46 5 r2   nan   nan nan   0.4475
monotone i46 5 r3   nan   nan nan   0.4475
monotone i46 5 r4   0.4123   0.3996 0.4247   0.4475
monotone i46 5 r5   nan   nan nan   0.4475
monotone i46 5 r6   nan   nan nan   0.4475
monotone i46 5 r7   nan   nan nan   0.4475
monotone i46 5 r8   nan   nan nan   0.4475
monotone i46 5 r9   nan   nan nan   0.4475
monotone i46 5 r10   nan   nan nan   0.4475
monotone i47 5 r1   0.5817   0.5605 0.6019   0.5757
monotone i47 5 r2   0.5805   0.5712 0.5896   0.5757
monotone i47 5 r3   0.5906   0.5788 0.6020   0.5757
monotone i47 5 r4   0.5776   0.5681 0.5869   0.5757
monotone i47 5 r5   0.5882   0.5756 0.6004   0.5757
monotone i47 5 r6   0.5805   0.5699 0.5908   0.5757
monotone i47 5 r7   0.5857   0.5728 0.5981   0.5757
monotone i47 5 r8   0.5839   0.5731 0.5944   0.5757
monotone i47 5 r9   0.5891   0.5773 0.6005   0.5757
monotone i47 5 r10   0.5857   0.5734 0.5978   0.5757
monotone i48 5 r1   0.5036   0.4893 0.5175   0.5148
monotone i48 5 r2   0.5118   0.4990 0.5242   0.5148
monotone i48 5 r3   nan   nan nan   0.5148
monotone i48 5 r4   0.5040   0.4923 0.5153   0.5148
monotone i48 5 r5   0.5079   0.4965 0.5190   0.5148
monotone i48 5 r6   0.5107   0.4982 0.5228   0.5148
monotone i48 5 r7   0.5126   0.5014 0.5236   0.5148
monotone i48 5 r8   0.5105   0.4960 0.5247   0.5148
monotone i48 5 r9   0.5011   0.4915 0.5105   0.5148
monotone i48 5 r10   0.5169   0.5058 0.5277   0.5148
monotone i49 5 r1   nan   nan nan   0.1964
monotone i49 5 r2   0.2080   0.1840 0.2313   0.1964
monotone i49 5 r3   0.2063   0.1836 0.2284   0.1964
monotone i49 5 r4   nan   nan nan   0.1964
monotone i49 5 r5   0.1971   0.1753 0.2184   0.1964
monotone i49 5 r6   0.2317   0.2167 0.2464   0.1964
monotone i49 5 r7   0.2147   0.1940 0.2348   0.1964
monotone i49 5 r8   0.2086   0.1848 0.2317   0.1964
monotone i49 5 r9   0.2244   0.2047 0.2437   0.1964
monotone i49 5 r10   0.2151   0.1925 0.2371   0.1964
monotone i50 5 r1   nan   nan nan   0.3953
monotone i50 5 r2   0.3640   0.3551 0.3728   0.3953
monotone i50 5 r3   nan   nan nan   0.3953
monotone i50 5 r4   0.3648   0.3556 0.3738   0.3953
monotone i50 5 r5   0.3643   0.3591 0.3696   0.3953
monotone i50 5 r6   0.3659   0.3589 0.3728   0.3953
monotone i50 5 r7   nan   nan nan   0.3953
monotone i50 5 r8   nan   nan nan   0.3953
monotone i50 5 r9   nan   nan nan   0.3953
monotone i50 5 r10   0.3647   0.3580 0.3712   0.3953
