monotone i1 20 r1   0.6484   0.6367 0.6546   0.6430
monotone i1 20 r2   0.6388   0.6319 0.6501   0.6430
monotone i1 20 r3   0.6419   0.6330 0.6514   0.6430
monotone i1 20 r4   0.6403   0.6353 0.6525   0.6430
monotone i1 20 r5   0.6473   0.6362 0.6550   0.6430
monotone i1 20 r6   0.6425   0.6342 0.6531   0.6430
monotone i1 20 r7   0.6422   0.6327 0.6508   0.6430
monotone i1 20 r8   0.6452   0.6347 0.6536   0.6430
monotone i1 20 r9   0.6446   0.6339 0.6501   0.6430
monotone i1 20 r10   0.6466   0.6372 0.6566   0.6430
monotone i2 20 r1   0.3712   0.3677 0.3755   0.3716
monotone i2 20 r2   0.3721   0.3689 0.3762   0.3716
monotone i2 20 r3   0.3724   0.3682 0.3764   0.3716
monotone i2 20 r4   0.3715   0.3682 0.3761   0.3716
monotone i2 20 r5   0.3691   0.3660 0.3732   0.3716
monotone i2 20 r6   0.3737   0.3704 0.3782   0.3716
monotone i2 20 r7   0.3738   0.3694 0.3770   0.3716
monotone i2 20 r8   0.3742   0.3699 0.3779   0.3716
monotone i2 20 r9   0.3736   0.3700 0.3778   0.3716
monotone i2 20 r10   0.3728   0.3692 0.3774   0.3716
monotone i3 20 r1   0.6702   0.6650 0.6839   0.6773
monotone i3 20 r2   0.6831   0.6697 0.6901   0.6773
monotone i3 20 r3   0.6808   0.6679 0.6897   0.6773
monotone i3 20 r4   0.6774   0.6667 0.6884   0.6773
monotone i3 20 r5   0.6742   0.6658 0.6864   0.6773
monotone i3 20 r6   0.6705   0.6661 0.6823   0.6773
monotone i3 20 r7   0.6810   0.6681 0.6890   0.6773
monotone i3 20 r8   0.6774   0.6660 0.6858   0.6773
monotone i3 20 r9   0.6778   0.6681 0.6897   0.6773
monotone i3 20 r10   0.6749   0.6683 0.6895   0.6773
monotone i4 20 r1   0.3952   0.3908 0.4016   0.3956
monotone i4 20 r2   0.3960   0.3898 0.4008   0.3956
monotone i4 20 r3   0.3934   0.3895 0.4000   0.3956
monotone i4 20 r4   0.3978   0.3909 0.4023   0.3956
monotone i4 20 r5   0.3927   0.3888 0.3991   0.3956
monotone i4 20 r6   0.3947   0.3906 0.4012   0.3956
monotone i4 20 r7   0.3926   0.3882 0.3993   0.3956
monotone i4 20 r8   0.3979   0.3915 0.4025   0.3956
monotone i4 20 r9   0.3970   0.3914 0.4024   0.3956
monotone i4 20 r10   0.3985   0.3934 0.4040   0.3956
monotone i5 20 r1   0.5777   0.5696 0.5889   0.5796
monotone i5 20 r2   0.5835   0.5719 0.5898   0.5796
monotone i5 20 r3   0.5834   0.5728 0.5908   0.5796
monotone i5 20 r4   0.5796   0.5701 0.5887   0.5796
monotone i5 20 r5   0.5726   0.5666 0.5839   0.5796
monotone i5 20 r6   0.5783   0.5696 0.5880   0.5796
monotone i5 20 r7   0.5773   0.5683 0.5869   0.5796
monotone i5 20 r8   0.5797   0.5702 0.5887   0.5796
monotone i5 20 r9   0.5745   0.5663 0.5844   0.5796
monotone i5 20 r10   0.5806   0.5693 0.5881   0.5796
monotone i6 20 r1   0.3159   0.3101 0.3197   0.3139
monotone i6 20 r2   0.3123   0.3074 0.3182   0.3139
monotone i6 20 r3   0.3130   0.3078 0.3182   0.3139
monotone i6 20 r4   0.3149   0.3084 0.3190   0.3139
monotone i6 20 r5   0.3148   0.3087 0.3192   0.3139
monotone i6 20 r6   0.3167   0.3110 0.3211   0.3139
monotone i6 20 r7   0.3098   0.3039 0.3145   0.3139
monotone i6 20 r8   0.3134   0.3069 0.3178   0.3139
monotone i6 20 r9   0.3131   0.3072 0.3178   0.3139
monotone i6 20 r10   0.3119   0.3076 0.3183   0.3139
monotone i7 20 r1   0.6302   0.6188 0.6414   0.6275
monotone i7 20 r2   0.6259   0.6157 0.6402   0.6275
monotone i7 20 r3   0.6300   0.6152 0.6380   0.6275
monotone i7 20 r4   0.6346   0.6185 0.6420   0.6275
monotone i7 20 r5   0.6243   0.6154 0.6385   0.6275
monotone i7 20 r6   0.6287   0.6144 0.6376   0.6275
monotone i7 20 r7   0.6310   0.6172 0.6416   0.6275
monotone i7 20 r8   0.6262   0.6155 0.6394   0.6275
monotone i7 20 r9   0.6265   0.6166 0.6413   0.6275
monotone i7 20 r10   0.6267   0.6155 0.6390   0.6275
monotone i8 20 r1   0.3589   0.3492 0.3686   0.3610
monotone i8 20 r2   0.3641   0.3546 0.3739   0.3610
monotone i8 20 r3   0.3552   0.3481 0.3665   0.3610
monotone i8 20 r4   0.3595   0.3501 0.3692   0.3610
monotone i8 20 r5   0.3553   0.3492 0.3660   0.3610
monotone i8 20 r6   0.3601   0.3512 0.3707   0.3610
monotone i8 20 r7   0.3579   0.3490 0.3685   0.3610
monotone i8 20 r8   0.3601   0.3516 0.3706   0.3610
monotone i8 20 r9   0.3537   0.3464 0.3646   0.3610
monotone i8 20 r10   0.3607   0.3524 0.3715   0.3610
monotone i9 20 r1   0.6013   0.5874 0.6101   0.5975
monotone i9 20 r2   0.6001   0.5856 0.6077   0.5975
monotone i9 20 r3   0.5971   0.5848 0.6066   0.5975
monotone i9 20 r4   0.6021   0.5874 0.6094   0.5975
monotone i9 20 r5   0.6029   0.5885 0.6128   0.5975
monotone i9 20 r6   0.5938   0.5830 0.6055   0.5975
monotone i9 20 r7   0.5995   0.5857 0.6075   0.5975
monotone i9 20 r8   0.5942   0.5836 0.6068   0.5975
monotone i9 20 r9   0.6017   0.5878 0.6098   0.5975
monotone i9 20 r10   0.5980   0.5856 0.6092   0.5975
monotone i10 20 r1   0.6694   0.6598 0.6767   0.6643
monotone i10 20 r2   0.6619   0.6566 0.6728   0.6643
monotone i10 20 r3   0.6671   0.6577 0.6742   0.6643
monotone i10 20 r4   0.6616   0.6542 0.6700   0.6643
monotone i10 20 r5   0.6636   0.6556 0.6718   0.6643
monotone i10 20 r6   0.6695   0.6591 0.6755   0.6643
monotone i10 20 r7   0.6630   0.6557 0.6718   0.6643
monotone i10 20 r8   0.6675   0.6575 0.6738   0.6643
monotone i10 20 r9   0.6600   0.6552 0.6700   0.6643
monotone i10 20 r10   0.6633   0.6550 0.6709   0.6643
monotone i11 20 r1   0.4197   0.4148 0.4244   0.4215
monotone i11 20 r2   0.4191   0.4135 0.4230   0.4215
monotone i11 20 r3   0.4226   0.4170 0.4264   0.4215
monotone i11 20 r4   0.4206   0.4157 0.4256   0.4215
monotone i11 20 r5   0.4204   0.4160 0.4256   0.4215
monotone i11 20 r6   0.4223   0.4169 0.4266   0.4215
monotone i11 20 r7   0.4200   0.4161 0.4255   0.4215
monotone i11 20 r8   0.4220   0.4164 0.4263   0.4215
monotone i11 20 r9   0.4205   0.4146 0.4246   0.4215
monotone i11 20 r10   0.4219   0.4165 0.4260   0.4215
monotone i12 20 r1   0.3972   0.3925 0.4014   0.3963
monotone i12 20 r2   0.3957   0.3907 0.3999   0.3963
monotone i12 20 r3   0.3976   0.3927 0.4016   0.3963
monotone i12 20 r4   0.3936   0.3893 0.3987   0.3963
monotone i12 20 r5   0.3937   0.3891 0.3978   0.3963
monotone i12 20 r6   0.3920   0.3879 0.3972   0.3963
monotone i12 20 r7   0.3999   0.3954 0.4035   0.3963
monotone i12 20 r8   0.3964   0.3918 0.4005   0.3963
monotone i12 20 r9   0.3959   0.3916 0.4006   0.3963
monotone i12 20 r10   0.3953   0.3904 0.3995   0.3963
monotone i13 20 r1   0.3267   0.3243 0.3291   0.3275
monotone i13 20 r2   0.3272   0.3248 0.3296   0.3275
monotone i13 20 r3   0.3274   0.3250 0.3299   0.3275
monotone i13 20 r4   0.3293   0.3270 0.3320   0.3275
monotone i13 20 r5   0.3268   0.3246 0.3292   0.3275
monotone i13 20 r6   0.3266   0.3243 0.3291   0.3275
monotone i13 20 r7   0.3266   0.3241 0.3291   0.3275
monotone i13 20 r8   0.3280   0.3255 0.3306   0.3275
monotone i13 20 r9   0.3275   0.3251 0.3302   0.3275
monotone i13 20 r10   0.3270   0.3245 0.3294   0.3275
monotone i14 20 r1   0.5812   0.5692 0.5883   0.5787
monotone i14 20 r2   0.5788   0.5671 0.5866   0.5787
monotone i14 20 r3   0.5837   0.5726 0.5912   0.5787
monotone i14 20 r4   0.5756   0.5660 0.5858   0.5787
monotone i14 20 r5   0.5808   0.5694 0.5892   0.5787
monotone i14 20 r6   0.5847   0.5746 0.5920   0.5787
monotone i14 20 r7   0.5783   0.5686 0.5883   0.5787
monotone i14 20 r8   0.5825   0.5709 0.5889   0.5787
monotone i14 20 r9   0.5802   0.5696 0.5898   0.5787
monotone i14 20 r10   0.5798   0.5694 0.5894   0.5787
monotone i15 20 r1   0.5953   0.5807 0.6042   0.5930
monotone i15 20 r2   0.5886   0.5785 0.6010   0.5930
monotone i15 20 r3   0.5931   0.5804 0.6043   0.5930
monotone i15 20 r4   0.5930   0.5810 0.6047   0.5930
monotone i15 20 r5   0.5919   0.5824 0.6062   0.5930
monotone i15 20 r6   0.5871   0.5802 0.6016   0.5930
monotone i15 20 r7   0.5962   0.5821 0.6048   0.5930
monotone i15 20 r8   0.5987   0.5848 0.6078   0.5930
monotone i15 20 r9   0.5939   0.5813 0.6056   0.5930
monotone i15 20 r10   0.5893   0.5797 0.6010   0.5930
monotone i16 20 r1   0.4557   0.4430 0.4628   0.4488
monotone i16 20 r2   0.4479   0.4338 0.4580   0.4488
monotone i16 20 r3   0.4567   0.4429 0.4645   0.4488
monotone i16 20 r4   0.4507   0.4386 0.4617   0.4488
monotone i16 20 r5   0.4519   0.4371 0.4589   0.4488
monotone i16 20 r6   0.4481   0.4341 0.4575   0.4488
monotone i16 20 r7   0.4467   0.4371 0.4602   0.4488
monotone i16 20 r8   0.4512   0.4382 0.4600   0.4488
monotone i16 20 r9   0.4549   0.4405 0.4623   0.4488
monotone i16 20 r10   0.4502   0.4353 0.4580   0.4488
monotone i17 20 r1   0.4080   0.3988 0.4180   0.4103
monotone i17 20 r2   0.4045   0.3972 0.4165   0.4103
monotone i17 20 r3   0.4072   0.3988 0.4182   0.4103
monotone i17 20 r4   0.4148   0.4027 0.4213   0.4103
monotone i17 20 r5   0.4095   0.4005 0.4196   0.4103
monotone i17 20 r6   0.4062   0.3988 0.4174   0.4103
monotone i17 20 r7   0.4058   0.3985 0.4177   0.4103
monotone i17 20 r8   0.4102   0.4019 0.4212   0.4103
monotone i17 20 r9   0.4102   0.3987 0.4173   0.4103
monotone i17 20 r10   0.4124   0.4024 0.4211   0.4103
monotone i18 20 r1   0.3079   0.3007 0.3173   0.3088
monotone i18 20 r2   0.3121   0.3030 0.3167   0.3088
monotone i18 20 r3   0.3033   0.2981 0.3132   0.3088
monotone i18 20 r4   0.3075   0.2992 0.3158   0.3088
monotone i18 20 r5   0.3056   0.2985 0.3152   0.3088
monotone i18 20 r6   0.3140   0.3036 0.3197   0.3088
monotone i18 20 r7   0.3056   0.2981 0.3152   0.3088
monotone i18 20 r8   0.3113   0.3021 0.3184   0.3088
monotone i18 20 r9   0.3045   0.2994 0.3139   0.3088
monotone i18 20 r10   0.3091   0.3002 0.3169   0.3088
monotone i19 20 r1   0.2883   0.2808 0.2933   0.2865
monotone i19 20 r2   0.2879   0.2812 0.2941   0.2865
monotone i19 20 r3   0.2848   0.2790 0.2917   0.2865
monotone i19 20 r4   0.2870   0.2813 0.2941   0.2865
monotone i19 20 r5   0.2862   0.2799 0.2929   0.2865
monotone i19 20 r6   0.2839   0.2782 0.2910   0.2865
monotone i19 20 r7   0.2850   0.2781 0.2914   0.2865
monotone i19 20 r8   0.2852   0.2794 0.2925   0.2865
monotone i19 20 r9   0.2865   0.2805 0.2932   0.2865
monotone i19 20 r10   0.2846   0.2786 0.2919   0.2865
monotone i20 20 r1   0.5006   0.4885 0.5074   0.4986
monotone i20 20 r2   0.4999   0.4879 0.5066   0.4986
monotone i20 20 r3   0.4994   0.4884 0.5074   0.4986
monotone i20 20 r4   0.4971   0.4894 0.5086   0.4986
monotone i20 20 r5   0.5038   0.4917 0.5101   0.4986
monotone i20 20 r6   0.4958   0.4879 0.5068   0.4986
monotone i20 20 r7   0.5010   0.4913 0.5092   0.4986
monotone i20 20 r8   0.4953   0.4878 0.5063   0.4986
monotone i20 20 r9   0.4961   0.4861 0.5049   0.4986
monotone i20 20 r10   0.4983   0.4863 0.5047   0.4986
monotone i21 20 r1   0.5717   0.5608 0.5834   0.5713
monotone i21 20 r2   0.5685   0.5596 0.5819   0.5713
monotone i21 20 r3   0.5752   0.5616 0.5849   0.5713
monotone i21 20 r4   0.5701   0.5607 0.5835   0.5713
monotone i21 20 r5   0.5709   0.5612 0.5856   0.5713
monotone i21 20 r6   0.5684   0.5575 0.5799   0.5713
monotone i21 20 r7   0.5683   0.5596 0.5822   0.5713
monotone i21 20 r8   0.5732   0.5615 0.5846   0.5713
monotone i21 20 r9   0.5666   0.5594 0.5815   0.5713
monotone i21 20 r10   0.5706   0.5612 0.5839   0.5713
monotone i22 20 r1   0.4692   0.4531 0.4777   0.4681
monotone i22 20 r2   0.4707   0.4566 0.4807   0.4681
monotone i22 20 r3   0.4688   0.4550 0.4788   0.4681
monotone i22 20 r4   0.4639   0.4516 0.4768   0.4681
monotone i22 20 r5   0.4733   0.4588 0.4796   0.4681
monotone i22 20 r6   0.4589   0.4492 0.4750   0.4681
monotone i22 20 r7   0.4657   0.4527 0.4775   0.4681
monotone i22 20 r8   0.4682   0.4523 0.4772   0.4681
monotone i22 20 r9   0.4546   0.4452 0.4715   0.4681
monotone i22 20 r10   0.4681   0.4556 0.4783   0.4681
monotone i23 20 r1   0.5556   0.5465 0.5660   0.5558
monotone i23 20 r2   0.5528   0.5444 0.5660   0.5558
monotone i23 20 r3   0.5522   0.5424 0.5634   0.5558
monotone i23 20 r4   0.5543   0.5463 0.5678   0.5558
monotone i23 20 r5   0.5523   0.5458 0.5663   0.5558
monotone i23 20 r6   0.5496   0.5432 0.5630   0.5558
monotone i23 20 r7   0.5569   0.5445 0.5656   0.5558
monotone i23 20 r8   0.5622   0.5488 0.5696   0.5558
monotone i23 20 r9   0.5634   0.5500 0.5701   0.5558
monotone i23 20 r10   0.5553   0.5442 0.5654   0.5558
monotone i24 20 r1   0.5131   0.5030 0.5205   0.5130
monotone i24 20 r2   0.5111   0.5030 0.5203   0.5130
monotone i24 20 r3   0.5084   0.4999 0.5178   0.5130
monotone i24 20 r4   0.5155   0.5050 0.5220   0.5130
monotone i24 20 r5   0.5113   0.5017 0.5198   0.5130
monotone i24 20 r6   0.5111   0.5026 0.5203   0.5130
monotone i24 20 r7   0.5154   0.5050 0.5224   0.5130
monotone i24 20 r8   0.5158   0.5050 0.5224   0.5130
monotone i24 20 r9   0.5172   0.5071 0.5237   0.5130
monotone i24 20 r10   0.5139   0.5048 0.5224   0.5130
monotone i25 20 r1   0.5484   0.5419 0.5539   0.5465
monotone i25 20 r2   0.5467   0.5414 0.5531   0.5465
monotone i25 20 r3   0.5503   0.5438 0.5559   0.5465
monotone i25 20 r4   0.5463   0.5392 0.5517   0.5465
monotone i25 20 r5   0.5478   0.5419 0.5535   0.5465
monotone i25 20 r6   0.5500   0.5431 0.5554   0.5465
monotone i25 20 r7   0.5511   0.5443 0.5561   0.5465
monotone i25 20 r8   0.5469   0.5409 0.5532   0.5465
monotone i25 20 r9   0.5454   0.5392 0.5511   0.5465
monotone i25 20 r10   0.5444   0.5387 0.5511   0.5465
monotone i26 20 r1   0.0936   0.0898 0.0973   0.0929
monotone i26 20 r2   0.0908   0.0872 0.0950   0.0929
monotone i26 20 r3   0.0924   0.0888 0.0967   0.0929
monotone i26 20 r4   0.0919   0.0880 0.0958   0.0929
monotone i26 20 r5   0.0944   0.0907 0.0974   0.0929
monotone i26 20 r6   0.0944   0.0905 0.0979   0.0929
monotone i26 20 r7   0.0926   0.0885 0.0957   0.0929
monotone i26 20 r8   0.0937   0.0895 0.0968   0.0929
monotone i26 20 r9   0.0940   0.0902 0.0975   0.0929
monotone i26 20 r10   0.0935   0.0894 0.0966   0.0929
monotone i27 20 r1   0.2397   0.2310 0.2477   0.2359
monotone i27 20 r2   0.2351   0.2287 0.2457   0.2359
monotone i27 20 r3   0.2366   0.2300 0.2468   0.2359
monotone i27 20 r4   0.2354   0.2272 0.2434   0.2359
monotone i27 20 r5   0.2368   0.2281 0.2445   0.2359
monotone i27 20 r6   0.2326   0.2273 0.2435   0.2359
monotone i27 20 r7   0.2401   0.2306 0.2471   0.2359
monotone i27 20 r8   0.2372   0.2309 0.2476   0.2359
monotone i27 20 r9   0.2370   0.2278 0.2441   0.2359
monotone i27 20 r10   0.2311   0.2248 0.2409   0.2359
monotone i28 20 r1   0.2107   0.2061 0.2217   0.2169
monotone i28 20 r2   0.2225   0.2127 0.2297   0.2169
monotone i28 20 r3   0.2181   0.2092 0.2260   0.2169
monotone i28 20 r4   0.2146   0.2093 0.2259   0.2169
monotone i28 20 r5   0.2184   0.2096 0.2264   0.2169
monotone i28 20 r6   0.2218   0.2110 0.2281   0.2169
monotone i28 20 r7   0.2159   0.2067 0.2230   0.2169
monotone i28 20 r8   0.2137   0.2087 0.2249   0.2169
monotone i28 20 r9   0.2182   0.2083 0.2250   0.2169
monotone i28 20 r10   0.2186   0.2094 0.2261   0.2169
monotone i29 20 r1   0.5065   0.4973 0.5146   0.5072
monotone i29 20 r2   0.5110   0.5029 0.5179   0.5072
monotone i29 20 r3   0.5060   0.4984 0.5157   0.5072
monotone i29 20 r4   0.5038   0.4953 0.5127   0.5072
monotone i29 20 r5   0.5084   0.4998 0.5176   0.5072
monotone i29 20 r6   0.5020   0.4939 0.5104   0.5072
monotone i29 20 r7   0.5060   0.4989 0.5159   0.5072
monotone i29 20 r8   0.5049   0.4960 0.5134   0.5072
monotone i29 20 r9   0.5114   0.5009 0.5181   0.5072
monotone i29 20 r10   0.5082   0.4994 0.5166   0.5072
monotone i30 20 r1   0.4994   0.4950 0.5038   0.4989
monotone i30 20 r2   0.4991   0.4958 0.5030   0.4989
monotone i30 20 r3   0.4972   0.4938 0.5010   0.4989
monotone i30 20 r4   0.4978   0.4939 0.5022   0.4989
monotone i30 20 r5   0.4975   0.4941 0.5013   0.4989
monotone i30 20 r6   0.4971   0.4939 0.5007   0.4989
monotone i30 20 r7   0.5008   0.4958 0.5052   0.4989
monotone i30 20 r8   0.4991   0.4954 0.5040   0.4989
monotone i30 20 r9   0.5001   0.4958 0.5045   0.4989
monotone i30 20 r10   0.4960   0.4928 0.4997   0.4989
monotone i31 20 r1   0.3520   0.3487 0.3554   0.3522
monotone i31 20 r2   0.3533   0.3501 0.3562   0.3522
monotone i31 20 r3   0.3529   0.3496 0.3562   0.3522
monotone i31 20 r4   0.3522   0.3488 0.3559   0.3522
monotone i31 20 r5   0.3522   0.3491 0.3552   0.3522
monotone i31 20 r6   0.3509   0.3470 0.3540   0.3522
monotone i31 20 r7   0.3505   0.3471 0.3543   0.3522
monotone i31 20 r8   0.3490   0.3457 0.3525   0.3522
monotone i31 20 r9   0.3538   0.3504 0.3567   0.3522
monotone i31 20 r10   0.3517   0.3484 0.3551   0.3522
monotone i32 20 r1   0.4159   0.4086 0.4249   0.4211
monotone i32 20 r2   0.4225   0.4128 0.4280   0.4211
monotone i32 20 r3   0.4180   0.4082 0.4247   0.4211
monotone i32 20 r4   0.4216   0.4123 0.4274   0.4211
monotone i32 20 r5   0.4228   0.4134 0.4293   0.4211
monotone i32 20 r6   0.4264   0.4177 0.4311   0.4211
monotone i32 20 r7   0.4199   0.4112 0.4272   0.4211
monotone i32 20 r8   0.4229   0.4138 0.4287   0.4211
monotone i32 20 r9   0.4177   0.4099 0.4260   0.4211
monotone i32 20 r10   0.4202   0.4126 0.4282   0.4211
monotone i33 20 r1   0.5247   0.5142 0.5317   0.5242
monotone i33 20 r2   0.5247   0.5152 0.5327   0.5242
monotone i33 20 r3   0.5211   0.5132 0.5303   0.5242
monotone i33 20 r4   0.5253   0.5152 0.5321   0.5242
monotone i33 20 r5   0.5261   0.5160 0.5339   0.5242
monotone i33 20 r6   0.5254   0.5159 0.5334   0.5242
monotone i33 20 r7   0.5226   0.5140 0.5312   0.5242
monotone i33 20 r8   0.5288   0.5180 0.5357   0.5242
monotone i33 20 r9   0.5287   0.5184 0.5360   0.5242
monotone i33 20 r10   0.5279   0.5177 0.5356   0.5242
monotone i34 20 r1   0.5033   0.4914 0.5143   0.5028
monotone i34 20 r2   0.5064   0.4945 0.5161   0.5028
monotone i34 20 r3   0.4983   0.4850 0.5072   0.5028
monotone i34 20 r4   0.5083   0.4941 0.5162   0.5028
monotone i34 20 r5   0.5014   0.4890 0.5116   0.5028
monotone i34 20 r6   0.5046   0.4918 0.5142   0.5028
monotone i34 20 r7   0.5017   0.4908 0.5134   0.5028
monotone i34 20 r8   0.4952   0.4868 0.5081   0.5028
monotone i34 20 r9   0.5085   0.4952 0.5155   0.5028
monotone i34 20 r10   0.5065   0.4928 0.5145   0.5028
monotone i35 20 r1   0.2509   0.2474 0.2544   0.2539
monotone i35 20 r2   0.2536   0.2502 0.2567   0.2539
monotone i35 20 r3   0.2549   0.2514 0.2582   0.2539
monotone i35 20 r4   0.2555   0.2521 0.2586   0.2539
monotone i35 20 r5   0.2542   0.2508 0.2573   0.2539
monotone i35 20 r6   0.2520   0.2487 0.2552   0.2539
monotone i35 20 r7   0.2535   0.2501 0.2566   0.2539
monotone i35 20 r8   0.2518   0.2484 0.2549   0.2539
monotone i35 20 r9   0.2527   0.2492 0.2562   0.2539
monotone i35 20 r10   0.2541   0.2508 0.2573   0.2539
monotone i36 20 r1   0.4963   0.4925 0.4996   0.4943
monotone i36 20 r2   0.4950   0.4913 0.4986   0.4943
monotone i36 20 r3   0.4937   0.4904 0.4970   0.4943
monotone i36 20 r4   0.4928   0.4889 0.4960   0.4943
monotone i36 20 r5   0.4936   0.4896 0.4967   0.4943
monotone i36 20 r6   0.4949   0.4911 0.4983   0.4943
monotone i36 20 r7   0.4926   0.4891 0.4960   0.4943
monotone i36 20 r8   0.4969   0.4931 0.5003   0.4943
monotone i36 20 r9   0.4956   0.4917 0.4990   0.4943
monotone i36 20 r10   0.4952   0.4921 0.4987   0.4943
monotone i37 20 r1   0.1694   0.1660 0.1739   0.1715
monotone i37 20 r2   0.1726   0.1683 0.1758   0.1715
monotone i37 20 r3   0.1730   0.1687 0.1762   0.1715
monotone i37 20 r4   0.1721   0.1684 0.1765   0.1715
monotone i37 20 r5   0.1702   0.1670 0.1748   0.1715
monotone i37 20 r6   0.1743   0.1701 0.1774   0.1715
monotone i37 20 r7   0.1716   0.1679 0.1759   0.1715
monotone i37 20 r8   0.1705   0.1662 0.1742   0.1715
monotone i37 20 r9   0.1725   0.1682 0.1756   0.1715
monotone i37 20 r10   0.1720   0.1677 0.1752   0.1715
monotone i38 20 r1   0.4503   0.4416 0.4618   0.4563
monotone i38 20 r2   0.4525   0.4418 0.4617   0.4563
monotone i38 20 r3   0.4495   0.4427 0.4610   0.4563
monotone i38 20 r4   0.4561   0.4456 0.4671   0.4563
monotone i38 20 r5   0.4567   0.4486 0.4683   0.4563
monotone i38 20 r6   0.4539   0.4465 0.4652   0.4563
monotone i38 20 r7   0.4578   0.4488 0.4697   0.4563
monotone i38 20 r8   0.4529   0.4455 0.4653   0.4563
monotone i38 20 r9   0.4526   0.4422 0.4626   0.4563
monotone i38 20 r10   0.4536   0.4449 0.4653   0.4563
monotone i39 20 r1   0.4943   0.4826 0.5026   0.4911
monotone i39 20 r2   0.4914   0.4787 0.4998   0.4911
monotone i39 20 r3   0.4859   0.4763 0.4975   0.4911
monotone i39 20 r4   0.4933   0.4823 0.5031   0.4911
monotone i39 20 r5   0.4970   0.4849 0.5041   0.4911
monotone i39 20 r6   0.4882   0.4782 0.4997   0.4911
monotone i39 20 r7   0.4905   0.4807 0.5011   0.4911
monotone i39 20 r8   0.4882   0.4765 0.4980   0.4911
monotone i39 20 r9   0.4808   0.4716 0.4928   0.4911
monotone i39 20 r10   0.4922   0.4807 0.4997   0.4911
monotone i40 20 r1   0.5923   0.5814 0.6025   0.5933
monotone i40 20 r2   0.5910   0.5821 0.6059   0.5933
monotone i40 20 r3   0.5889   0.5829 0.6042   0.5933
monotone i40 20 r4   0.5904   0.5836 0.6061   0.5933
monotone i40 20 r5   0.5958   0.5841 0.6054   0.5933
monotone i40 20 r6   0.5968   0.5840 0.6069   0.5933
monotone i40 20 r7   0.5973   0.5847 0.6089   0.5933
monotone i40 20 r8   0.6001   0.5870 0.6103   0.5933
monotone i40 20 r9   0.5861   0.5800 0.6010   0.5933
monotone i40 20 r10   0.5871   0.5806 0.6019   0.5933
monotone i41 20 r1   0.1336   0.1285 0.1372   0.1322
monotone i41 20 r2   0.1357   0.1310 0.1395   0.1322
monotone i41 20 r3   0.1331   0.1284 0.1375   0.1322
monotone i41 20 r4   0.1329   0.1285 0.1380   0.1322
monotone i41 20 r5   0.1321   0.1277 0.1372   0.1322
monotone i41 20 r6   0.1308   0.1264 0.1369   0.1322
monotone i41 20 r7   0.1314   0.1271 0.1358   0.1322
monotone i41 20 r8   0.1352   0.1300 0.1391   0.1322
monotone i41 20 r9   0.1341   0.1296 0.1381   0.1322
monotone i41 20 r10   0.1356   0.1300 0.1392   0.1322
monotone i42 20 r1   0.3648   0.3599 0.3683   0.3627
monotone i42 20 r2   0.3630   0.3584 0.3665   0.3627
monotone i42 20 r3   0.3618   0.3580 0.3663   0.3627
monotone i42 20 r4   0.3651   0.3606 0.3684   0.3627
monotone i42 20 r5   0.3616   0.3568 0.3655   0.3627
monotone i42 20 r6   0.3617   0.3579 0.3669   0.3627
monotone i42 20 r7   0.3623   0.3580 0.3666   0.3627
monotone i42 20 r8   0.3642   0.3593 0.3676   0.3627
monotone i42 20 r9   0.3609   0.3561 0.3648   0.3627
monotone i42 20 r10   0.3631   0.3581 0.3667   0.3627
monotone i43 20 r1   0.1535   0.1482 0.1570   0.1521
monotone i43 20 r2   0.1506   0.1464 0.1559   0.1521
monotone i43 20 r3   0.1503   0.1464 0.1558   0.1521
monotone i43 20 r4   0.1530   0.1477 0.1566   0.1521
monotone i43 20 r5   0.1543   0.1490 0.1579   0.1521
monotone i43 20 r6   0.1530   0.1479 0.1562   0.1521
monotone i43 20 r7   0.1504   0.1467 0.1557   0.1521
monotone i43 20 r8   0.1540   0.1488 0.1575   0.1521
monotone i43 20 r9   0.1530   0.1480 0.1575   0.1521
monotone i43 20 r10   0.1514   0.1466 0.1561   0.1521
monotone i44 20 r1   0.5313   0.5199 0.5471   0.5335
monotone i44 20 r2   0.5270   0.5186 0.5442   0.5335
monotone i44 20 r3   0.5343   0.5225 0.5497   0.5335
monotone i44 20 r4   0.5317   0.5170 0.5417   0.5335
monotone i44 20 r5   0.5350   0.5215 0.5487   0.5335
monotone i44 20 r6   0.5313   0.5170 0.5414   0.5335
monotone i44 20 r7   0.5260   0.5198 0.5430   0.5335
monotone i44 20 r8   0.5272   0.5205 0.5450   0.5335
monotone i44 20 r9   0.5221   0.5156 0.5400   0.5335
monotone i44 20 r10   0.5361   0.5209 0.5466   0.5335
monotone i45 20 r1   0.2781   0.2756 0.2806   0.2794
monotone i45 20 r2   0.2792   0.2768 0.2817   0.2794
monotone i45 20 r3   0.2801   0.2775 0.2826   0.2794
monotone i45 20 r4   0.2800   0.2775 0.2825   0.2794
monotone i45 20 r5   0.2800   0.2774 0.2826   0.2794
monotone i45 20 r6   0.2779   0.2756 0.2805   0.2794
monotone i45 20 r7   0.2798   0.2774 0.2823   0.2794
monotone i45 20 r8   0.2776   0.2751 0.2801   0.2794
monotone i45 20 r9   0.2808   0.2783 0.2833   0.2794
monotone i45 20 r10   0.2792   0.2767 0.2818   0.2794
monotone i46 20 r1   0.4503   0.4411 0.4559   0.4475
monotone i46 20 r2   0.4506   0.4427 0.4580   0.4475
monotone i46 20 r3   0.4463   0.4392 0.4541   0.4475
monotone i46 20 r4   0.4481   0.4403 0.4554   0.4475
monotone i46 20 r5   0.4450   0.4389 0.4538   0.4475
monotone i46 20 r6   0.4473   0.4401 0.4549   0.4475
monotone i46 20 r7   0.4476   0.4411 0.4561   0.4475
monotone i46 20 r8   0.4510   0.4415 0.4564   0.4475
monotone i46 20 r9   0.4441   0.4380 0.4529   0.4475
monotone i46 20 r10   0.4453   0.4380 0.4531   0.4475
monotone i47 20 r1   0.5762   0.5646 0.5903   0.5757
monotone i47 20 r2   0.5804   0.5675 0.5928   0.5757
monotone i47 20 r3   0.5688   0.5629 0.5854   0.5757
monotone i47 20 r4   0.5714   0.5646 0.5881   0.5757
monotone i47 20 r5   0.5732   0.5617 0.5863   0.5757
monotone i47 20 r6   0.5701   0.5624 0.5867   0.5757
monotone i47 20 r7   0.5686   0.5608 0.5844   0.5757
monotone i47 20 r8   0.5673   0.5614 0.5822   0.5757
monotone i47 20 r9   0.5766   0.5672 0.5921   0.5757
monotone i47 20 r10   0.5706   0.5634 0.5869   0.5757
monotone i48 20 r1   0.5160   0.5083 0.5238   0.5148
monotone i48 20 r2   0.5115   0.5052 0.5200   0.5148
monotone i48 20 r3   0.5127   0.5032 0.5190   0.5148
monotone i48 20 r4   0.5155   0.5076 0.5231   0.5148
monotone i48 20 r5   0.5169   0.5079 0.5228   0.5148
monotone i48 20 r6   0.5142   0.5068 0.5224   0.5148
monotone i48 20 r7   0.5137   0.5068 0.5222   0.5148
monotone i48 20 r8   0.5173   0.5091 0.5247   0.5148
monotone i48 20 r9   0.5160   0.5060 0.5227   0.5148
monotone i48 20 r10   0.5104   0.5014 0.5186   0.5148
monotone i49 20 r1   0.1998   0.1902 0.2076   0.1964
monotone i49 20 r2   0.1920   0.1855 0.2022   0.1964
monotone i49 20 r3   0.1989   0.1894 0.2067   0.1964
monotone i49 20 r4   0.1921   0.1867 0.2012   0.1964
monotone i49 20 r5   0.1961   0.1879 0.2058   0.1964
monotone i49 20 r6   0.1934   0.1884 0.2040   0.1964
monotone i49 20 r7   0.1957   0.1872 0.2045   0.1964
monotone i49 20 r8   0.1978   0.1877 0.2050   0.1964
monotone i49 20 r9   0.2012   0.1920 0.2091   0.1964
monotone i49 20 r10   0.1950   0.1871 0.2028   0.1964
monotone i50 20 r1   0.3982   0.3905 0.4029   0.3953
monotone i50 20 r2   0.3966   0.3881 0.4015   0.3953
monotone i50 20 r3   0.3947   0.3867 0.4009   0.3953
monotone i50 20 r4   0.3957   0.3884 0.4028   0.3953
monotone i50 20 r5   0.3983   0.3900 0.4032   0.3953
monotone i50 20 r6   0.3942   0.3863 0.4004   0.3953
monotone i50 20 r7   0.3963   0.3880 0.4019   0.3953
monotone i50 20 r8   0.3918   0.3836 0.3981   0.3953
monotone i50 20 r9   0.3985   0.3901 0.4032   0.3953
monotone i50 20 r10   0.3983   0.3899 0.4030   0.3953
