wgbs 43_Hm03_BlMa_TO2_WGBS_E_TS 20 r1   0.0193   0.0189 0.0198   0.0193
wgbs 43_Hm03_BlMa_TO2_WGBS_E_TS 20 r2   0.0193   0.0187 0.0197   0.0193
wgbs 43_Hm03_BlMa_TO2_WGBS_E_TS 20 r3   0.0191   0.0187 0.0197   0.0193
wgbs 43_Hm03_BlMa_TO2_WGBS_E_TS 20 r4   0.0194   0.0189 0.0198   0.0193
wgbs 43_Hm03_BlMa_TO2_WGBS_E_TS 20 r5   0.0191   0.0187 0.0197   0.0193
wgbs 43_Hm03_BlMa_TO2_WGBS_E_TS 20 r6   0.0194   0.0188 0.0197   0.0193
wgbs 43_Hm03_BlMa_TO2_WGBS_E_TS 20 r7   0.0191   0.0188 0.0197   0.0193
wgbs 43_Hm03_BlMa_TO2_WGBS_E_TS 20 r8   0.0194   0.0187 0.0197   0.0193
wgbs 43_Hm03_BlMa_TO2_WGBS_E_TS 20 r9   0.0194   0.0188 0.0197   0.0193
wgbs 43_Hm03_BlMa_TO2_WGBS_E_TS 20 r10   0.0195   0.0189 0.0198   0.0193
wgbs 43_Hm05_BlMa_TO_WGBS_E 20 r1   0.1142   0.1124 0.1152   0.1142
wgbs 43_Hm05_BlMa_TO_WGBS_E 20 r2   0.1141   0.1123 0.1149   0.1142
wgbs 43_Hm05_BlMa_TO_WGBS_E 20 r3   0.1143   0.1124 0.1151   0.1142
wgbs 43_Hm05_BlMa_TO_WGBS_E 20 r4   0.1142   0.1124 0.1150   0.1142
wgbs 43_Hm05_BlMa_TO_WGBS_E 20 r5   0.1138   0.1121 0.1148   0.1142
wgbs 43_Hm05_BlMa_TO_WGBS_E 20 r6   0.1142   0.1126 0.1153   0.1142
wgbs 43_Hm05_BlMa_TO_WGBS_E 20 r7   0.1144   0.1127 0.1153   0.1142
wgbs 43_Hm05_BlMa_TO_WGBS_E 20 r8   0.1145   0.1127 0.1154   0.1142
wgbs 43_Hm05_BlMa_TO_WGBS_E 20 r9   0.1144   0.1126 0.1151   0.1142
wgbs 43_Hm05_BlMa_TO_WGBS_E 20 r10   0.1138   0.1124 0.1151   0.1142
wgbs 43_Hm05_BlMo_Ct_WGBS_E 20 r1   0.0673   0.0661 0.0680   0.0674
wgbs 43_Hm05_BlMo_Ct_WGBS_E 20 r2   0.0671   0.0660 0.0679   0.0674
wgbs 43_Hm05_BlMo_Ct_WGBS_E 20 r3   0.0672   0.0660 0.0679   0.0674
wgbs 43_Hm05_BlMo_Ct_WGBS_E 20 r4   0.0672   0.0661 0.0680   0.0674
wgbs 43_Hm05_BlMo_Ct_WGBS_E 20 r5   0.0674   0.0662 0.0681   0.0674
wgbs 43_Hm05_BlMo_Ct_WGBS_E 20 r6   0.0672   0.0659 0.0679   0.0674
wgbs 43_Hm05_BlMo_Ct_WGBS_E 20 r7   0.0674   0.0662 0.0681   0.0674
wgbs 43_Hm05_BlMo_Ct_WGBS_E 20 r8   0.0672   0.0660 0.0678   0.0674
wgbs 43_Hm05_BlMo_Ct_WGBS_E 20 r9   0.0676   0.0663 0.0681   0.0674
wgbs 43_Hm05_BlMo_Ct_WGBS_E 20 r10   0.0675   0.0663 0.0681   0.0674
wgbs 43_Hm03_BlMo_Ct2_WGBS_E_TS 20 r1   0.0186   0.0182 0.0192   0.0187
wgbs 43_Hm03_BlMo_Ct2_WGBS_E_TS 20 r2   0.0190   0.0183 0.0193   0.0187
wgbs 43_Hm03_BlMo_Ct2_WGBS_E_TS 20 r3   0.0189   0.0183 0.0193   0.0187
wgbs 43_Hm03_BlMo_Ct2_WGBS_E_TS 20 r4   0.0190   0.0183 0.0193   0.0187
wgbs 43_Hm03_BlMo_Ct2_WGBS_E_TS 20 r5   0.0188   0.0181 0.0191   0.0187
wgbs 43_Hm03_BlMo_Ct2_WGBS_E_TS 20 r6   0.0188   0.0181 0.0192   0.0187
wgbs 43_Hm03_BlMo_Ct2_WGBS_E_TS 20 r7   0.0187   0.0182 0.0192   0.0187
wgbs 43_Hm03_BlMo_Ct2_WGBS_E_TS 20 r8   0.0186   0.0182 0.0192   0.0187
wgbs 43_Hm03_BlMo_Ct2_WGBS_E_TS 20 r9   0.0186   0.0182 0.0192   0.0187
wgbs 43_Hm03_BlMo_Ct2_WGBS_E_TS 20 r10   0.0185   0.0181 0.0191   0.0187
wgbs M55900 20 r1   0.1299   0.1288 0.1317   0.1304
wgbs M55900 20 r2   0.1299   0.1289 0.1318   0.1304
wgbs M55900 20 r3   0.1302   0.1291 0.1319   0.1304
wgbs M55900 20 r4   0.1299   0.1289 0.1319   0.1304
wgbs M55900 20 r5   0.1300   0.1290 0.1319   0.1304
wgbs M55900 20 r6   0.1298   0.1288 0.1317   0.1304
wgbs M55900 20 r7   0.1302   0.1289 0.1319   0.1304
wgbs M55900 20 r8   0.1303   0.1292 0.1320   0.1304
wgbs M55900 20 r9   0.1309   0.1293 0.1322   0.1304
wgbs M55900 20 r10   0.1303   0.1291 0.1320   0.1304
wgbs 53_Mf06_LPFi_RA_WGBS_EC 20 r1   0.2169   0.2142 0.2196   0.2178
wgbs 53_Mf06_LPFi_RA_WGBS_EC 20 r2   0.2168   0.2146 0.2200   0.2178
wgbs 53_Mf06_LPFi_RA_WGBS_EC 20 r3   0.2182   0.2146 0.2202   0.2178
wgbs 53_Mf06_LPFi_RA_WGBS_EC 20 r4   0.2181   0.2145 0.2201   0.2178
wgbs 53_Mf06_LPFi_RA_WGBS_EC 20 r5   0.2158   0.2140 0.2195   0.2178
wgbs 53_Mf06_LPFi_RA_WGBS_EC 20 r6   0.2173   0.2151 0.2205   0.2178
wgbs 53_Mf06_LPFi_RA_WGBS_EC 20 r7   0.2190   0.2153 0.2205   0.2178
wgbs 53_Mf06_LPFi_RA_WGBS_EC 20 r8   0.2162   0.2145 0.2199   0.2178
wgbs 53_Mf06_LPFi_RA_WGBS_EC 20 r9   0.2160   0.2138 0.2194   0.2178
wgbs 53_Mf06_LPFi_RA_WGBS_EC 20 r10   0.2160   0.2142 0.2200   0.2178
wgbs 43_Hm02_BIMo_WGBS_E_3D_II 20 r1   0.0246   0.0240 0.0250   0.0246
wgbs 43_Hm02_BIMo_WGBS_E_3D_II 20 r2   0.0247   0.0242 0.0250   0.0246
wgbs 43_Hm02_BIMo_WGBS_E_3D_II 20 r3   0.0245   0.0240 0.0251   0.0246
wgbs 43_Hm02_BIMo_WGBS_E_3D_II 20 r4   0.0244   0.0241 0.0251   0.0246
wgbs 43_Hm02_BIMo_WGBS_E_3D_II 20 r5   0.0248   0.0241 0.0251   0.0246
wgbs 43_Hm02_BIMo_WGBS_E_3D_II 20 r6   0.0247   0.0241 0.0251   0.0246
wgbs 43_Hm02_BIMo_WGBS_E_3D_II 20 r7   0.0244   0.0241 0.0251   0.0246
wgbs 43_Hm02_BIMo_WGBS_E_3D_II 20 r8   0.0248   0.0241 0.0251   0.0246
wgbs 43_Hm02_BIMo_WGBS_E_3D_II 20 r9   0.0247   0.0240 0.0250   0.0246
wgbs 43_Hm02_BIMo_WGBS_E_3D_II 20 r10   0.0247   0.0242 0.0252   0.0246
wgbs NOMe_plus_1 20 r1   0.1004   0.0984 0.1012   0.0998
wgbs NOMe_plus_1 20 r2   0.1001   0.0981 0.1010   0.0998
wgbs NOMe_plus_1 20 r3   0.1001   0.0983 0.1011   0.0998
wgbs NOMe_plus_1 20 r4   0.1000   0.0982 0.1013   0.0998
wgbs NOMe_plus_1 20 r5   0.1000   0.0983 0.1012   0.0998
wgbs NOMe_plus_1 20 r6   0.0993   0.0982 0.1011   0.0998
wgbs NOMe_plus_1 20 r7   0.1006   0.0986 0.1014   0.0998
wgbs NOMe_plus_1 20 r8   0.0996   0.0982 0.1011   0.0998
wgbs NOMe_plus_1 20 r9   0.1002   0.0984 0.1012   0.0998
wgbs NOMe_plus_1 20 r10   0.0993   0.0982 0.1009   0.0998
wgbs 41_Hf02_LiHe_C1_WGBS 20 r1   0.0391   0.0386 0.0394   0.0391
wgbs 41_Hf02_LiHe_C1_WGBS 20 r2   0.0391   0.0388 0.0395   0.0391
wgbs 41_Hf02_LiHe_C1_WGBS 20 r3   0.0393   0.0388 0.0395   0.0391
wgbs 41_Hf02_LiHe_C1_WGBS 20 r4   0.0391   0.0387 0.0395   0.0391
wgbs 41_Hf02_LiHe_C1_WGBS 20 r5   0.0391   0.0388 0.0396   0.0391
wgbs 41_Hf02_LiHe_C1_WGBS 20 r6   0.0391   0.0388 0.0395   0.0391
wgbs 41_Hf02_LiHe_C1_WGBS 20 r7   0.0392   0.0388 0.0395   0.0391
wgbs 41_Hf02_LiHe_C1_WGBS 20 r8   0.0392   0.0387 0.0395   0.0391
wgbs 41_Hf02_LiHe_C1_WGBS 20 r9   0.0391   0.0388 0.0396   0.0391
wgbs 41_Hf02_LiHe_C1_WGBS 20 r10   0.0392   0.0389 0.0396   0.0391
wgbs Test52_Hf01_CoMu_UC1_WGBS_E 20 r1   0.0564   0.0560 0.0570   0.0564
wgbs Test52_Hf01_CoMu_UC1_WGBS_E 20 r2   0.0562   0.0559 0.0567   0.0564
wgbs Test52_Hf01_CoMu_UC1_WGBS_E 20 r3   0.0565   0.0560 0.0569   0.0564
wgbs Test52_Hf01_CoMu_UC1_WGBS_E 20 r4   0.0564   0.0561 0.0570   0.0564
wgbs Test52_Hf01_CoMu_UC1_WGBS_E 20 r5   0.0567   0.0562 0.0571   0.0564
wgbs Test52_Hf01_CoMu_UC1_WGBS_E 20 r6   0.0565   0.0561 0.0570   0.0564
wgbs Test52_Hf01_CoMu_UC1_WGBS_E 20 r7   0.0561   0.0557 0.0567   0.0564
wgbs Test52_Hf01_CoMu_UC1_WGBS_E 20 r8   0.0566   0.0561 0.0571   0.0564
wgbs Test52_Hf01_CoMu_UC1_WGBS_E 20 r9   0.0566   0.0561 0.0570   0.0564
wgbs Test52_Hf01_CoMu_UC1_WGBS_E 20 r10   0.0566   0.0561 0.0570   0.0564
wgbs 44_Mm08_WEAd_Db1_TS 20 r1   0.0694   0.0683 0.0712   0.0747
wgbs 44_Mm08_WEAd_Db1_TS 20 r2   0.0697   0.0686 0.0714   0.0747
wgbs 44_Mm08_WEAd_Db1_TS 20 r3   0.0704   0.0688 0.0715   0.0747
wgbs 44_Mm08_WEAd_Db1_TS 20 r4   0.0696   0.0686 0.0715   0.0747
wgbs 44_Mm08_WEAd_Db1_TS 20 r5   0.0703   0.0684 0.0713   0.0747
wgbs 44_Mm08_WEAd_Db1_TS 20 r6   0.0700   0.0689 0.0716   0.0747
wgbs 44_Mm08_WEAd_Db1_TS 20 r7   0.0701   0.0689 0.0715   0.0747
wgbs 44_Mm08_WEAd_Db1_TS 20 r8   0.0705   0.0688 0.0716   0.0747
wgbs 44_Mm08_WEAd_Db1_TS 20 r9   0.0703   0.0688 0.0715   0.0747
wgbs 44_Mm08_WEAd_Db1_TS 20 r10   0.0699   0.0688 0.0717   0.0747
wgbs 20780_EC 20 r1   0.2797   0.2745 0.2820   0.2800
wgbs 20780_EC 20 r2   0.2815   0.2759 0.2840   0.2800
wgbs 20780_EC 20 r3   0.2811   0.2760 0.2833   0.2800
wgbs 20780_EC 20 r4   0.2795   0.2746 0.2819   0.2800
wgbs 20780_EC 20 r5   0.2798   0.2745 0.2821   0.2800
wgbs 20780_EC 20 r6   0.2818   0.2764 0.2839   0.2800
wgbs 20780_EC 20 r7   0.2783   0.2741 0.2820   0.2800
wgbs 20780_EC 20 r8   0.2798   0.2746 0.2821   0.2800
wgbs 20780_EC 20 r9   0.2794   0.2740 0.2822   0.2800
wgbs 20780_EC 20 r10   0.2797   0.2744 0.2826   0.2800
wgbs 43_Hm03_BlMa_TO2_WGBS_E_EC 20 r1   0.1899   0.1876 0.1930   0.1915
wgbs 43_Hm03_BlMa_TO2_WGBS_E_EC 20 r2   0.1924   0.1889 0.1943   0.1915
wgbs 43_Hm03_BlMa_TO2_WGBS_E_EC 20 r3   0.1912   0.1883 0.1935   0.1915
wgbs 43_Hm03_BlMa_TO2_WGBS_E_EC 20 r4   0.1905   0.1881 0.1932   0.1915
wgbs 43_Hm03_BlMa_TO2_WGBS_E_EC 20 r5   0.1900   0.1878 0.1931   0.1915
wgbs 43_Hm03_BlMa_TO2_WGBS_E_EC 20 r6   0.1912   0.1877 0.1930   0.1915
wgbs 43_Hm03_BlMa_TO2_WGBS_E_EC 20 r7   0.1889   0.1876 0.1928   0.1915
wgbs 43_Hm03_BlMa_TO2_WGBS_E_EC 20 r8   0.1919   0.1884 0.1939   0.1915
wgbs 43_Hm03_BlMa_TO2_WGBS_E_EC 20 r9   0.1924   0.1887 0.1942   0.1915
wgbs 43_Hm03_BlMa_TO2_WGBS_E_EC 20 r10   0.1918   0.1881 0.1936   0.1915
wgbs 53_Mf08_LPFi_RA_WGBS_TS 20 r1   0.1073   0.1058 0.1094   0.1139
wgbs 53_Mf08_LPFi_RA_WGBS_TS 20 r2   0.1064   0.1052 0.1090   0.1139
wgbs 53_Mf08_LPFi_RA_WGBS_TS 20 r3   0.1064   0.1053 0.1089   0.1139
wgbs 53_Mf08_LPFi_RA_WGBS_TS 20 r4   0.1072   0.1058 0.1098   0.1139
wgbs 53_Mf08_LPFi_RA_WGBS_TS 20 r5   0.1080   0.1065 0.1099   0.1139
wgbs 53_Mf08_LPFi_RA_WGBS_TS 20 r6   0.1075   0.1058 0.1096   0.1139
wgbs 53_Mf08_LPFi_RA_WGBS_TS 20 r7   0.1074   0.1060 0.1101   0.1139
wgbs 53_Mf08_LPFi_RA_WGBS_TS 20 r8   0.1060   0.1047 0.1088   0.1139
wgbs 53_Mf08_LPFi_RA_WGBS_TS 20 r9   0.1077   0.1064 0.1100   0.1139
wgbs 53_Mf08_LPFi_RA_WGBS_TS 20 r10   0.1075   0.1057 0.1095   0.1139
wgbs 53_Mf08_LPFi_RA_TS 20 r1   0.1035   0.1011 0.1050   0.1093
wgbs 53_Mf08_LPFi_RA_TS 20 r2   0.1030   0.1016 0.1053   0.1093
wgbs 53_Mf08_LPFi_RA_TS 20 r3   0.1026   0.1012 0.1052   0.1093
wgbs 53_Mf08_LPFi_RA_TS 20 r4   0.1034   0.1013 0.1052   0.1093
wgbs 53_Mf08_LPFi_RA_TS 20 r5   0.1029   0.1014 0.1053   0.1093
wgbs 53_Mf08_LPFi_RA_TS 20 r6   0.1032   0.1017 0.1054   0.1093
wgbs 53_Mf08_LPFi_RA_TS 20 r7   0.1021   0.1008 0.1050   0.1093
wgbs 53_Mf08_LPFi_RA_TS 20 r8   0.1031   0.1010 0.1051   0.1093
wgbs 53_Mf08_LPFi_RA_TS 20 r9   0.1026   0.1011 0.1052   0.1093
wgbs 53_Mf08_LPFi_RA_TS 20 r10   0.1030   0.1016 0.1053   0.1093
wgbs 44_Mm08_WEAd_Db1_WGBS_E 20 r1   0.1205   0.1198 0.1221   0.1239
wgbs 44_Mm08_WEAd_Db1_WGBS_E 20 r2   0.1210   0.1198 0.1228   0.1239
wgbs 44_Mm08_WEAd_Db1_WGBS_E 20 r3   0.1202   0.1195 0.1223   0.1239
wgbs 44_Mm08_WEAd_Db1_WGBS_E 20 r4   0.1208   0.1195 0.1224   0.1239
wgbs 44_Mm08_WEAd_Db1_WGBS_E 20 r5   0.1199   0.1193 0.1220   0.1239
wgbs 44_Mm08_WEAd_Db1_WGBS_E 20 r6   0.1202   0.1196 0.1224   0.1239
wgbs 44_Mm08_WEAd_Db1_WGBS_E 20 r7   0.1203   0.1197 0.1224   0.1239
wgbs 44_Mm08_WEAd_Db1_WGBS_E 20 r8   0.1202   0.1196 0.1223   0.1239
wgbs 44_Mm08_WEAd_Db1_WGBS_E 20 r9   0.1205   0.1199 0.1225   0.1239
wgbs 44_Mm08_WEAd_Db1_WGBS_E 20 r10   0.1205   0.1198 0.1225   0.1239
wgbs 19227_TS 20 r1   0.1011   0.0999 0.1020   0.1008
wgbs 19227_TS 20 r2   0.1008   0.0997 0.1017   0.1008
wgbs 19227_TS 20 r3   0.1014   0.1000 0.1020   0.1008
wgbs 19227_TS 20 r4   0.1006   0.0999 0.1019   0.1008
wgbs 19227_TS 20 r5   0.1008   0.0999 0.1019   0.1008
wgbs 19227_TS 20 r6   0.1013   0.1000 0.1021   0.1008
wgbs 19227_TS 20 r7   0.1012   0.0999 0.1019   0.1008
wgbs 19227_TS 20 r8   0.1004   0.0996 0.1016   0.1008
wgbs 19227_TS 20 r9   0.1006   0.0998 0.1018   0.1008
wgbs 19227_TS 20 r10   0.1009   0.0998 0.1018   0.1008
wgbs 52_Hm03_CoMu_CT20_TS 20 r1   0.0186   0.0183 0.0190   0.0187
wgbs 52_Hm03_CoMu_CT20_TS 20 r2   0.0187   0.0183 0.0190   0.0187
wgbs 52_Hm03_CoMu_CT20_TS 20 r3   0.0189   0.0185 0.0191   0.0187
wgbs 52_Hm03_CoMu_CT20_TS 20 r4   0.0186   0.0184 0.0190   0.0187
wgbs 52_Hm03_CoMu_CT20_TS 20 r5   0.0186   0.0182 0.0189   0.0187
wgbs 52_Hm03_CoMu_CT20_TS 20 r6   0.0187   0.0184 0.0191   0.0187
wgbs 52_Hm03_CoMu_CT20_TS 20 r7   0.0187   0.0183 0.0190   0.0187
wgbs 52_Hm03_CoMu_CT20_TS 20 r8   0.0188   0.0184 0.0190   0.0187
wgbs 52_Hm03_CoMu_CT20_TS 20 r9   0.0189   0.0185 0.0191   0.0187
wgbs 52_Hm03_CoMu_CT20_TS 20 r10   0.0187   0.0184 0.0190   0.0187
wgbs 44_Mm01_WEAd_C21_WGBS_A1 20 r1   0.1242   0.1236 0.1257   0.1292
wgbs 44_Mm01_WEAd_C21_WGBS_A1 20 r2   0.1245   0.1238 0.1259   0.1292
wgbs 44_Mm01_WEAd_C21_WGBS_A1 20 r3   0.1240   0.1235 0.1255   0.1292
wgbs 44_Mm01_WEAd_C21_WGBS_A1 20 r4   0.1240   0.1234 0.1256   0.1292
wgbs 44_Mm01_WEAd_C21_WGBS_A1 20 r5   0.1238   0.1233 0.1253   0.1292
wgbs 44_Mm01_WEAd_C21_WGBS_A1 20 r6   0.1239   0.1232 0.1254   0.1292
wgbs 44_Mm01_WEAd_C21_WGBS_A1 20 r7   0.1245   0.1240 0.1260   0.1292
wgbs 44_Mm01_WEAd_C21_WGBS_A1 20 r8   0.1240   0.1234 0.1255   0.1292
wgbs 44_Mm01_WEAd_C21_WGBS_A1 20 r9   0.1239   0.1232 0.1254   0.1292
wgbs 44_Mm01_WEAd_C21_WGBS_A1 20 r10   0.1237   0.1232 0.1251   0.1292
wgbs 43_Hm02_BIMo_WGBS_E_3D_I 20 r1   0.0436   0.0428 0.0447   0.0436
wgbs 43_Hm02_BIMo_WGBS_E_3D_I 20 r2   0.0439   0.0428 0.0447   0.0436
wgbs 43_Hm02_BIMo_WGBS_E_3D_I 20 r3   0.0441   0.0428 0.0447   0.0436
wgbs 43_Hm02_BIMo_WGBS_E_3D_I 20 r4   0.0436   0.0426 0.0445   0.0436
wgbs 43_Hm02_BIMo_WGBS_E_3D_I 20 r5   0.0439   0.0426 0.0445   0.0436
wgbs 43_Hm02_BIMo_WGBS_E_3D_I 20 r6   0.0436   0.0425 0.0444   0.0436
wgbs 43_Hm02_BIMo_WGBS_E_3D_I 20 r7   0.0438   0.0425 0.0444   0.0436
wgbs 43_Hm02_BIMo_WGBS_E_3D_I 20 r8   0.0437   0.0424 0.0444   0.0436
wgbs 43_Hm02_BIMo_WGBS_E_3D_I 20 r9   0.0432   0.0423 0.0443   0.0436
wgbs 43_Hm02_BIMo_WGBS_E_3D_I 20 r10   0.0427   0.0421 0.0440   0.0436
wgbs 52_Hm03_CoMu_UC21_TS 20 r1   0.0303   0.0301 0.0308   0.0305
wgbs 52_Hm03_CoMu_UC21_TS 20 r2   0.0305   0.0302 0.0310   0.0305
wgbs 52_Hm03_CoMu_UC21_TS 20 r3   0.0305   0.0302 0.0309   0.0305
wgbs 52_Hm03_CoMu_UC21_TS 20 r4   0.0307   0.0302 0.0309   0.0305
wgbs 52_Hm03_CoMu_UC21_TS 20 r5   0.0303   0.0299 0.0307   0.0305
wgbs 52_Hm03_CoMu_UC21_TS 20 r6   0.0304   0.0300 0.0307   0.0305
wgbs 52_Hm03_CoMu_UC21_TS 20 r7   0.0304   0.0299 0.0307   0.0305
wgbs 52_Hm03_CoMu_UC21_TS 20 r8   0.0304   0.0300 0.0308   0.0305
wgbs 52_Hm03_CoMu_UC21_TS 20 r9   0.0305   0.0301 0.0309   0.0305
wgbs 52_Hm03_CoMu_UC21_TS 20 r10   0.0303   0.0300 0.0308   0.0305
wgbs 21437 20 r1   0.1706   0.1578 0.1736   0.5243
wgbs 21437 20 r2   0.1602   0.1560 0.1723   0.5243
wgbs 21437 20 r3   0.1631   0.1567 0.1730   0.5243
wgbs 21437 20 r4   0.1679   0.1571 0.1734   0.5243
wgbs 21437 20 r5   0.1628   0.1577 0.1740   0.5243
wgbs 21437 20 r6   0.1621   0.1567 0.1733   0.5243
wgbs 21437 20 r7   0.1698   0.1568 0.1733   0.5243
wgbs 21437 20 r8   0.1688   0.1567 0.1728   0.5243
wgbs 21437 20 r9   0.1692   0.1567 0.1732   0.5243
wgbs 21437 20 r10   0.1637   0.1566 0.1733   0.5243
wgbs 19227_EC 20 r1   0.2400   0.2356 0.2428   0.2401
wgbs 19227_EC 20 r2   0.2401   0.2356 0.2425   0.2401
wgbs 19227_EC 20 r3   0.2400   0.2355 0.2421   0.2401
wgbs 19227_EC 20 r4   0.2392   0.2357 0.2426   0.2401
wgbs 19227_EC 20 r5   0.2404   0.2358 0.2426   0.2401
wgbs 19227_EC 20 r6   0.2380   0.2343 0.2412   0.2401
wgbs 19227_EC 20 r7   0.2400   0.2354 0.2424   0.2401
wgbs 19227_EC 20 r8   0.2397   0.2352 0.2420   0.2401
wgbs 19227_EC 20 r9   0.2378   0.2357 0.2424   0.2401
wgbs 19227_EC 20 r10   0.2403   0.2357 0.2427   0.2401
wgbs 53_Mf07_LPFi_CT_WGBS_TS 20 r1   0.1115   0.1093 0.1129   0.1174
wgbs 53_Mf07_LPFi_CT_WGBS_TS 20 r2   0.1106   0.1093 0.1129   0.1174
wgbs 53_Mf07_LPFi_CT_WGBS_TS 20 r3   0.1108   0.1095 0.1130   0.1174
wgbs 53_Mf07_LPFi_CT_WGBS_TS 20 r4   0.1104   0.1090 0.1129   0.1174
wgbs 53_Mf07_LPFi_CT_WGBS_TS 20 r5   0.1120   0.1098 0.1132   0.1174
wgbs 53_Mf07_LPFi_CT_WGBS_TS 20 r6   0.1115   0.1092 0.1129   0.1174
wgbs 53_Mf07_LPFi_CT_WGBS_TS 20 r7   0.1104   0.1091 0.1127   0.1174
wgbs 53_Mf07_LPFi_CT_WGBS_TS 20 r8   0.1103   0.1090 0.1130   0.1174
wgbs 53_Mf07_LPFi_CT_WGBS_TS 20 r9   0.1108   0.1095 0.1132   0.1174
wgbs 53_Mf07_LPFi_CT_WGBS_TS 20 r10   0.1106   0.1094 0.1130   0.1174
wgbs 53_Mf05_LPFi_CT_WGBS_E 20 r1   0.2193   0.2183 0.2221   0.2251
wgbs 53_Mf05_LPFi_CT_WGBS_E 20 r2   0.2186   0.2178 0.2215   0.2251
wgbs 53_Mf05_LPFi_CT_WGBS_E 20 r3   0.2190   0.2180 0.2219   0.2251
wgbs 53_Mf05_LPFi_CT_WGBS_E 20 r4   0.2191   0.2182 0.2220   0.2251
wgbs 53_Mf05_LPFi_CT_WGBS_E 20 r5   0.2194   0.2184 0.2224   0.2251
wgbs 53_Mf05_LPFi_CT_WGBS_E 20 r6   0.2192   0.2183 0.2221   0.2251
wgbs 53_Mf05_LPFi_CT_WGBS_E 20 r7   0.2187   0.2178 0.2219   0.2251
wgbs 53_Mf05_LPFi_CT_WGBS_E 20 r8   0.2189   0.2180 0.2217   0.2251
wgbs 53_Mf05_LPFi_CT_WGBS_E 20 r9   0.2198   0.2188 0.2227   0.2251
wgbs 53_Mf05_LPFi_CT_WGBS_E 20 r10   0.2191   0.2182 0.2221   0.2251
wgbs 43_Hm02_BIMo_WGBS_E_3_4_ext 20 r1   0.1135   0.1116 0.1145   0.1134
wgbs 43_Hm02_BIMo_WGBS_E_3_4_ext 20 r2   0.1139   0.1119 0.1147   0.1134
wgbs 43_Hm02_BIMo_WGBS_E_3_4_ext 20 r3   0.1140   0.1122 0.1148   0.1134
wgbs 43_Hm02_BIMo_WGBS_E_3_4_ext 20 r4   0.1141   0.1122 0.1148   0.1134
wgbs 43_Hm02_BIMo_WGBS_E_3_4_ext 20 r5   0.1136   0.1118 0.1145   0.1134
wgbs 43_Hm02_BIMo_WGBS_E_3_4_ext 20 r6   0.1141   0.1122 0.1148   0.1134
wgbs 43_Hm02_BIMo_WGBS_E_3_4_ext 20 r7   0.1129   0.1119 0.1147   0.1134
wgbs 43_Hm02_BIMo_WGBS_E_3_4_ext 20 r8   0.1139   0.1120 0.1147   0.1134
wgbs 43_Hm02_BIMo_WGBS_E_3_4_ext 20 r9   0.1137   0.1118 0.1145   0.1134
wgbs 43_Hm02_BIMo_WGBS_E_3_4_ext 20 r10   0.1135   0.1118 0.1146   0.1134
wgbs 44_Mm04_WEAd_C11_WGBS_E_EC 20 r1   0.2733   0.2682 0.2757   0.2733
wgbs 44_Mm04_WEAd_C11_WGBS_E_EC 20 r2   0.2709   0.2672 0.2746   0.2733
wgbs 44_Mm04_WEAd_C11_WGBS_E_EC 20 r3   0.2746   0.2693 0.2766   0.2733
wgbs 44_Mm04_WEAd_C11_WGBS_E_EC 20 r4   0.2731   0.2685 0.2757   0.2733
wgbs 44_Mm04_WEAd_C11_WGBS_E_EC 20 r5   0.2746   0.2693 0.2766   0.2733
wgbs 44_Mm04_WEAd_C11_WGBS_E_EC 20 r6   0.2742   0.2691 0.2761   0.2733
wgbs 44_Mm04_WEAd_C11_WGBS_E_EC 20 r7   0.2728   0.2682 0.2756   0.2733
wgbs 44_Mm04_WEAd_C11_WGBS_E_EC 20 r8   0.2741   0.2691 0.2763   0.2733
wgbs 44_Mm04_WEAd_C11_WGBS_E_EC 20 r9   0.2744   0.2693 0.2765   0.2733
wgbs 44_Mm04_WEAd_C11_WGBS_E_EC 20 r10   0.2720   0.2684 0.2760   0.2733
wgbs 19227 20 r1   0.3951   0.3698 0.4057   0.5243
wgbs 19227 20 r2   0.3936   0.3699 0.4036   0.5243
wgbs 19227 20 r3   0.3953   0.3714 0.4075   0.5243
wgbs 19227 20 r4   0.4023   0.3719 0.4096   0.5243
wgbs 19227 20 r5   0.3993   0.3714 0.4070   0.5243
wgbs 19227 20 r6   0.3961   0.3699 0.4053   0.5243
wgbs 19227 20 r7   0.3998   0.3711 0.4077   0.5243
wgbs 19227 20 r8   0.3972   0.3700 0.4067   0.5243
wgbs 19227 20 r9   0.3930   0.3705 0.4059   0.5243
wgbs 19227 20 r10   0.3999   0.3709 0.4066   0.5243
wgbs 20780_combi 20 r1   0.1364   0.1338 0.1373   0.1359
wgbs 20780_combi 20 r2   0.1358   0.1333 0.1370   0.1359
wgbs 20780_combi 20 r3   0.1356   0.1337 0.1372   0.1359
wgbs 20780_combi 20 r4   0.1359   0.1339 0.1374   0.1359
wgbs 20780_combi 20 r5   0.1353   0.1335 0.1371   0.1359
wgbs 20780_combi 20 r6   0.1362   0.1339 0.1375   0.1359
wgbs 20780_combi 20 r7   0.1366   0.1341 0.1374   0.1359
wgbs 20780_combi 20 r8   0.1368   0.1342 0.1377   0.1359
wgbs 20780_combi 20 r9   0.1356   0.1336 0.1372   0.1359
wgbs 20780_combi 20 r10   0.1357   0.1333 0.1368   0.1359
wgbs 43_Hm01_BIMo_Ct_WGBS_E1 20 r1   0.1287   0.1273 0.1305   0.1290
wgbs 43_Hm01_BIMo_Ct_WGBS_E1 20 r2   0.1299   0.1278 0.1306   0.1290
wgbs 43_Hm01_BIMo_Ct_WGBS_E1 20 r3   0.1289   0.1270 0.1302   0.1290
wgbs 43_Hm01_BIMo_Ct_WGBS_E1 20 r4   0.1285   0.1271 0.1303   0.1290
wgbs 43_Hm01_BIMo_Ct_WGBS_E1 20 r5   0.1299   0.1277 0.1306   0.1290
wgbs 43_Hm01_BIMo_Ct_WGBS_E1 20 r6   0.1289   0.1272 0.1304   0.1290
wgbs 43_Hm01_BIMo_Ct_WGBS_E1 20 r7   0.1295   0.1275 0.1305   0.1290
wgbs 43_Hm01_BIMo_Ct_WGBS_E1 20 r8   0.1279   0.1268 0.1302   0.1290
wgbs 43_Hm01_BIMo_Ct_WGBS_E1 20 r9   0.1289   0.1274 0.1305   0.1290
wgbs 43_Hm01_BIMo_Ct_WGBS_E1 20 r10   0.1286   0.1274 0.1306   0.1290
wgbs 43_Hm05_BlMo_Ct1_WGBS_E_2 20 r1   0.1477   0.1457 0.1497   0.1486
wgbs 43_Hm05_BlMo_Ct1_WGBS_E_2 20 r2   0.1478   0.1458 0.1501   0.1486
wgbs 43_Hm05_BlMo_Ct1_WGBS_E_2 20 r3   0.1490   0.1461 0.1506   0.1486
wgbs 43_Hm05_BlMo_Ct1_WGBS_E_2 20 r4   0.1486   0.1457 0.1503   0.1486
wgbs 43_Hm05_BlMo_Ct1_WGBS_E_2 20 r5   0.1477   0.1453 0.1496   0.1486
wgbs 43_Hm05_BlMo_Ct1_WGBS_E_2 20 r6   0.1471   0.1454 0.1495   0.1486
wgbs 43_Hm05_BlMo_Ct1_WGBS_E_2 20 r7   0.1488   0.1461 0.1505   0.1486
wgbs 43_Hm05_BlMo_Ct1_WGBS_E_2 20 r8   0.1485   0.1455 0.1501   0.1486
wgbs 43_Hm05_BlMo_Ct1_WGBS_E_2 20 r9   0.1486   0.1459 0.1503   0.1486
wgbs 43_Hm05_BlMo_Ct1_WGBS_E_2 20 r10   0.1485   0.1459 0.1502   0.1486
wgbs 43_Hm03_BlMa_Ct2_WGBS_E 20 r1   0.0821   0.0807 0.0827   0.0821
wgbs 43_Hm03_BlMa_Ct2_WGBS_E 20 r2   0.0821   0.0808 0.0828   0.0821
wgbs 43_Hm03_BlMa_Ct2_WGBS_E 20 r3   0.0818   0.0807 0.0829   0.0821
wgbs 43_Hm03_BlMa_Ct2_WGBS_E 20 r4   0.0822   0.0809 0.0829   0.0821
wgbs 43_Hm03_BlMa_Ct2_WGBS_E 20 r5   0.0825   0.0811 0.0831   0.0821
wgbs 43_Hm03_BlMa_Ct2_WGBS_E 20 r6   0.0822   0.0808 0.0828   0.0821
wgbs 43_Hm03_BlMa_Ct2_WGBS_E 20 r7   0.0821   0.0807 0.0827   0.0821
wgbs 43_Hm03_BlMa_Ct2_WGBS_E 20 r8   0.0824   0.0809 0.0829   0.0821
wgbs 43_Hm03_BlMa_Ct2_WGBS_E 20 r9   0.0823   0.0809 0.0829   0.0821
wgbs 43_Hm03_BlMa_Ct2_WGBS_E 20 r10   0.0820   0.0807 0.0828   0.0821
wgbs 53_Mf06_LPFi_RA_WGBS_E 20 r1   0.2027   0.2020 0.2049   0.2100
wgbs 53_Mf06_LPFi_RA_WGBS_E 20 r2   0.2039   0.2030 0.2064   0.2100
wgbs 53_Mf06_LPFi_RA_WGBS_E 20 r3   0.2031   0.2021 0.2058   0.2100
wgbs 53_Mf06_LPFi_RA_WGBS_E 20 r4   0.2025   0.2016 0.2053   0.2100
wgbs 53_Mf06_LPFi_RA_WGBS_E 20 r5   0.2038   0.2030 0.2064   0.2100
wgbs 53_Mf06_LPFi_RA_WGBS_E 20 r6   0.2032   0.2022 0.2060   0.2100
wgbs 53_Mf06_LPFi_RA_WGBS_E 20 r7   0.2034   0.2024 0.2060   0.2100
wgbs 53_Mf06_LPFi_RA_WGBS_E 20 r8   0.2033   0.2025 0.2059   0.2100
wgbs 53_Mf06_LPFi_RA_WGBS_E 20 r9   0.2034   0.2024 0.2061   0.2100
wgbs 53_Mf06_LPFi_RA_WGBS_E 20 r10   0.2028   0.2020 0.2053   0.2100
wgbs 30505_EC 20 r1   0.2979   0.2925 0.3007   0.2967
wgbs 30505_EC 20 r2   0.2972   0.2918 0.2999   0.2967
wgbs 30505_EC 20 r3   0.2940   0.2902 0.2985   0.2967
wgbs 30505_EC 20 r4   0.2948   0.2913 0.2996   0.2967
wgbs 30505_EC 20 r5   0.2974   0.2922 0.2996   0.2967
wgbs 30505_EC 20 r6   0.2966   0.2927 0.3012   0.2967
wgbs 30505_EC 20 r7   0.2966   0.2911 0.2992   0.2967
wgbs 30505_EC 20 r8   0.2961   0.2905 0.2992   0.2967
wgbs 30505_EC 20 r9   0.2971   0.2917 0.2998   0.2967
wgbs 30505_EC 20 r10   0.2976   0.2922 0.3004   0.2967
wgbs 43_Hm03_BlMa_TE2_WGBS_E 20 r1   0.0923   0.0908 0.0929   0.0918
wgbs 43_Hm03_BlMa_TE2_WGBS_E 20 r2   0.0918   0.0906 0.0929   0.0918
wgbs 43_Hm03_BlMa_TE2_WGBS_E 20 r3   0.0920   0.0904 0.0927   0.0918
wgbs 43_Hm03_BlMa_TE2_WGBS_E 20 r4   0.0923   0.0907 0.0929   0.0918
wgbs 43_Hm03_BlMa_TE2_WGBS_E 20 r5   0.0917   0.0904 0.0928   0.0918
wgbs 43_Hm03_BlMa_TE2_WGBS_E 20 r6   0.0922   0.0907 0.0928   0.0918
wgbs 43_Hm03_BlMa_TE2_WGBS_E 20 r7   0.0916   0.0904 0.0928   0.0918
wgbs 43_Hm03_BlMa_TE2_WGBS_E 20 r8   0.0923   0.0909 0.0929   0.0918
wgbs 43_Hm03_BlMa_TE2_WGBS_E 20 r9   0.0921   0.0906 0.0927   0.0918
wgbs 43_Hm03_BlMa_TE2_WGBS_E 20 r10   0.0920   0.0905 0.0926   0.0918
wgbs 21437_combi 20 r1   0.1458   0.1439 0.1468   0.1458
wgbs 21437_combi 20 r2   0.1453   0.1439 0.1470   0.1458
wgbs 21437_combi 20 r3   0.1461   0.1441 0.1470   0.1458
wgbs 21437_combi 20 r4   0.1455   0.1438 0.1467   0.1458
wgbs 21437_combi 20 r5   0.1459   0.1440 0.1469   0.1458
wgbs 21437_combi 20 r6   0.1456   0.1439 0.1469   0.1458
wgbs 21437_combi 20 r7   0.1455   0.1439 0.1469   0.1458
wgbs 21437_combi 20 r8   0.1452   0.1440 0.1469   0.1458
wgbs 21437_combi 20 r9   0.1451   0.1438 0.1468   0.1458
wgbs 21437_combi 20 r10   0.1458   0.1438 0.1467   0.1458
wgbs 53_Mf06_LPFi_RA_TS2 20 r1   0.1191   0.1176 0.1210   0.1252
wgbs 53_Mf06_LPFi_RA_TS2 20 r2   0.1181   0.1168 0.1204   0.1252
wgbs 53_Mf06_LPFi_RA_TS2 20 r3   0.1187   0.1168 0.1204   0.1252
wgbs 53_Mf06_LPFi_RA_TS2 20 r4   0.1192   0.1171 0.1207   0.1252
wgbs 53_Mf06_LPFi_RA_TS2 20 r5   0.1178   0.1170 0.1205   0.1252
wgbs 53_Mf06_LPFi_RA_TS2 20 r6   0.1189   0.1170 0.1206   0.1252
wgbs 53_Mf06_LPFi_RA_TS2 20 r7   0.1182   0.1170 0.1206   0.1252
wgbs 53_Mf06_LPFi_RA_TS2 20 r8   0.1181   0.1169 0.1205   0.1252
wgbs 53_Mf06_LPFi_RA_TS2 20 r9   0.1197   0.1174 0.1210   0.1252
wgbs 53_Mf06_LPFi_RA_TS2 20 r10   0.1184   0.1169 0.1206   0.1252
wgbs 53_Mf07_LPFi_CT_WGBS_E 20 r1   0.1976   0.1961 0.2008   0.2022
wgbs 53_Mf07_LPFi_CT_WGBS_E 20 r2   0.1970   0.1956 0.2000   0.2022
wgbs 53_Mf07_LPFi_CT_WGBS_E 20 r3   0.1981   0.1959 0.2008   0.2022
wgbs 53_Mf07_LPFi_CT_WGBS_E 20 r4   0.1972   0.1963 0.2007   0.2022
wgbs 53_Mf07_LPFi_CT_WGBS_E 20 r5   0.1981   0.1959 0.2007   0.2022
wgbs 53_Mf07_LPFi_CT_WGBS_E 20 r6   0.1975   0.1958 0.2005   0.2022
wgbs 53_Mf07_LPFi_CT_WGBS_E 20 r7   0.1967   0.1957 0.2001   0.2022
wgbs 53_Mf07_LPFi_CT_WGBS_E 20 r8   0.1971   0.1961 0.2005   0.2022
wgbs 53_Mf07_LPFi_CT_WGBS_E 20 r9   0.1992   0.1965 0.2015   0.2022
wgbs 53_Mf07_LPFi_CT_WGBS_E 20 r10   0.1966   0.1957 0.2000   0.2022
wgbs 43_Hm02_BIMo_CT_WGBS_E1a 20 r1   0.0608   0.0599 0.0613   0.0608
wgbs 43_Hm02_BIMo_CT_WGBS_E1a 20 r2   0.0605   0.0599 0.0614   0.0608
wgbs 43_Hm02_BIMo_CT_WGBS_E1a 20 r3   0.0608   0.0601 0.0616   0.0608
wgbs 43_Hm02_BIMo_CT_WGBS_E1a 20 r4   0.0607   0.0600 0.0615   0.0608
wgbs 43_Hm02_BIMo_CT_WGBS_E1a 20 r5   0.0608   0.0600 0.0615   0.0608
wgbs 43_Hm02_BIMo_CT_WGBS_E1a 20 r6   0.0608   0.0601 0.0616   0.0608
wgbs 43_Hm02_BIMo_CT_WGBS_E1a 20 r7   0.0605   0.0598 0.0613   0.0608
wgbs 43_Hm02_BIMo_CT_WGBS_E1a 20 r8   0.0610   0.0602 0.0615   0.0608
wgbs 43_Hm02_BIMo_CT_WGBS_E1a 20 r9   0.0604   0.0598 0.0613   0.0608
wgbs 43_Hm02_BIMo_CT_WGBS_E1a 20 r10   0.0607   0.0599 0.0614   0.0608
wgbs 52_Hm3a_CoMu_CT_WGBS_E 20 r1   0.1271   0.1256 0.1287   0.1279
wgbs 52_Hm3a_CoMu_CT_WGBS_E 20 r2   0.1269   0.1259 0.1290   0.1279
wgbs 52_Hm3a_CoMu_CT_WGBS_E 20 r3   0.1275   0.1259 0.1289   0.1279
wgbs 52_Hm3a_CoMu_CT_WGBS_E 20 r4   0.1282   0.1261 0.1291   0.1279
wgbs 52_Hm3a_CoMu_CT_WGBS_E 20 r5   0.1276   0.1260 0.1290   0.1279
wgbs 52_Hm3a_CoMu_CT_WGBS_E 20 r6   0.1277   0.1261 0.1290   0.1279
wgbs 52_Hm3a_CoMu_CT_WGBS_E 20 r7   0.1285   0.1265 0.1292   0.1279
wgbs 52_Hm3a_CoMu_CT_WGBS_E 20 r8   0.1283   0.1263 0.1291   0.1279
wgbs 52_Hm3a_CoMu_CT_WGBS_E 20 r9   0.1278   0.1259 0.1289   0.1279
wgbs 52_Hm3a_CoMu_CT_WGBS_E 20 r10   0.1278   0.1258 0.1290   0.1279
wgbs 52_Hm3b_CoMu_UC_WGBS_E 20 r1   0.1413   0.1402 0.1432   0.1424
wgbs 52_Hm3b_CoMu_UC_WGBS_E 20 r2   0.1430   0.1410 0.1438   0.1424
wgbs 52_Hm3b_CoMu_UC_WGBS_E 20 r3   0.1425   0.1407 0.1437   0.1424
wgbs 52_Hm3b_CoMu_UC_WGBS_E 20 r4   0.1424   0.1404 0.1435   0.1424
wgbs 52_Hm3b_CoMu_UC_WGBS_E 20 r5   0.1417   0.1405 0.1436   0.1424
wgbs 52_Hm3b_CoMu_UC_WGBS_E 20 r6   0.1422   0.1406 0.1436   0.1424
wgbs 52_Hm3b_CoMu_UC_WGBS_E 20 r7   0.1413   0.1402 0.1433   0.1424
wgbs 52_Hm3b_CoMu_UC_WGBS_E 20 r8   0.1424   0.1405 0.1434   0.1424
wgbs 52_Hm3b_CoMu_UC_WGBS_E 20 r9   0.1426   0.1406 0.1435   0.1424
wgbs 52_Hm3b_CoMu_UC_WGBS_E 20 r10   0.1418   0.1404 0.1435   0.1424
wgbs 43_Hm05_BlMa_TO1_WGBS_E_1 20 r1   0.0220   0.0215 0.0223   0.0219
wgbs 43_Hm05_BlMa_TO1_WGBS_E_1 20 r2   0.0217   0.0214 0.0222   0.0219
wgbs 43_Hm05_BlMa_TO1_WGBS_E_1 20 r3   0.0218   0.0215 0.0223   0.0219
wgbs 43_Hm05_BlMa_TO1_WGBS_E_1 20 r4   0.0221   0.0217 0.0224   0.0219
wgbs 43_Hm05_BlMa_TO1_WGBS_E_1 20 r5   0.0217   0.0214 0.0222   0.0219
wgbs 43_Hm05_BlMa_TO1_WGBS_E_1 20 r6   0.0219   0.0215 0.0223   0.0219
wgbs 43_Hm05_BlMa_TO1_WGBS_E_1 20 r7   0.0218   0.0214 0.0222   0.0219
wgbs 43_Hm05_BlMa_TO1_WGBS_E_1 20 r8   0.0220   0.0215 0.0223   0.0219
wgbs 43_Hm05_BlMa_TO1_WGBS_E_1 20 r9   0.0219   0.0214 0.0222   0.0219
wgbs 43_Hm05_BlMa_TO1_WGBS_E_1 20 r10   0.0217   0.0214 0.0222   0.0219
wgbs 44_Mm04_WEAd_C11_WGBS-1E_TS 20 r1   0.1018   0.1002 0.1033   0.1069
wgbs 44_Mm04_WEAd_C11_WGBS-1E_TS 20 r2   0.1014   0.1004 0.1036   0.1069
wgbs 44_Mm04_WEAd_C11_WGBS-1E_TS 20 r3   0.1012   0.1001 0.1031   0.1069
wgbs 44_Mm04_WEAd_C11_WGBS-1E_TS 20 r4   0.1013   0.1001 0.1033   0.1069
wgbs 44_Mm04_WEAd_C11_WGBS-1E_TS 20 r5   0.1010   0.0999 0.1033   0.1069
wgbs 44_Mm04_WEAd_C11_WGBS-1E_TS 20 r6   0.1012   0.1000 0.1032   0.1069
wgbs 44_Mm04_WEAd_C11_WGBS-1E_TS 20 r7   0.1012   0.1001 0.1032   0.1069
wgbs 44_Mm04_WEAd_C11_WGBS-1E_TS 20 r8   0.1015   0.1004 0.1035   0.1069
wgbs 44_Mm04_WEAd_C11_WGBS-1E_TS 20 r9   0.1016   0.1005 0.1035   0.1069
wgbs 44_Mm04_WEAd_C11_WGBS-1E_TS 20 r10   0.1013   0.1002 0.1032   0.1069
wgbs 53_Mf08_LPFi_RA_WGBS_EC 20 r1   0.3870   0.3786 0.3928   0.3907
wgbs 53_Mf08_LPFi_RA_WGBS_EC 20 r2   0.3894   0.3794 0.3947   0.3907
wgbs 53_Mf08_LPFi_RA_WGBS_EC 20 r3   0.3899   0.3800 0.3952   0.3907
wgbs 53_Mf08_LPFi_RA_WGBS_EC 20 r4   0.3892   0.3792 0.3939   0.3907
wgbs 53_Mf08_LPFi_RA_WGBS_EC 20 r5   0.3896   0.3797 0.3943   0.3907
wgbs 53_Mf08_LPFi_RA_WGBS_EC 20 r6   0.3900   0.3804 0.3946   0.3907
wgbs 53_Mf08_LPFi_RA_WGBS_EC 20 r7   0.3905   0.3808 0.3953   0.3907
wgbs 53_Mf08_LPFi_RA_WGBS_EC 20 r8   0.3910   0.3810 0.3959   0.3907
wgbs 53_Mf08_LPFi_RA_WGBS_EC 20 r9   0.3883   0.3784 0.3930   0.3907
wgbs 53_Mf08_LPFi_RA_WGBS_EC 20 r10   0.3904   0.3813 0.3958   0.3907
wgbs 43_Hm02_BIMo_WGBS_E_4a 20 r1   0.2567   0.2540 0.2607   0.2582
wgbs 43_Hm02_BIMo_WGBS_E_4a 20 r2   0.2596   0.2552 0.2614   0.2582
wgbs 43_Hm02_BIMo_WGBS_E_4a 20 r3   0.2568   0.2540 0.2607   0.2582
wgbs 43_Hm02_BIMo_WGBS_E_4a 20 r4   0.2568   0.2544 0.2611   0.2582
wgbs 43_Hm02_BIMo_WGBS_E_4a 20 r5   0.2572   0.2545 0.2614   0.2582
wgbs 43_Hm02_BIMo_WGBS_E_4a 20 r6   0.2576   0.2546 0.2613   0.2582
wgbs 43_Hm02_BIMo_WGBS_E_4a 20 r7   0.2593   0.2550 0.2615   0.2582
wgbs 43_Hm02_BIMo_WGBS_E_4a 20 r8   0.2594   0.2549 0.2613   0.2582
wgbs 43_Hm02_BIMo_WGBS_E_4a 20 r9   0.2590   0.2548 0.2609   0.2582
wgbs 43_Hm02_BIMo_WGBS_E_4a 20 r10   0.2583   0.2541 0.2610   0.2582
wgbs 43_Hm05_BlMa_TO1_WGBS_E_2 20 r1   0.2699   0.2648 0.2720   0.2696
wgbs 43_Hm05_BlMa_TO1_WGBS_E_2 20 r2   0.2696   0.2648 0.2720   0.2696
wgbs 43_Hm05_BlMa_TO1_WGBS_E_2 20 r3   0.2679   0.2647 0.2719   0.2696
wgbs 43_Hm05_BlMa_TO1_WGBS_E_2 20 r4   0.2710   0.2661 0.2729   0.2696
wgbs 43_Hm05_BlMa_TO1_WGBS_E_2 20 r5   0.2690   0.2643 0.2713   0.2696
wgbs 43_Hm05_BlMa_TO1_WGBS_E_2 20 r6   0.2682   0.2644 0.2718   0.2696
wgbs 43_Hm05_BlMa_TO1_WGBS_E_2 20 r7   0.2703   0.2652 0.2722   0.2696
wgbs 43_Hm05_BlMa_TO1_WGBS_E_2 20 r8   0.2693   0.2646 0.2717   0.2696
wgbs 43_Hm05_BlMa_TO1_WGBS_E_2 20 r9   0.2703   0.2653 0.2722   0.2696
wgbs 43_Hm05_BlMa_TO1_WGBS_E_2 20 r10   0.2683   0.2644 0.2716   0.2696
wgbs 53_Mf07_LPFi_CT_TS 20 r1   0.1104   0.1082 0.1121   0.1167
wgbs 53_Mf07_LPFi_CT_TS 20 r2   0.1105   0.1083 0.1121   0.1167
wgbs 53_Mf07_LPFi_CT_TS 20 r3   0.1098   0.1085 0.1122   0.1167
wgbs 53_Mf07_LPFi_CT_TS 20 r4   0.1096   0.1077 0.1116   0.1167
wgbs 53_Mf07_LPFi_CT_TS 20 r5   0.1098   0.1084 0.1123   0.1167
wgbs 53_Mf07_LPFi_CT_TS 20 r6   0.1104   0.1080 0.1118   0.1167
wgbs 53_Mf07_LPFi_CT_TS 20 r7   0.1092   0.1078 0.1116   0.1167
wgbs 53_Mf07_LPFi_CT_TS 20 r8   0.1093   0.1079 0.1120   0.1167
wgbs 53_Mf07_LPFi_CT_TS 20 r9   0.1104   0.1081 0.1117   0.1167
wgbs 53_Mf07_LPFi_CT_TS 20 r10   0.1101   0.1086 0.1123   0.1167
wgbs 43_Hm05_BlMa_Ct1_WGBS_E_2 20 r1   0.1784   0.1762 0.1811   0.1798
wgbs 43_Hm05_BlMa_Ct1_WGBS_E_2 20 r2   0.1797   0.1766 0.1814   0.1798
wgbs 43_Hm05_BlMa_Ct1_WGBS_E_2 20 r3   0.1794   0.1768 0.1818   0.1798
wgbs 43_Hm05_BlMa_Ct1_WGBS_E_2 20 r4   0.1793   0.1763 0.1812   0.1798
wgbs 43_Hm05_BlMa_Ct1_WGBS_E_2 20 r5   0.1780   0.1767 0.1813   0.1798
wgbs 43_Hm05_BlMa_Ct1_WGBS_E_2 20 r6   0.1777   0.1763 0.1807   0.1798
wgbs 43_Hm05_BlMa_Ct1_WGBS_E_2 20 r7   0.1793   0.1765 0.1817   0.1798
wgbs 43_Hm05_BlMa_Ct1_WGBS_E_2 20 r8   0.1789   0.1766 0.1814   0.1798
wgbs 43_Hm05_BlMa_Ct1_WGBS_E_2 20 r9   0.1797   0.1765 0.1816   0.1798
wgbs 43_Hm05_BlMa_Ct1_WGBS_E_2 20 r10   0.1796   0.1764 0.1814   0.1798
wgbs 19227_combi 20 r1   0.2114   0.2091 0.2121   0.2105
wgbs 19227_combi 20 r2   0.2113   0.2093 0.2122   0.2105
wgbs 19227_combi 20 r3   0.2101   0.2087 0.2120   0.2105
wgbs 19227_combi 20 r4   0.2100   0.2087 0.2121   0.2105
wgbs 19227_combi 20 r5   0.2103   0.2086 0.2119   0.2105
wgbs 19227_combi 20 r6   0.2109   0.2088 0.2119   0.2105
wgbs 19227_combi 20 r7   0.2110   0.2088 0.2119   0.2105
wgbs 19227_combi 20 r8   0.2110   0.2088 0.2119   0.2105
wgbs 19227_combi 20 r9   0.2111   0.2087 0.2120   0.2105
wgbs 19227_combi 20 r10   0.2104   0.2086 0.2118   0.2105
wgbs 44_Mm05_WEAd_C12_WGBS_E 20 r1   0.1456   0.1452 0.1473   0.1502
wgbs 44_Mm05_WEAd_C12_WGBS_E 20 r2   0.1461   0.1455 0.1479   0.1502
wgbs 44_Mm05_WEAd_C12_WGBS_E 20 r3   0.1456   0.1451 0.1473   0.1502
wgbs 44_Mm05_WEAd_C12_WGBS_E 20 r4   0.1465   0.1458 0.1482   0.1502
wgbs 44_Mm05_WEAd_C12_WGBS_E 20 r5   0.1463   0.1458 0.1479   0.1502
wgbs 44_Mm05_WEAd_C12_WGBS_E 20 r6   0.1459   0.1453 0.1475   0.1502
wgbs 44_Mm05_WEAd_C12_WGBS_E 20 r7   0.1460   0.1455 0.1476   0.1502
wgbs 44_Mm05_WEAd_C12_WGBS_E 20 r8   0.1462   0.1456 0.1479   0.1502
wgbs 44_Mm05_WEAd_C12_WGBS_E 20 r9   0.1464   0.1459 0.1480   0.1502
wgbs 44_Mm05_WEAd_C12_WGBS_E 20 r10   0.1456   0.1450 0.1472   0.1502
wgbs 44_Mm04_WEAd_C11_WGBS_E 20 r1   0.1663   0.1657 0.1682   0.1708
wgbs 44_Mm04_WEAd_C11_WGBS_E 20 r2   0.1661   0.1655 0.1676   0.1708
wgbs 44_Mm04_WEAd_C11_WGBS_E 20 r3   0.1666   0.1659 0.1689   0.1708
wgbs 44_Mm04_WEAd_C11_WGBS_E 20 r4   0.1668   0.1661 0.1691   0.1708
wgbs 44_Mm04_WEAd_C11_WGBS_E 20 r5   0.1666   0.1659 0.1688   0.1708
wgbs 44_Mm04_WEAd_C11_WGBS_E 20 r6   0.1669   0.1662 0.1690   0.1708
wgbs 44_Mm04_WEAd_C11_WGBS_E 20 r7   0.1662   0.1656 0.1676   0.1708
wgbs 44_Mm04_WEAd_C11_WGBS_E 20 r8   0.1677   0.1663 0.1693   0.1708
wgbs 44_Mm04_WEAd_C11_WGBS_E 20 r9   0.1663   0.1657 0.1683   0.1708
wgbs 44_Mm04_WEAd_C11_WGBS_E 20 r10   0.1671   0.1659 0.1688   0.1708
wgbs 44_Mm05_WEAd_C12_WGBS_high_E_TS 20 r1   0.0941   0.0924 0.0951   0.0986
wgbs 44_Mm05_WEAd_C12_WGBS_high_E_TS 20 r2   0.0930   0.0919 0.0950   0.0986
wgbs 44_Mm05_WEAd_C12_WGBS_high_E_TS 20 r3   0.0927   0.0916 0.0949   0.0986
wgbs 44_Mm05_WEAd_C12_WGBS_high_E_TS 20 r4   0.0931   0.0920 0.0951   0.0986
wgbs 44_Mm05_WEAd_C12_WGBS_high_E_TS 20 r5   0.0938   0.0920 0.0949   0.0986
wgbs 44_Mm05_WEAd_C12_WGBS_high_E_TS 20 r6   0.0924   0.0913 0.0944   0.0986
wgbs 44_Mm05_WEAd_C12_WGBS_high_E_TS 20 r7   0.0929   0.0919 0.0950   0.0986
wgbs 44_Mm05_WEAd_C12_WGBS_high_E_TS 20 r8   0.0925   0.0914 0.0948   0.0986
wgbs 44_Mm05_WEAd_C12_WGBS_high_E_TS 20 r9   0.0936   0.0924 0.0955   0.0986
wgbs 44_Mm05_WEAd_C12_WGBS_high_E_TS 20 r10   0.0932   0.0920 0.0950   0.0986
wgbs 44_Mm09_WEAd_Db2_WGBS_E 20 r1   0.2089   0.2060 0.2114   0.2132
wgbs 44_Mm09_WEAd_Db2_WGBS_E 20 r2   0.2080   0.2065 0.2114   0.2132
wgbs 44_Mm09_WEAd_Db2_WGBS_E 20 r3   0.2088   0.2069 0.2120   0.2132
wgbs 44_Mm09_WEAd_Db2_WGBS_E 20 r4   0.2090   0.2069 0.2121   0.2132
wgbs 44_Mm09_WEAd_Db2_WGBS_E 20 r5   0.2107   0.2073 0.2128   0.2132
wgbs 44_Mm09_WEAd_Db2_WGBS_E 20 r6   0.2081   0.2066 0.2116   0.2132
wgbs 44_Mm09_WEAd_Db2_WGBS_E 20 r7   0.2082   0.2064 0.2114   0.2132
wgbs 44_Mm09_WEAd_Db2_WGBS_E 20 r8   0.2084   0.2074 0.2120   0.2132
wgbs 44_Mm09_WEAd_Db2_WGBS_E 20 r9   0.2091   0.2067 0.2120   0.2132
wgbs 44_Mm09_WEAd_Db2_WGBS_E 20 r10   0.2076   0.2066 0.2114   0.2132
wgbs 19227a_L006 20 r1   0.0749   0.0744 0.0758   0.0752
wgbs 19227a_L006 20 r2   0.0757   0.0748 0.0762   0.0752
wgbs 19227a_L006 20 r3   0.0751   0.0746 0.0760   0.0752
wgbs 19227a_L006 20 r4   0.0756   0.0750 0.0763   0.0752
wgbs 19227a_L006 20 r5   0.0754   0.0746 0.0760   0.0752
wgbs 19227a_L006 20 r6   0.0754   0.0746 0.0759   0.0752
wgbs 19227a_L006 20 r7   0.0752   0.0745 0.0758   0.0752
wgbs 19227a_L006 20 r8   0.0750   0.0745 0.0758   0.0752
wgbs 19227a_L006 20 r9   0.0751   0.0744 0.0758   0.0752
wgbs 19227a_L006 20 r10   0.0755   0.0747 0.0760   0.0752
wgbs 43_Hm05_BlMo_Ct1_WGBS_E_1 20 r1   0.0150   0.0146 0.0154   0.0150
wgbs 43_Hm05_BlMo_Ct1_WGBS_E_1 20 r2   0.0149   0.0146 0.0153   0.0150
wgbs 43_Hm05_BlMo_Ct1_WGBS_E_1 20 r3   0.0150   0.0146 0.0153   0.0150
wgbs 43_Hm05_BlMo_Ct1_WGBS_E_1 20 r4   0.0150   0.0147 0.0154   0.0150
wgbs 43_Hm05_BlMo_Ct1_WGBS_E_1 20 r5   0.0148   0.0145 0.0152   0.0150
wgbs 43_Hm05_BlMo_Ct1_WGBS_E_1 20 r6   0.0151   0.0147 0.0154   0.0150
wgbs 43_Hm05_BlMo_Ct1_WGBS_E_1 20 r7   0.0150   0.0146 0.0153   0.0150
wgbs 43_Hm05_BlMo_Ct1_WGBS_E_1 20 r8   0.0146   0.0144 0.0151   0.0150
wgbs 43_Hm05_BlMo_Ct1_WGBS_E_1 20 r9   0.0150   0.0146 0.0153   0.0150
wgbs 43_Hm05_BlMo_Ct1_WGBS_E_1 20 r10   0.0149   0.0146 0.0153   0.0150
wgbs 53_Mf05_LPFi_CT_TS2 20 r1   0.1357   0.1342 0.1380   0.1422
wgbs 53_Mf05_LPFi_CT_TS2 20 r2   0.1343   0.1332 0.1374   0.1422
wgbs 53_Mf05_LPFi_CT_TS2 20 r3   0.1350   0.1338 0.1377   0.1422
wgbs 53_Mf05_LPFi_CT_TS2 20 r4   0.1345   0.1331 0.1373   0.1422
wgbs 53_Mf05_LPFi_CT_TS2 20 r5   0.1346   0.1331 0.1373   0.1422
wgbs 53_Mf05_LPFi_CT_TS2 20 r6   0.1348   0.1332 0.1373   0.1422
wgbs 53_Mf05_LPFi_CT_TS2 20 r7   0.1347   0.1333 0.1375   0.1422
wgbs 53_Mf05_LPFi_CT_TS2 20 r8   0.1349   0.1337 0.1377   0.1422
wgbs 53_Mf05_LPFi_CT_TS2 20 r9   0.1348   0.1325 0.1366   0.1422
wgbs 53_Mf05_LPFi_CT_TS2 20 r10   0.1350   0.1336 0.1376   0.1422
wgbs 43_Hm03_BlMa_TE2_WGBS_E_TS 20 r1   0.0214   0.0208 0.0217   0.0212
wgbs 43_Hm03_BlMa_TE2_WGBS_E_TS 20 r2   0.0212   0.0207 0.0217   0.0212
wgbs 43_Hm03_BlMa_TE2_WGBS_E_TS 20 r3   0.0213   0.0207 0.0217   0.0212
wgbs 43_Hm03_BlMa_TE2_WGBS_E_TS 20 r4   0.0213   0.0207 0.0217   0.0212
wgbs 43_Hm03_BlMa_TE2_WGBS_E_TS 20 r5   0.0212   0.0207 0.0216   0.0212
wgbs 43_Hm03_BlMa_TE2_WGBS_E_TS 20 r6   0.0210   0.0207 0.0216   0.0212
wgbs 43_Hm03_BlMa_TE2_WGBS_E_TS 20 r7   0.0213   0.0208 0.0217   0.0212
wgbs 43_Hm03_BlMa_TE2_WGBS_E_TS 20 r8   0.0208   0.0206 0.0214   0.0212
wgbs 43_Hm03_BlMa_TE2_WGBS_E_TS 20 r9   0.0211   0.0207 0.0217   0.0212
wgbs 43_Hm03_BlMa_TE2_WGBS_E_TS 20 r10   0.0214   0.0208 0.0216   0.0212
wgbs 43_Hm05_BlMa_TE1_WGBS_E_2 20 r1   0.2312   0.2272 0.2335   0.2311
wgbs 43_Hm05_BlMa_TE1_WGBS_E_2 20 r2   0.2324   0.2283 0.2341   0.2311
wgbs 43_Hm05_BlMa_TE1_WGBS_E_2 20 r3   0.2320   0.2277 0.2339   0.2311
wgbs 43_Hm05_BlMa_TE1_WGBS_E_2 20 r4   0.2330   0.2290 0.2345   0.2311
wgbs 43_Hm05_BlMa_TE1_WGBS_E_2 20 r5   0.2312   0.2270 0.2333   0.2311
wgbs 43_Hm05_BlMa_TE1_WGBS_E_2 20 r6   0.2305   0.2270 0.2335   0.2311
wgbs 43_Hm05_BlMa_TE1_WGBS_E_2 20 r7   0.2318   0.2276 0.2338   0.2311
wgbs 43_Hm05_BlMa_TE1_WGBS_E_2 20 r8   0.2326   0.2284 0.2343   0.2311
wgbs 43_Hm05_BlMa_TE1_WGBS_E_2 20 r9   0.2314   0.2272 0.2336   0.2311
wgbs 43_Hm05_BlMa_TE1_WGBS_E_2 20 r10   0.2320   0.2278 0.2339   0.2311
wgbs 43_Hm05_BlMa_TE1_WGBS_E_1 20 r1   0.0170   0.0166 0.0173   0.0170
wgbs 43_Hm05_BlMa_TE1_WGBS_E_1 20 r2   0.0170   0.0166 0.0173   0.0170
wgbs 43_Hm05_BlMa_TE1_WGBS_E_1 20 r3   0.0170   0.0166 0.0174   0.0170
wgbs 43_Hm05_BlMa_TE1_WGBS_E_1 20 r4   0.0171   0.0167 0.0174   0.0170
wgbs 43_Hm05_BlMa_TE1_WGBS_E_1 20 r5   0.0171   0.0167 0.0173   0.0170
wgbs 43_Hm05_BlMa_TE1_WGBS_E_1 20 r6   0.0169   0.0167 0.0174   0.0170
wgbs 43_Hm05_BlMa_TE1_WGBS_E_1 20 r7   0.0168   0.0165 0.0172   0.0170
wgbs 43_Hm05_BlMa_TE1_WGBS_E_1 20 r8   0.0171   0.0166 0.0174   0.0170
wgbs 43_Hm05_BlMa_TE1_WGBS_E_1 20 r9   0.0171   0.0167 0.0174   0.0170
wgbs 43_Hm05_BlMa_TE1_WGBS_E_1 20 r10   0.0170   0.0166 0.0173   0.0170
wgbs 44_Mm03_WEAd_C23_WGBS_E_EC 20 r1   0.1959   0.1926 0.1978   0.1963
wgbs 44_Mm03_WEAd_C23_WGBS_E_EC 20 r2   0.1957   0.1928 0.1983   0.1963
wgbs 44_Mm03_WEAd_C23_WGBS_E_EC 20 r3   0.1937   0.1918 0.1966   0.1963
wgbs 44_Mm03_WEAd_C23_WGBS_E_EC 20 r4   0.1961   0.1927 0.1982   0.1963
wgbs 44_Mm03_WEAd_C23_WGBS_E_EC 20 r5   0.1965   0.1927 0.1982   0.1963
wgbs 44_Mm03_WEAd_C23_WGBS_E_EC 20 r6   0.1962   0.1925 0.1978   0.1963
wgbs 44_Mm03_WEAd_C23_WGBS_E_EC 20 r7   0.1950   0.1922 0.1974   0.1963
wgbs 44_Mm03_WEAd_C23_WGBS_E_EC 20 r8   0.1965   0.1930 0.1984   0.1963
wgbs 44_Mm03_WEAd_C23_WGBS_E_EC 20 r9   0.1935   0.1925 0.1972   0.1963
wgbs 44_Mm03_WEAd_C23_WGBS_E_EC 20 r10   0.1952   0.1920 0.1974   0.1963
wgbs 30505_combi 20 r1   0.1326   0.1311 0.1342   0.1328
wgbs 30505_combi 20 r2   0.1327   0.1309 0.1340   0.1328
wgbs 30505_combi 20 r3   0.1328   0.1306 0.1337   0.1328
wgbs 30505_combi 20 r4   0.1327   0.1305 0.1336   0.1328
wgbs 30505_combi 20 r5   0.1326   0.1310 0.1341   0.1328
wgbs 30505_combi 20 r6   0.1331   0.1310 0.1340   0.1328
wgbs 30505_combi 20 r7   0.1333   0.1311 0.1341   0.1328
wgbs 30505_combi 20 r8   0.1334   0.1312 0.1342   0.1328
wgbs 30505_combi 20 r9   0.1319   0.1305 0.1337   0.1328
wgbs 30505_combi 20 r10   0.1328   0.1308 0.1340   0.1328
wgbs 43_Hm03_BlMo_Ct2_WGBS_E_EC 20 r1   0.1161   0.1138 0.1177   0.1166
wgbs 43_Hm03_BlMo_Ct2_WGBS_E_EC 20 r2   0.1171   0.1145 0.1183   0.1166
wgbs 43_Hm03_BlMo_Ct2_WGBS_E_EC 20 r3   0.1155   0.1146 0.1182   0.1166
wgbs 43_Hm03_BlMo_Ct2_WGBS_E_EC 20 r4   0.1164   0.1139 0.1179   0.1166
wgbs 43_Hm03_BlMo_Ct2_WGBS_E_EC 20 r5   0.1166   0.1143 0.1180   0.1166
wgbs 43_Hm03_BlMo_Ct2_WGBS_E_EC 20 r6   0.1166   0.1143 0.1181   0.1166
wgbs 43_Hm03_BlMo_Ct2_WGBS_E_EC 20 r7   0.1154   0.1140 0.1180   0.1166
wgbs 43_Hm03_BlMo_Ct2_WGBS_E_EC 20 r8   0.1164   0.1140 0.1179   0.1166
wgbs 43_Hm03_BlMo_Ct2_WGBS_E_EC 20 r9   0.1172   0.1146 0.1182   0.1166
wgbs 43_Hm03_BlMo_Ct2_WGBS_E_EC 20 r10   0.1174   0.1147 0.1184   0.1166
wgbs 43_Hm05_BlMa_TE_WGBS_E 20 r1   0.0938   0.0926 0.0950   0.0939
wgbs 43_Hm05_BlMa_TE_WGBS_E 20 r2   0.0940   0.0925 0.0946   0.0939
wgbs 43_Hm05_BlMa_TE_WGBS_E 20 r3   0.0940   0.0925 0.0947   0.0939
wgbs 43_Hm05_BlMa_TE_WGBS_E 20 r4   0.0941   0.0924 0.0948   0.0939
wgbs 43_Hm05_BlMa_TE_WGBS_E 20 r5   0.0936   0.0923 0.0947   0.0939
wgbs 43_Hm05_BlMa_TE_WGBS_E 20 r6   0.0936   0.0924 0.0947   0.0939
wgbs 43_Hm05_BlMa_TE_WGBS_E 20 r7   0.0931   0.0921 0.0945   0.0939
wgbs 43_Hm05_BlMa_TE_WGBS_E 20 r8   0.0937   0.0924 0.0947   0.0939
wgbs 43_Hm05_BlMa_TE_WGBS_E 20 r9   0.0938   0.0923 0.0946   0.0939
wgbs 43_Hm05_BlMa_TE_WGBS_E 20 r10   0.0935   0.0923 0.0946   0.0939
wgbs 43_Hm03_BlMa_Ct2_WGBS_E_EC 20 r1   0.2075   0.2038 0.2091   0.2065
wgbs 43_Hm03_BlMa_Ct2_WGBS_E_EC 20 r2   0.2072   0.2035 0.2089   0.2065
wgbs 43_Hm03_BlMa_Ct2_WGBS_E_EC 20 r3   0.2046   0.2028 0.2082   0.2065
wgbs 43_Hm03_BlMa_Ct2_WGBS_E_EC 20 r4   0.2066   0.2032 0.2086   0.2065
wgbs 43_Hm03_BlMa_Ct2_WGBS_E_EC 20 r5   0.2065   0.2030 0.2084   0.2065
wgbs 43_Hm03_BlMa_Ct2_WGBS_E_EC 20 r6   0.2068   0.2034 0.2089   0.2065
wgbs 43_Hm03_BlMa_Ct2_WGBS_E_EC 20 r7   0.2063   0.2027 0.2083   0.2065
wgbs 43_Hm03_BlMa_Ct2_WGBS_E_EC 20 r8   0.2065   0.2036 0.2091   0.2065
wgbs 43_Hm03_BlMa_Ct2_WGBS_E_EC 20 r9   0.2067   0.2029 0.2085   0.2065
wgbs 43_Hm03_BlMa_Ct2_WGBS_E_EC 20 r10   0.2049   0.2028 0.2083   0.2065
wgbs 43_Hm03_BlMa_Ct2_WGBS_E_TS 20 r1   0.0186   0.0182 0.0191   0.0187
wgbs 43_Hm03_BlMa_Ct2_WGBS_E_TS 20 r2   0.0184   0.0180 0.0189   0.0187
wgbs 43_Hm03_BlMa_Ct2_WGBS_E_TS 20 r3   0.0185   0.0182 0.0191   0.0187
wgbs 43_Hm03_BlMa_Ct2_WGBS_E_TS 20 r4   0.0187   0.0181 0.0190   0.0187
wgbs 43_Hm03_BlMa_Ct2_WGBS_E_TS 20 r5   0.0184   0.0182 0.0190   0.0187
wgbs 43_Hm03_BlMa_Ct2_WGBS_E_TS 20 r6   0.0188   0.0181 0.0191   0.0187
wgbs 43_Hm03_BlMa_Ct2_WGBS_E_TS 20 r7   0.0184   0.0181 0.0190   0.0187
wgbs 43_Hm03_BlMa_Ct2_WGBS_E_TS 20 r8   0.0189   0.0184 0.0192   0.0187
wgbs 43_Hm03_BlMa_Ct2_WGBS_E_TS 20 r9   0.0185   0.0182 0.0190   0.0187
wgbs 43_Hm03_BlMa_Ct2_WGBS_E_TS 20 r10   0.0188   0.0182 0.0192   0.0187
wgbs 30505 20 r1   0.1418   0.1263 0.1444   0.5243
wgbs 30505 20 r2   0.1408   0.1260 0.1441   0.5243
wgbs 30505 20 r3   0.1408   0.1260 0.1442   0.5243
wgbs 30505 20 r4   0.1416   0.1262 0.1442   0.5243
wgbs 30505 20 r5   0.1429   0.1295 0.1453   0.5243
wgbs 30505 20 r6   0.1361   0.1237 0.1436   0.5243
wgbs 30505 20 r7   0.1379   0.1242 0.1432   0.5243
wgbs 30505 20 r8   0.1381   0.1264 0.1440   0.5243
wgbs 30505 20 r9   0.1361   0.1245 0.1439   0.5243
wgbs 30505 20 r10   0.1404   0.1264 0.1446   0.5243
wgbs 19227a_L005 20 r1   0.0740   0.0735 0.0749   0.0744
wgbs 19227a_L005 20 r2   0.0744   0.0737 0.0751   0.0744
wgbs 19227a_L005 20 r3   0.0745   0.0738 0.0752   0.0744
wgbs 19227a_L005 20 r4   0.0741   0.0736 0.0750   0.0744
wgbs 19227a_L005 20 r5   0.0743   0.0738 0.0752   0.0744
wgbs 19227a_L005 20 r6   0.0747   0.0739 0.0753   0.0744
wgbs 19227a_L005 20 r7   0.0744   0.0739 0.0752   0.0744
wgbs 19227a_L005 20 r8   0.0739   0.0735 0.0746   0.0744
wgbs 19227a_L005 20 r9   0.0741   0.0736 0.0748   0.0744
wgbs 19227a_L005 20 r10   0.0742   0.0736 0.0750   0.0744
wgbs 53_Mf05_LPFi_CT_WGBS_E_TS 20 r1   0.2450   0.2431 0.2486   0.2554
wgbs 53_Mf05_LPFi_CT_WGBS_E_TS 20 r2   0.2450   0.2432 0.2483   0.2554
wgbs 53_Mf05_LPFi_CT_WGBS_E_TS 20 r3   0.2456   0.2436 0.2489   0.2554
wgbs 53_Mf05_LPFi_CT_WGBS_E_TS 20 r4   0.2457   0.2437 0.2490   0.2554
wgbs 53_Mf05_LPFi_CT_WGBS_E_TS 20 r5   0.2461   0.2432 0.2489   0.2554
wgbs 53_Mf05_LPFi_CT_WGBS_E_TS 20 r6   0.2453   0.2438 0.2489   0.2554
wgbs 53_Mf05_LPFi_CT_WGBS_E_TS 20 r7   0.2451   0.2434 0.2488   0.2554
wgbs 53_Mf05_LPFi_CT_WGBS_E_TS 20 r8   0.2450   0.2432 0.2487   0.2554
wgbs 53_Mf05_LPFi_CT_WGBS_E_TS 20 r9   0.2456   0.2438 0.2491   0.2554
wgbs 53_Mf05_LPFi_CT_WGBS_E_TS 20 r10   0.2443   0.2426 0.2483   0.2554
wgbs 43_Hm05_BlMa_Ct1_WGBS_E_1 20 r1   0.0182   0.0178 0.0185   0.0181
wgbs 43_Hm05_BlMa_Ct1_WGBS_E_1 20 r2   0.0182   0.0177 0.0185   0.0181
wgbs 43_Hm05_BlMa_Ct1_WGBS_E_1 20 r3   0.0181   0.0177 0.0185   0.0181
wgbs 43_Hm05_BlMa_Ct1_WGBS_E_1 20 r4   0.0181   0.0177 0.0184   0.0181
wgbs 43_Hm05_BlMa_Ct1_WGBS_E_1 20 r5   0.0182   0.0177 0.0185   0.0181
wgbs 43_Hm05_BlMa_Ct1_WGBS_E_1 20 r6   0.0183   0.0178 0.0185   0.0181
wgbs 43_Hm05_BlMa_Ct1_WGBS_E_1 20 r7   0.0181   0.0177 0.0184   0.0181
wgbs 43_Hm05_BlMa_Ct1_WGBS_E_1 20 r8   0.0179   0.0176 0.0184   0.0181
wgbs 43_Hm05_BlMa_Ct1_WGBS_E_1 20 r9   0.0180   0.0177 0.0185   0.0181
wgbs 43_Hm05_BlMa_Ct1_WGBS_E_1 20 r10   0.0180   0.0177 0.0185   0.0181
wgbs 43_Hm02_BIMo_CT_WGBS_E1 20 r1   0.0461   0.0456 0.0465   0.0460
wgbs 43_Hm02_BIMo_CT_WGBS_E1 20 r2   0.0459   0.0455 0.0465   0.0460
wgbs 43_Hm02_BIMo_CT_WGBS_E1 20 r3   0.0462   0.0456 0.0466   0.0460
wgbs 43_Hm02_BIMo_CT_WGBS_E1 20 r4   0.0458   0.0454 0.0464   0.0460
wgbs 43_Hm02_BIMo_CT_WGBS_E1 20 r5   0.0458   0.0454 0.0464   0.0460
wgbs 43_Hm02_BIMo_CT_WGBS_E1 20 r6   0.0461   0.0456 0.0466   0.0460
wgbs 43_Hm02_BIMo_CT_WGBS_E1 20 r7   0.0458   0.0453 0.0463   0.0460
wgbs 43_Hm02_BIMo_CT_WGBS_E1 20 r8   0.0459   0.0455 0.0464   0.0460
wgbs 43_Hm02_BIMo_CT_WGBS_E1 20 r9   0.0461   0.0455 0.0465   0.0460
wgbs 43_Hm02_BIMo_CT_WGBS_E1 20 r10   0.0461   0.0457 0.0466   0.0460
wgbs 53_Mf06_LPFi_RA_WGBS_E_TS 20 r1   0.2561   0.2547 0.2598   0.2666
wgbs 53_Mf06_LPFi_RA_WGBS_E_TS 20 r2   0.2559   0.2544 0.2594   0.2666
wgbs 53_Mf06_LPFi_RA_WGBS_E_TS 20 r3   0.2561   0.2545 0.2594   0.2666
wgbs 53_Mf06_LPFi_RA_WGBS_E_TS 20 r4   0.2563   0.2545 0.2595   0.2666
wgbs 53_Mf06_LPFi_RA_WGBS_E_TS 20 r5   0.2574   0.2555 0.2601   0.2666
wgbs 53_Mf06_LPFi_RA_WGBS_E_TS 20 r6   0.2564   0.2550 0.2601   0.2666
wgbs 53_Mf06_LPFi_RA_WGBS_E_TS 20 r7   0.2563   0.2546 0.2598   0.2666
wgbs 53_Mf06_LPFi_RA_WGBS_E_TS 20 r8   0.2570   0.2553 0.2602   0.2666
wgbs 53_Mf06_LPFi_RA_WGBS_E_TS 20 r9   0.2571   0.2552 0.2601   0.2666
wgbs 53_Mf06_LPFi_RA_WGBS_E_TS 20 r10   0.2564   0.2546 0.2597   0.2666
wgbs 52_Hm1_CoMu_Ct_WGBS_E_TS 20 r1   0.0158   0.0153 0.0161   0.0158
wgbs 52_Hm1_CoMu_Ct_WGBS_E_TS 20 r2   0.0159   0.0155 0.0163   0.0158
wgbs 52_Hm1_CoMu_Ct_WGBS_E_TS 20 r3   0.0159   0.0155 0.0162   0.0158
wgbs 52_Hm1_CoMu_Ct_WGBS_E_TS 20 r4   0.0157   0.0153 0.0161   0.0158
wgbs 52_Hm1_CoMu_Ct_WGBS_E_TS 20 r5   0.0158   0.0154 0.0162   0.0158
wgbs 52_Hm1_CoMu_Ct_WGBS_E_TS 20 r6   0.0159   0.0155 0.0163   0.0158
wgbs 52_Hm1_CoMu_Ct_WGBS_E_TS 20 r7   0.0157   0.0154 0.0161   0.0158
wgbs 52_Hm1_CoMu_Ct_WGBS_E_TS 20 r8   0.0159   0.0154 0.0162   0.0158
wgbs 52_Hm1_CoMu_Ct_WGBS_E_TS 20 r9   0.0159   0.0154 0.0162   0.0158
wgbs 52_Hm1_CoMu_Ct_WGBS_E_TS 20 r10   0.0157   0.0154 0.0162   0.0158
wgbs 43_Hm03_BlMo_Ct2_WGBS_E 20 r1   0.0543   0.0536 0.0552   0.0546
wgbs 43_Hm03_BlMo_Ct2_WGBS_E 20 r2   0.0540   0.0533 0.0550   0.0546
wgbs 43_Hm03_BlMo_Ct2_WGBS_E 20 r3   0.0541   0.0534 0.0551   0.0546
wgbs 43_Hm03_BlMo_Ct2_WGBS_E 20 r4   0.0549   0.0538 0.0553   0.0546
wgbs 43_Hm03_BlMo_Ct2_WGBS_E 20 r5   0.0546   0.0535 0.0551   0.0546
wgbs 43_Hm03_BlMo_Ct2_WGBS_E 20 r6   0.0547   0.0536 0.0553   0.0546
wgbs 43_Hm03_BlMo_Ct2_WGBS_E 20 r7   0.0546   0.0535 0.0551   0.0546
wgbs 43_Hm03_BlMo_Ct2_WGBS_E 20 r8   0.0545   0.0534 0.0550   0.0546
wgbs 43_Hm03_BlMo_Ct2_WGBS_E 20 r9   0.0546   0.0535 0.0551   0.0546
wgbs 43_Hm03_BlMo_Ct2_WGBS_E 20 r10   0.0547   0.0536 0.0552   0.0546
wgbs 52_Hm1_CoMu_UC_WGBS_E_TS 20 r1   0.0177   0.0173 0.0180   0.0176
wgbs 52_Hm1_CoMu_UC_WGBS_E_TS 20 r2   0.0178   0.0173 0.0181   0.0176
wgbs 52_Hm1_CoMu_UC_WGBS_E_TS 20 r3   0.0177   0.0171 0.0180   0.0176
wgbs 52_Hm1_CoMu_UC_WGBS_E_TS 20 r4   0.0176   0.0172 0.0180   0.0176
wgbs 52_Hm1_CoMu_UC_WGBS_E_TS 20 r5   0.0177   0.0172 0.0180   0.0176
wgbs 52_Hm1_CoMu_UC_WGBS_E_TS 20 r6   0.0175   0.0171 0.0180   0.0176
wgbs 52_Hm1_CoMu_UC_WGBS_E_TS 20 r7   0.0175   0.0171 0.0180   0.0176
wgbs 52_Hm1_CoMu_UC_WGBS_E_TS 20 r8   0.0176   0.0172 0.0180   0.0176
wgbs 52_Hm1_CoMu_UC_WGBS_E_TS 20 r9   0.0175   0.0172 0.0180   0.0176
wgbs 52_Hm1_CoMu_UC_WGBS_E_TS 20 r10   0.0176   0.0172 0.0180   0.0176
wgbs 53_Mf08_LPFi_RA_WGBS_E 20 r1   0.1830   0.1809 0.1853   0.1876
wgbs 53_Mf08_LPFi_RA_WGBS_E 20 r2   0.1823   0.1811 0.1858   0.1876
wgbs 53_Mf08_LPFi_RA_WGBS_E 20 r3   0.1816   0.1805 0.1850   0.1876
wgbs 53_Mf08_LPFi_RA_WGBS_E 20 r4   0.1819   0.1808 0.1856   0.1876
wgbs 53_Mf08_LPFi_RA_WGBS_E 20 r5   0.1829   0.1808 0.1858   0.1876
wgbs 53_Mf08_LPFi_RA_WGBS_E 20 r6   0.1834   0.1809 0.1858   0.1876
wgbs 53_Mf08_LPFi_RA_WGBS_E 20 r7   0.1825   0.1814 0.1859   0.1876
wgbs 53_Mf08_LPFi_RA_WGBS_E 20 r8   0.1835   0.1805 0.1858   0.1876
wgbs 53_Mf08_LPFi_RA_WGBS_E 20 r9   0.1818   0.1808 0.1849   0.1876
wgbs 53_Mf08_LPFi_RA_WGBS_E 20 r10   0.1819   0.1809 0.1852   0.1876
wgbs 44_Mm09_WEAd_Db2_WGBS_E_TS 20 r1   0.1121   0.1110 0.1142   0.1178
wgbs 44_Mm09_WEAd_Db2_WGBS_E_TS 20 r2   0.1110   0.1097 0.1134   0.1178
wgbs 44_Mm09_WEAd_Db2_WGBS_E_TS 20 r3   0.1118   0.1105 0.1139   0.1178
wgbs 44_Mm09_WEAd_Db2_WGBS_E_TS 20 r4   0.1122   0.1109 0.1141   0.1178
wgbs 44_Mm09_WEAd_Db2_WGBS_E_TS 20 r5   0.1130   0.1110 0.1140   0.1178
wgbs 44_Mm09_WEAd_Db2_WGBS_E_TS 20 r6   0.1126   0.1112 0.1145   0.1178
wgbs 44_Mm09_WEAd_Db2_WGBS_E_TS 20 r7   0.1122   0.1108 0.1141   0.1178
wgbs 44_Mm09_WEAd_Db2_WGBS_E_TS 20 r8   0.1116   0.1104 0.1140   0.1178
wgbs 44_Mm09_WEAd_Db2_WGBS_E_TS 20 r9   0.1118   0.1106 0.1141   0.1178
wgbs 44_Mm09_WEAd_Db2_WGBS_E_TS 20 r10   0.1113   0.1101 0.1138   0.1178
wgbs 43_Hm01_BIMo_Ct_WGBS_E.dkfz 20 r1   0.1269   0.1253 0.1286   0.1275
wgbs 43_Hm01_BIMo_Ct_WGBS_E.dkfz 20 r2   0.1282   0.1262 0.1289   0.1275
wgbs 43_Hm01_BIMo_Ct_WGBS_E.dkfz 20 r3   0.1277   0.1259 0.1289   0.1275
wgbs 43_Hm01_BIMo_Ct_WGBS_E.dkfz 20 r4   0.1272   0.1258 0.1289   0.1275
wgbs 43_Hm01_BIMo_Ct_WGBS_E.dkfz 20 r5   0.1276   0.1260 0.1291   0.1275
wgbs 43_Hm01_BIMo_Ct_WGBS_E.dkfz 20 r6   0.1274   0.1259 0.1291   0.1275
wgbs 43_Hm01_BIMo_Ct_WGBS_E.dkfz 20 r7   0.1272   0.1257 0.1288   0.1275
wgbs 43_Hm01_BIMo_Ct_WGBS_E.dkfz 20 r8   0.1280   0.1258 0.1289   0.1275
wgbs 43_Hm01_BIMo_Ct_WGBS_E.dkfz 20 r9   0.1272   0.1257 0.1289   0.1275
wgbs 43_Hm01_BIMo_Ct_WGBS_E.dkfz 20 r10   0.1284   0.1263 0.1291   0.1275
wgbs 43_Hm03_BlMa_TO2_WGBS_E 20 r1   0.0842   0.0828 0.0847   0.0837
wgbs 43_Hm03_BlMa_TO2_WGBS_E 20 r2   0.0838   0.0825 0.0844   0.0837
wgbs 43_Hm03_BlMa_TO2_WGBS_E 20 r3   0.0840   0.0827 0.0845   0.0837
wgbs 43_Hm03_BlMa_TO2_WGBS_E 20 r4   0.0839   0.0825 0.0846   0.0837
wgbs 43_Hm03_BlMa_TO2_WGBS_E 20 r5   0.0840   0.0827 0.0847   0.0837
wgbs 43_Hm03_BlMa_TO2_WGBS_E 20 r6   0.0834   0.0826 0.0847   0.0837
wgbs 43_Hm03_BlMa_TO2_WGBS_E 20 r7   0.0836   0.0824 0.0844   0.0837
wgbs 43_Hm03_BlMa_TO2_WGBS_E 20 r8   0.0838   0.0825 0.0844   0.0837
wgbs 43_Hm03_BlMa_TO2_WGBS_E 20 r9   0.0837   0.0823 0.0844   0.0837
wgbs 43_Hm03_BlMa_TO2_WGBS_E 20 r10   0.0837   0.0824 0.0845   0.0837
wgbs 20780 20 r1   0.1445   0.1276 0.1490   0.5243
wgbs 20780 20 r2   0.1416   0.1261 0.1469   0.5243
wgbs 20780 20 r3   0.1445   0.1273 0.1492   0.5243
wgbs 20780 20 r4   0.1463   0.1281 0.1498   0.5243
wgbs 20780 20 r5   0.1312   0.1264 0.1484   0.5243
wgbs 20780 20 r6   0.1467   0.1281 0.1499   0.5243
wgbs 20780 20 r7   0.1462   0.1278 0.1492   0.5243
wgbs 20780 20 r8   0.1454   0.1272 0.1486   0.5243
wgbs 20780 20 r9   0.1340   0.1265 0.1489   0.5243
wgbs 20780 20 r10   0.1447   0.1271 0.1492   0.5243
wgbs 41_Hf01_LiHe_Ct1_WGBS_S.methylCtools.20131219.dkfz 20 r1   0.0241   0.0235 0.0244   0.0240
wgbs 41_Hf01_LiHe_Ct1_WGBS_S.methylCtools.20131219.dkfz 20 r2   0.0241   0.0236 0.0244   0.0240
wgbs 41_Hf01_LiHe_Ct1_WGBS_S.methylCtools.20131219.dkfz 20 r3   0.0241   0.0236 0.0245   0.0240
wgbs 41_Hf01_LiHe_Ct1_WGBS_S.methylCtools.20131219.dkfz 20 r4   0.0241   0.0235 0.0244   0.0240
wgbs 41_Hf01_LiHe_Ct1_WGBS_S.methylCtools.20131219.dkfz 20 r5   0.0239   0.0236 0.0245   0.0240
wgbs 41_Hf01_LiHe_Ct1_WGBS_S.methylCtools.20131219.dkfz 20 r6   0.0240   0.0235 0.0244   0.0240
wgbs 41_Hf01_LiHe_Ct1_WGBS_S.methylCtools.20131219.dkfz 20 r7   0.0242   0.0236 0.0244   0.0240
wgbs 41_Hf01_LiHe_Ct1_WGBS_S.methylCtools.20131219.dkfz 20 r8   0.0241   0.0235 0.0244   0.0240
wgbs 41_Hf01_LiHe_Ct1_WGBS_S.methylCtools.20131219.dkfz 20 r9   0.0241   0.0236 0.0245   0.0240
wgbs 41_Hf01_LiHe_Ct1_WGBS_S.methylCtools.20131219.dkfz 20 r10   0.0240   0.0236 0.0245   0.0240
wgbs 43_Hm05_BlMa_Ct_WGBS_E 20 r1   0.0782   0.0771 0.0792   0.0789
wgbs 43_Hm05_BlMa_Ct_WGBS_E 20 r2   0.0786   0.0774 0.0795   0.0789
wgbs 43_Hm05_BlMa_Ct_WGBS_E 20 r3   0.0784   0.0774 0.0795   0.0789
wgbs 43_Hm05_BlMa_Ct_WGBS_E 20 r4   0.0784   0.0774 0.0794   0.0789
wgbs 43_Hm05_BlMa_Ct_WGBS_E 20 r5   0.0785   0.0774 0.0794   0.0789
wgbs 43_Hm05_BlMa_Ct_WGBS_E 20 r6   0.0788   0.0774 0.0795   0.0789
wgbs 43_Hm05_BlMa_Ct_WGBS_E 20 r7   0.0789   0.0776 0.0796   0.0789
wgbs 43_Hm05_BlMa_Ct_WGBS_E 20 r8   0.0791   0.0777 0.0797   0.0789
wgbs 43_Hm05_BlMa_Ct_WGBS_E 20 r9   0.0790   0.0776 0.0796   0.0789
wgbs 43_Hm05_BlMa_Ct_WGBS_E 20 r10   0.0784   0.0775 0.0795   0.0789
wgbs 44_Mm03_WEAd_C23_WGBS_high_E_TS 20 r1   0.1172   0.1159 0.1194   0.1233
wgbs 44_Mm03_WEAd_C23_WGBS_high_E_TS 20 r2   0.1177   0.1154 0.1191   0.1233
wgbs 44_Mm03_WEAd_C23_WGBS_high_E_TS 20 r3   0.1172   0.1160 0.1192   0.1233
wgbs 44_Mm03_WEAd_C23_WGBS_high_E_TS 20 r4   0.1164   0.1154 0.1188   0.1233
wgbs 44_Mm03_WEAd_C23_WGBS_high_E_TS 20 r5   0.1176   0.1160 0.1196   0.1233
wgbs 44_Mm03_WEAd_C23_WGBS_high_E_TS 20 r6   0.1175   0.1157 0.1192   0.1233
wgbs 44_Mm03_WEAd_C23_WGBS_high_E_TS 20 r7   0.1169   0.1158 0.1192   0.1233
wgbs 44_Mm03_WEAd_C23_WGBS_high_E_TS 20 r8   0.1165   0.1153 0.1186   0.1233
wgbs 44_Mm03_WEAd_C23_WGBS_high_E_TS 20 r9   0.1171   0.1158 0.1192   0.1233
wgbs 44_Mm03_WEAd_C23_WGBS_high_E_TS 20 r10   0.1161   0.1152 0.1184   0.1233
wgbs 52_Hm1a_CoMu_Ct_WGBS_E 20 r1   0.0613   0.0606 0.0622   0.0616
wgbs 52_Hm1a_CoMu_Ct_WGBS_E 20 r2   0.0615   0.0606 0.0622   0.0616
wgbs 52_Hm1a_CoMu_Ct_WGBS_E 20 r3   0.0612   0.0607 0.0623   0.0616
wgbs 52_Hm1a_CoMu_Ct_WGBS_E 20 r4   0.0618   0.0607 0.0623   0.0616
wgbs 52_Hm1a_CoMu_Ct_WGBS_E 20 r5   0.0617   0.0606 0.0622   0.0616
wgbs 52_Hm1a_CoMu_Ct_WGBS_E 20 r6   0.0612   0.0606 0.0623   0.0616
wgbs 52_Hm1a_CoMu_Ct_WGBS_E 20 r7   0.0616   0.0605 0.0621   0.0616
wgbs 52_Hm1a_CoMu_Ct_WGBS_E 20 r8   0.0615   0.0608 0.0624   0.0616
wgbs 52_Hm1a_CoMu_Ct_WGBS_E 20 r9   0.0616   0.0606 0.0622   0.0616
wgbs 52_Hm1a_CoMu_Ct_WGBS_E 20 r10   0.0610   0.0605 0.0619   0.0616
wgbs 43_Hm03_BlMa_TE2_WGBS_E_EC 20 r1   0.2449   0.2414 0.2483   0.2458
wgbs 43_Hm03_BlMa_TE2_WGBS_E_EC 20 r2   0.2460   0.2417 0.2481   0.2458
wgbs 43_Hm03_BlMa_TE2_WGBS_E_EC 20 r3   0.2453   0.2413 0.2479   0.2458
wgbs 43_Hm03_BlMa_TE2_WGBS_E_EC 20 r4   0.2465   0.2423 0.2489   0.2458
wgbs 43_Hm03_BlMa_TE2_WGBS_E_EC 20 r5   0.2465   0.2421 0.2484   0.2458
wgbs 43_Hm03_BlMa_TE2_WGBS_E_EC 20 r6   0.2449   0.2420 0.2487   0.2458
wgbs 43_Hm03_BlMa_TE2_WGBS_E_EC 20 r7   0.2459   0.2418 0.2486   0.2458
wgbs 43_Hm03_BlMa_TE2_WGBS_E_EC 20 r8   0.2452   0.2416 0.2482   0.2458
wgbs 43_Hm03_BlMa_TE2_WGBS_E_EC 20 r9   0.2433   0.2415 0.2476   0.2458
wgbs 43_Hm03_BlMa_TE2_WGBS_E_EC 20 r10   0.2435   0.2412 0.2478   0.2458
wgbs 44_Mm02_WEAd_C22_WGBS_E 20 r1   0.2478   0.2425 0.2501   0.2582
wgbs 44_Mm02_WEAd_C22_WGBS_E 20 r2   0.2456   0.2431 0.2502   0.2582
wgbs 44_Mm02_WEAd_C22_WGBS_E 20 r3   0.2481   0.2430 0.2502   0.2582
wgbs 44_Mm02_WEAd_C22_WGBS_E 20 r4   0.2479   0.2432 0.2507   0.2582
wgbs 44_Mm02_WEAd_C22_WGBS_E 20 r5   0.2458   0.2436 0.2506   0.2582
wgbs 44_Mm02_WEAd_C22_WGBS_E 20 r6   0.2443   0.2420 0.2495   0.2582
wgbs 44_Mm02_WEAd_C22_WGBS_E 20 r7   0.2459   0.2434 0.2503   0.2582
wgbs 44_Mm02_WEAd_C22_WGBS_E 20 r8   0.2446   0.2423 0.2497   0.2582
wgbs 44_Mm02_WEAd_C22_WGBS_E 20 r9   0.2464   0.2437 0.2505   0.2582
wgbs 44_Mm02_WEAd_C22_WGBS_E 20 r10   0.2464   0.2425 0.2502   0.2582
wgbs 19227ext 20 r1   0.2255   0.2231 0.2266   0.2251
wgbs 19227ext 20 r2   0.2246   0.2230 0.2266   0.2251
wgbs 19227ext 20 r3   0.2262   0.2239 0.2270   0.2251
wgbs 19227ext 20 r4   0.2254   0.2231 0.2266   0.2251
wgbs 19227ext 20 r5   0.2250   0.2233 0.2269   0.2251
wgbs 19227ext 20 r6   0.2249   0.2234 0.2270   0.2251
wgbs 19227ext 20 r7   0.2250   0.2231 0.2267   0.2251
wgbs 19227ext 20 r8   0.2242   0.2231 0.2268   0.2251
wgbs 19227ext 20 r9   0.2250   0.2234 0.2269   0.2251
wgbs 19227ext 20 r10   0.2246   0.2233 0.2270   0.2251
wgbs 44_Mm05_WEAd_C12_WGBS_E_EC 20 r1   0.2074   0.2036 0.2091   0.2075
wgbs 44_Mm05_WEAd_C12_WGBS_E_EC 20 r2   0.2072   0.2039 0.2095   0.2075
wgbs 44_Mm05_WEAd_C12_WGBS_E_EC 20 r3   0.2074   0.2037 0.2092   0.2075
wgbs 44_Mm05_WEAd_C12_WGBS_E_EC 20 r4   0.2076   0.2038 0.2095   0.2075
wgbs 44_Mm05_WEAd_C12_WGBS_E_EC 20 r5   0.2040   0.2029 0.2081   0.2075
wgbs 44_Mm05_WEAd_C12_WGBS_E_EC 20 r6   0.2050   0.2036 0.2085   0.2075
wgbs 44_Mm05_WEAd_C12_WGBS_E_EC 20 r7   0.2054   0.2036 0.2091   0.2075
wgbs 44_Mm05_WEAd_C12_WGBS_E_EC 20 r8   0.2074   0.2037 0.2094   0.2075
wgbs 44_Mm05_WEAd_C12_WGBS_E_EC 20 r9   0.2074   0.2035 0.2094   0.2075
wgbs 44_Mm05_WEAd_C12_WGBS_E_EC 20 r10   0.2064   0.2035 0.2089   0.2075
wgbs 52_Hm1b_CoMu_UC_WGBS_E 20 r1   0.0650   0.0639 0.0656   0.0648
wgbs 52_Hm1b_CoMu_UC_WGBS_E 20 r2   0.0650   0.0639 0.0656   0.0648
wgbs 52_Hm1b_CoMu_UC_WGBS_E 20 r3   0.0651   0.0639 0.0656   0.0648
wgbs 52_Hm1b_CoMu_UC_WGBS_E 20 r4   0.0648   0.0637 0.0655   0.0648
wgbs 52_Hm1b_CoMu_UC_WGBS_E 20 r5   0.0649   0.0638 0.0655   0.0648
wgbs 52_Hm1b_CoMu_UC_WGBS_E 20 r6   0.0648   0.0637 0.0654   0.0648
wgbs 52_Hm1b_CoMu_UC_WGBS_E 20 r7   0.0652   0.0640 0.0657   0.0648
wgbs 52_Hm1b_CoMu_UC_WGBS_E 20 r8   0.0649   0.0638 0.0656   0.0648
wgbs 52_Hm1b_CoMu_UC_WGBS_E 20 r9   0.0650   0.0639 0.0656   0.0648
wgbs 52_Hm1b_CoMu_UC_WGBS_E 20 r10   0.0644   0.0639 0.0656   0.0648
wgbs 53_Mf07_LPFi_CT_WGBS_EC 20 r1   0.3248   0.3185 0.3283   0.3263
wgbs 53_Mf07_LPFi_CT_WGBS_EC 20 r2   0.3250   0.3184 0.3281   0.3263
wgbs 53_Mf07_LPFi_CT_WGBS_EC 20 r3   0.3259   0.3195 0.3292   0.3263
wgbs 53_Mf07_LPFi_CT_WGBS_EC 20 r4   0.3259   0.3195 0.3294   0.3263
wgbs 53_Mf07_LPFi_CT_WGBS_EC 20 r5   0.3256   0.3188 0.3287   0.3263
wgbs 53_Mf07_LPFi_CT_WGBS_EC 20 r6   0.3221   0.3172 0.3266   0.3263
wgbs 53_Mf07_LPFi_CT_WGBS_EC 20 r7   0.3245   0.3182 0.3269   0.3263
wgbs 53_Mf07_LPFi_CT_WGBS_EC 20 r8   0.3227   0.3175 0.3271   0.3263
wgbs 53_Mf07_LPFi_CT_WGBS_EC 20 r9   0.3247   0.3187 0.3287   0.3263
wgbs 53_Mf07_LPFi_CT_WGBS_EC 20 r10   0.3228   0.3175 0.3274   0.3263
wgbs 41_Hf01_LiHe_Ct1_WGBS_S.methylCtools.20130928.dkfz 20 r1   0.0242   0.0236 0.0244   0.0241
wgbs 41_Hf01_LiHe_Ct1_WGBS_S.methylCtools.20130928.dkfz 20 r2   0.0240   0.0235 0.0244   0.0241
wgbs 41_Hf01_LiHe_Ct1_WGBS_S.methylCtools.20130928.dkfz 20 r3   0.0239   0.0236 0.0244   0.0241
wgbs 41_Hf01_LiHe_Ct1_WGBS_S.methylCtools.20130928.dkfz 20 r4   0.0239   0.0237 0.0245   0.0241
wgbs 41_Hf01_LiHe_Ct1_WGBS_S.methylCtools.20130928.dkfz 20 r5   0.0239   0.0236 0.0244   0.0241
wgbs 41_Hf01_LiHe_Ct1_WGBS_S.methylCtools.20130928.dkfz 20 r6   0.0242   0.0236 0.0245   0.0241
wgbs 41_Hf01_LiHe_Ct1_WGBS_S.methylCtools.20130928.dkfz 20 r7   0.0241   0.0236 0.0245   0.0241
wgbs 41_Hf01_LiHe_Ct1_WGBS_S.methylCtools.20130928.dkfz 20 r8   0.0241   0.0236 0.0245   0.0241
wgbs 41_Hf01_LiHe_Ct1_WGBS_S.methylCtools.20130928.dkfz 20 r9   0.0242   0.0237 0.0245   0.0241
wgbs 41_Hf01_LiHe_Ct1_WGBS_S.methylCtools.20130928.dkfz 20 r10   0.0240   0.0236 0.0245   0.0241
wgbs 21437_EC 20 r1   0.2744   0.2691 0.2768   0.2746
wgbs 21437_EC 20 r2   0.2749   0.2697 0.2773   0.2746
wgbs 21437_EC 20 r3   0.2744   0.2691 0.2771   0.2746
wgbs 21437_EC 20 r4   0.2744   0.2691 0.2770   0.2746
wgbs 21437_EC 20 r5   0.2733   0.2693 0.2772   0.2746
wgbs 21437_EC 20 r6   0.2748   0.2697 0.2769   0.2746
wgbs 21437_EC 20 r7   0.2726   0.2682 0.2754   0.2746
wgbs 21437_EC 20 r8   0.2748   0.2698 0.2774   0.2746
wgbs 21437_EC 20 r9   0.2741   0.2687 0.2765   0.2746
wgbs 21437_EC 20 r10   0.2743   0.2688 0.2766   0.2746
wgbs 44_Mm03_WEAd_C23_WGBS_E 20 r1   0.1605   0.1599 0.1621   0.1656
wgbs 44_Mm03_WEAd_C23_WGBS_E 20 r2   0.1605   0.1599 0.1624   0.1656
wgbs 44_Mm03_WEAd_C23_WGBS_E 20 r3   0.1602   0.1596 0.1620   0.1656
wgbs 44_Mm03_WEAd_C23_WGBS_E 20 r4   0.1601   0.1594 0.1621   0.1656
wgbs 44_Mm03_WEAd_C23_WGBS_E 20 r5   0.1603   0.1596 0.1623   0.1656
wgbs 44_Mm03_WEAd_C23_WGBS_E 20 r6   0.1600   0.1594 0.1620   0.1656
wgbs 44_Mm03_WEAd_C23_WGBS_E 20 r7   0.1603   0.1596 0.1621   0.1656
wgbs 44_Mm03_WEAd_C23_WGBS_E 20 r8   0.1602   0.1596 0.1620   0.1656
wgbs 44_Mm03_WEAd_C23_WGBS_E 20 r9   0.1601   0.1595 0.1620   0.1656
wgbs 44_Mm03_WEAd_C23_WGBS_E 20 r10   0.1602   0.1596 0.1622   0.1656
